layer at (0,0) size 800x600
  RenderView at (0,0) size 800x600
layer at (0,0) size 450x500
  RenderSVGRoot {svg} at (14,35) size 410x366
    RenderSVGText {text} at (105,35) size 240x19 contains 1 chunk(s)
      RenderSVGInlineText {#text} at (0,0) size 240x19
        chunk 1 (middle anchor) text run 1 at (105.00,50.00) startOffset 0 endOffset 34 width 240.00: "patternUnits / patternContentUnits"
    RenderSVGText {text} at (168,60) size 114x19 contains 1 chunk(s)
      RenderSVGInlineText {#text} at (0,0) size 114x19
        chunk 1 (middle anchor) text run 1 at (168.00,75.00) startOffset 0 endOffset 15 width 114.00: "pattern viewBox"
    RenderSVGContainer {g} at (14,109) size 410x292
      RenderSVGHiddenContainer {defs} at (0,0) size 0x0
        RenderSVGResourcePattern {pattern} [id="pattern1"] [patternUnits=objectBoundingBox] [patternContentUnits=userSpaceOnUse]
          RenderSVGPath {circle} at (0,0) size 20x20 [fill={[type=SOLID] [color=#FF0000]}] [cx=10.00] [cy=10.00] [r=10.00]
          RenderSVGPath {rect} at (10,10) size 15x15 [fill={[type=SOLID] [color=#008000]}] [x=10.00] [y=10.00] [width=15.00] [height=15.00]
        RenderSVGResourcePattern {pattern} [id="pattern2"] [patternUnits=objectBoundingBox] [patternContentUnits=userSpaceOnUse]
          RenderSVGPath {circle} at (0,0) size 20x20 [fill={[type=SOLID] [color=#FF0000]}] [cx=10.00] [cy=10.00] [r=10.00]
          RenderSVGPath {rect} at (10,10) size 15x15 [fill={[type=SOLID] [color=#008000]}] [x=10.00] [y=10.00] [width=15.00] [height=15.00]
        RenderSVGResourcePattern {pattern} [id="pattern3"] [patternUnits=userSpaceOnUse] [patternContentUnits=userSpaceOnUse]
          RenderSVGPath {circle} at (0,0) size 20x20 [fill={[type=SOLID] [color=#FF0000]}] [cx=10.00] [cy=10.00] [r=10.00]
          RenderSVGPath {rect} at (10,10) size 15x15 [fill={[type=SOLID] [color=#008000]}] [x=10.00] [y=10.00] [width=15.00] [height=15.00]
        RenderSVGResourcePattern {pattern} [id="pattern4"] [patternUnits=objectBoundingBox] [patternContentUnits=objectBoundingBox]
          RenderSVGPath {circle} at (0,0) size 1x1 [fill={[type=SOLID] [color=#FF0000]}] [cx=0.25] [cy=0.33] [r=0.25]
          RenderSVGPath {rect} at (0,0) size 1x1 [fill={[type=SOLID] [color=#008000]}] [x=0.25] [y=0.33] [width=0.38] [height=0.50]
        RenderSVGResourcePattern {pattern} [id="pattern5"] [patternUnits=objectBoundingBox] [patternContentUnits=objectBoundingBox]
          RenderSVGPath {circle} at (0,0) size 1x1 [fill={[type=SOLID] [color=#FF0000]}] [cx=0.25] [cy=0.33] [r=0.25]
          RenderSVGPath {rect} at (0,0) size 1x1 [fill={[type=SOLID] [color=#008000]}] [x=0.25] [y=0.33] [width=0.38] [height=0.50]
        RenderSVGResourcePattern {pattern} [id="pattern6"] [patternUnits=userSpaceOnUse] [patternContentUnits=objectBoundingBox]
          RenderSVGPath {circle} at (0,0) size 1x1 [fill={[type=SOLID] [color=#FF0000]}] [cx=0.25] [cy=0.33] [r=0.25]
          RenderSVGPath {rect} at (0,0) size 1x1 [fill={[type=SOLID] [color=#008000]}] [x=0.25] [y=0.33] [width=0.38] [height=0.50]
        RenderSVGResourcePattern {pattern} [id="pattern7"] [patternUnits=userSpaceOnUse] [patternContentUnits=objectBoundingBox]
          RenderSVGPath {circle} at (0,0) size 40x40 [fill={[type=SOLID] [color=#FF0000]}] [cx=20.00] [cy=20.00] [r=20.00]
        RenderSVGResourcePattern {pattern} [id="pattern8"] [patternUnits=userSpaceOnUse] [patternContentUnits=objectBoundingBox]
          RenderSVGPath {circle} at (0,0) size 40x40 [fill={[type=SOLID] [color=#FF0000]}] [cx=20.00] [cy=20.00] [r=20.00]
        RenderSVGResourceRadialGradient {radialGradient} [id="redToYellow"] [gradientUnits=objectBoundingBox] [center=(0.50,0.50)] [focal=(0.50,0.50)] [radius=0.50]
          RenderSVGGradientStop {stop} [offset=0.00] [color=#FF0000]
          RenderSVGGradientStop {stop} [offset=1.00] [color=#FFFF00]
        RenderSVGResourcePattern {pattern} [id="pattern9"] [patternUnits=userSpaceOnUse] [patternContentUnits=objectBoundingBox]
          RenderSVGPath {circle} at (0,0) size 60x60 [fill={[type=RADIAL-GRADIENT] [id="redToYellow"]}] [cx=20.00] [cy=20.00] [r=40.00]
      RenderSVGContainer {g} at (14,109) size 410x292 [transform={m=((1.00,0.00)(0.00,1.00)) t=(-5.00,100.00)}]
        RenderSVGContainer {g} at (14,109) size 135x43 [transform={m=((1.00,0.00)(0.00,1.00)) t=(20.00,20.00)}]
          RenderSVGPath {rect} at (14,119) size 42x32 [stroke={[type=SOLID] [color=#000000]}] [fill={[type=PATTERN] [id="pattern1"]}] [x=0.00] [y=0.00] [width=40.00] [height=30.00]
          RenderSVGText {text} at (0,-11) size 37x12 contains 1 chunk(s)
            RenderSVGInlineText {#text} at (0,0) size 37x12
              chunk 1 text run 1 at (0.00,-2.00) startOffset 0 endOffset 9 width 37.00: "#pattern1"
          RenderSVGContainer {g} at (65,120) size 84x32 [transform={m=((1.00,0.00)(0.00,1.00)) t=(50.00,9.00)}]
            RenderSVGText {text} at (0,-9) size 82x12 contains 1 chunk(s)
              RenderSVGInlineText {#text} at (0,0) size 82x12
                chunk 1 text run 1 at (0.00,0.00) startOffset 0 endOffset 20 width 82.00: "patternUnits=default"
            RenderSVGText {text} at (0,1) size 84x12 contains 1 chunk(s)
              RenderSVGInlineText {#text} at (0,0) size 84x12
                chunk 1 text run 1 at (0.00,10.00) startOffset 0 endOffset 20 width 84.00: "contentUnits=default"
            RenderSVGText {text} at (0,11) size 47x12 contains 1 chunk(s)
              RenderSVGInlineText {#text} at (0,0) size 47x12
                chunk 1 text run 1 at (0.00,20.00) startOffset 0 endOffset 10 width 47.00: "no viewbox"
        RenderSVGContainer {g} at (14,159) size 187x42 [transform={m=((1.00,0.00)(0.00,1.00)) t=(20.00,70.00)}]
          RenderSVGPath {rect} at (14,169) size 42x32 [stroke={[type=SOLID] [color=#000000]}] [fill={[type=PATTERN] [id="pattern2"]}] [x=0.00] [y=0.00] [width=40.00] [height=30.00]
          RenderSVGText {text} at (0,-11) size 37x12 contains 1 chunk(s)
            RenderSVGInlineText {#text} at (0,0) size 37x12
              chunk 1 text run 1 at (0.00,-2.00) startOffset 0 endOffset 9 width 37.00: "#pattern2"
          RenderSVGContainer {g} at (65,170) size 136x22 [transform={m=((1.00,0.00)(0.00,1.00)) t=(50.00,9.00)}]
            RenderSVGText {text} at (0,-9) size 136x12 contains 1 chunk(s)
              RenderSVGInlineText {#text} at (0,0) size 136x12
                chunk 1 text run 1 at (0.00,0.00) startOffset 0 endOffset 30 width 136.00: "patternUnits=objectBoundingBox"
            RenderSVGText {text} at (0,1) size 84x12 contains 1 chunk(s)
              RenderSVGInlineText {#text} at (0,0) size 84x12
                chunk 1 text run 1 at (0.00,10.00) startOffset 0 endOffset 20 width 84.00: "contentUnits=default"
        RenderSVGContainer {g} at (14,209) size 172x43 [transform={m=((1.00,0.00)(0.00,1.00)) t=(20.00,120.00)}]
          RenderSVGPath {rect} at (14,219) size 42x32 [stroke={[type=SOLID] [color=#000000]}] [fill={[type=PATTERN] [id="pattern3"]}] [x=0.00] [y=0.00] [width=40.00] [height=30.00]
          RenderSVGText {text} at (0,-11) size 37x12 contains 1 chunk(s)
            RenderSVGInlineText {#text} at (0,0) size 37x12
              chunk 1 text run 1 at (0.00,-2.00) startOffset 0 endOffset 9 width 37.00: "#pattern3"
          RenderSVGContainer {g} at (65,220) size 121x32 [transform={m=((1.00,0.00)(0.00,1.00)) t=(50.00,9.00)}]
            RenderSVGText {text} at (0,-9) size 121x12 contains 1 chunk(s)
              RenderSVGInlineText {#text} at (0,0) size 121x12
                chunk 1 text run 1 at (0.00,0.00) startOffset 0 endOffset 27 width 121.00: "patternUnits=userSpaceOnUse"
            RenderSVGText {text} at (0,1) size 84x12 contains 1 chunk(s)
              RenderSVGInlineText {#text} at (0,0) size 84x12
                chunk 1 text run 1 at (0.00,10.00) startOffset 0 endOffset 20 width 84.00: "contentUnits=default"
            RenderSVGText {text} at (0,11) size 68x12 contains 1 chunk(s)
              RenderSVGInlineText {#text} at (0,0) size 68x12
                chunk 1 text run 1 at (0.00,20.00) startOffset 0 endOffset 16 width 68.00: "overflow=visible"
        RenderSVGContainer {g} at (14,259) size 189x43 [transform={m=((1.00,0.00)(0.00,1.00)) t=(20.00,170.00)}]
          RenderSVGPath {rect} at (14,269) size 42x32 [stroke={[type=SOLID] [color=#000000]}] [fill={[type=PATTERN] [id="pattern4"]}] [x=0.00] [y=0.00] [width=40.00] [height=30.00]
          RenderSVGText {text} at (0,-11) size 37x12 contains 1 chunk(s)
            RenderSVGInlineText {#text} at (0,0) size 37x12
              chunk 1 text run 1 at (0.00,-2.00) startOffset 0 endOffset 9 width 37.00: "#pattern4"
          RenderSVGContainer {g} at (65,270) size 138x32 [transform={m=((1.00,0.00)(0.00,1.00)) t=(50.00,9.00)}]
            RenderSVGText {text} at (0,-9) size 82x12 contains 1 chunk(s)
              RenderSVGInlineText {#text} at (0,0) size 82x12
                chunk 1 text run 1 at (0.00,0.00) startOffset 0 endOffset 20 width 82.00: "patternUnits=default"
            RenderSVGText {text} at (0,1) size 138x12 contains 1 chunk(s)
              RenderSVGInlineText {#text} at (0,0) size 138x12
                chunk 1 text run 1 at (0.00,10.00) startOffset 0 endOffset 30 width 138.00: "contentUnits=objectBoundingBox"
            RenderSVGText {text} at (0,11) size 68x12 contains 1 chunk(s)
              RenderSVGInlineText {#text} at (0,0) size 68x12
                chunk 1 text run 1 at (0.00,20.00) startOffset 0 endOffset 16 width 68.00: "overflow=visible"
        RenderSVGContainer {g} at (14,309) size 189x42 [transform={m=((1.00,0.00)(0.00,1.00)) t=(20.00,220.00)}]
          RenderSVGPath {rect} at (14,319) size 42x32 [stroke={[type=SOLID] [color=#000000]}] [fill={[type=PATTERN] [id="pattern5"]}] [x=0.00] [y=0.00] [width=40.00] [height=30.00]
          RenderSVGText {text} at (0,-11) size 37x12 contains 1 chunk(s)
            RenderSVGInlineText {#text} at (0,0) size 37x12
              chunk 1 text run 1 at (0.00,-2.00) startOffset 0 endOffset 9 width 37.00: "#pattern5"
          RenderSVGContainer {g} at (65,320) size 138x22 [transform={m=((1.00,0.00)(0.00,1.00)) t=(50.00,9.00)}]
            RenderSVGText {text} at (0,-9) size 136x12 contains 1 chunk(s)
              RenderSVGInlineText {#text} at (0,0) size 136x12
                chunk 1 text run 1 at (0.00,0.00) startOffset 0 endOffset 30 width 136.00: "patternUnits=objectBoundingBox"
            RenderSVGText {text} at (0,1) size 138x12 contains 1 chunk(s)
              RenderSVGInlineText {#text} at (0,0) size 138x12
                chunk 1 text run 1 at (0.00,10.00) startOffset 0 endOffset 30 width 138.00: "contentUnits=objectBoundingBox"
        RenderSVGContainer {g} at (14,359) size 189x42 [transform={m=((1.00,0.00)(0.00,1.00)) t=(20.00,270.00)}]
          RenderSVGPath {rect} at (14,369) size 42x32 [stroke={[type=SOLID] [color=#000000]}] [fill={[type=PATTERN] [id="pattern6"]}] [x=0.00] [y=0.00] [width=40.00] [height=30.00]
          RenderSVGText {text} at (0,-11) size 37x12 contains 1 chunk(s)
            RenderSVGInlineText {#text} at (0,0) size 37x12
              chunk 1 text run 1 at (0.00,-2.00) startOffset 0 endOffset 9 width 37.00: "#pattern6"
          RenderSVGContainer {g} at (65,370) size 138x22 [transform={m=((1.00,0.00)(0.00,1.00)) t=(50.00,9.00)}]
            RenderSVGText {text} at (0,-9) size 121x12 contains 1 chunk(s)
              RenderSVGInlineText {#text} at (0,0) size 121x12
                chunk 1 text run 1 at (0.00,0.00) startOffset 0 endOffset 27 width 121.00: "patternUnits=userSpaceOnUse"
            RenderSVGText {text} at (0,1) size 138x12 contains 1 chunk(s)
              RenderSVGInlineText {#text} at (0,0) size 138x12
                chunk 1 text run 1 at (0.00,10.00) startOffset 0 endOffset 30 width 138.00: "contentUnits=objectBoundingBox"
        RenderSVGContainer {g} at (219,109) size 196x43 [transform={m=((1.00,0.00)(0.00,1.00)) t=(225.00,20.00)}]
          RenderSVGPath {rect} at (219,119) size 42x32 [stroke={[type=SOLID] [color=#000000]}] [fill={[type=PATTERN] [id="pattern7"]}] [x=0.00] [y=0.00] [width=40.00] [height=30.00]
          RenderSVGText {text} at (0,-11) size 37x12 contains 1 chunk(s)
            RenderSVGInlineText {#text} at (0,0) size 37x12
              chunk 1 text run 1 at (0.00,-2.00) startOffset 0 endOffset 9 width 37.00: "#pattern7"
          RenderSVGContainer {g} at (270,120) size 145x32 [transform={m=((1.00,0.00)(0.00,1.00)) t=(50.00,9.00)}]
            RenderSVGText {text} at (0,-9) size 121x12 contains 1 chunk(s)
              RenderSVGInlineText {#text} at (0,0) size 121x12
                chunk 1 text run 1 at (0.00,0.00) startOffset 0 endOffset 27 width 121.00: "patternUnits=userSpaceOnUse"
            RenderSVGText {text} at (0,1) size 138x12 contains 1 chunk(s)
              RenderSVGInlineText {#text} at (0,0) size 138x12
                chunk 1 text run 1 at (0.00,10.00) startOffset 0 endOffset 30 width 138.00: "contentUnits=objectBoundingBox"
            RenderSVGText {text} at (0,11) size 145x12 contains 1 chunk(s)
              RenderSVGInlineText {#text} at (0,0) size 145x12
                chunk 1 text run 1 at (0.00,20.00) startOffset 0 endOffset 32 width 145.00: "viewBox preserveAspectRatio=none"
        RenderSVGContainer {g} at (219,159) size 205x42 [transform={m=((1.00,0.00)(0.00,1.00)) t=(225.00,70.00)}]
          RenderSVGPath {rect} at (219,169) size 42x32 [stroke={[type=SOLID] [color=#000000]}] [fill={[type=PATTERN] [id="pattern8"]}] [x=0.00] [y=0.00] [width=40.00] [height=30.00]
          RenderSVGText {text} at (0,-11) size 37x12 contains 1 chunk(s)
            RenderSVGInlineText {#text} at (0,0) size 37x12
              chunk 1 text run 1 at (0.00,-2.00) startOffset 0 endOffset 9 width 37.00: "#pattern8"
          RenderSVGContainer {g} at (270,170) size 154x22 [transform={m=((1.00,0.00)(0.00,1.00)) t=(50.00,9.00)}]
            RenderSVGText {text} at (0,-9) size 92x12 contains 1 chunk(s)
              RenderSVGInlineText {#text} at (0,0) size 92x12
                chunk 1 text run 1 at (0.00,0.00) startOffset 0 endOffset 22 width 92.00: "same as pattern#7 with"
            RenderSVGText {text} at (0,1) size 154x12 contains 1 chunk(s)
              RenderSVGInlineText {#text} at (0,0) size 154x12
                chunk 1 text run 1 at (0.00,10.00) startOffset 0 endOffset 33 width 154.00: "preserveAspectRatio=xMinYmin meet"
        RenderSVGContainer {g} at (219,209) size 204x42 [transform={m=((1.00,0.00)(0.00,1.00)) t=(225.00,120.00)}]
          RenderSVGPath {rect} at (219,219) size 42x32 [stroke={[type=SOLID] [color=#000000]}] [fill={[type=PATTERN] [id="pattern9"]}] [x=0.00] [y=0.00] [width=40.00] [height=30.00]
          RenderSVGText {text} at (0,-11) size 37x12 contains 1 chunk(s)
            RenderSVGInlineText {#text} at (0,0) size 37x12
              chunk 1 text run 1 at (0.00,-2.00) startOffset 0 endOffset 9 width 37.00: "#pattern9"
          RenderSVGContainer {g} at (270,220) size 153x22 [transform={m=((1.00,0.00)(0.00,1.00)) t=(50.00,9.00)}]
            RenderSVGText {text} at (0,-9) size 153x12 contains 1 chunk(s)
              RenderSVGInlineText {#text} at (0,0) size 153x12
                chunk 1 text run 1 at (0.00,0.00) startOffset 0 endOffset 34 width 153.00: "preserveAspectRatio=xMinYmin slice"
            RenderSVGText {text} at (0,1) size 68x12 contains 1 chunk(s)
              RenderSVGInlineText {#text} at (0,0) size 68x12
                chunk 1 text run 1 at (0.00,10.00) startOffset 0 endOffset 16 width 68.00: "overflow=visible"
    RenderSVGContainer {use} at (0,0) size 0x0
      RenderSVGContainer {g} at (0,0) size 0x0
