layer at (0,0) size 800x600
  RenderView at (0,0) size 800x600
layer at (0,0) size 800x600
  RenderBlock {HTML} at (0,0) size 800x600
    RenderBody {BODY} at (8,8) size 784x584
      RenderDetails {DETAILS} at (0,0) size 784x40
        RenderSummary {SUMMARY} at (0,0) size 784x20
          RenderDetailsMarker {DIV} at (0,5) size 10x10: down
          RenderText {#text} at (16,0) size 54x19
            text run at (16,0) width 54: "summary"
        RenderBlock (anonymous) at (0,20) size 784x20
          RenderText {#text} at (0,0) size 0x0
          RenderText {#text} at (0,0) size 150x19
            text run at (0,0) width 150: "should have no bold test."
