layer at (0,0) size 800x600
  RenderView at (0,0) size 800x600
layer at (0,0) size 800x600
  RenderBlock {HTML} at (0,0) size 800x600
    RenderBody {BODY} at (8,8) size 784x584
      RenderText {#text} at (0,4) size 80x22
        text run at (0,4) width 80: "Test result: "
      RenderMenuList {SELECT} at (82,2) size 68x27 [bgcolor=#FFFFFF]
        RenderBlock (anonymous) at (4,2) size 40x22
          RenderText at (0,0) size 40x22
            text run at (0,0) width 40: "PASS"
      RenderText {#text} at (0,0) size 0x0
      RenderText {#text} at (0,0) size 0x0
