layer at (0,0) size 800x600
  RenderView at (0,0) size 800x600
layer at (0,0) size 800x600
  RenderSVGRoot {svg} at (0,8) size 687x296
    RenderSVGContainer {g} at (0,8) size 687x296
      RenderSVGText {text} at (0,5) size 412x19 contains 1 chunk(s)
        RenderSVGInlineText {#text} at (0,0) size 412x19
          chunk 1 text run 1 at (0.00,20.00) startOffset 0 endOffset 61 width 411.60: "This should show three markers on the path for start/mid/end."
      RenderSVGText {text} at (0,25) size 386x19 contains 1 chunk(s)
        RenderSVGInlineText {#text} at (0,0) size 386x19
          chunk 1 text run 1 at (0.00,40.00) startOffset 0 endOffset 55 width 385.80: "Start marker has no markerWidth/markerHeight specified."
      RenderSVGText {text} at (0,45) size 286x19 contains 1 chunk(s)
        RenderSVGInlineText {#text} at (0,0) size 286x19
          chunk 1 text run 1 at (0.00,60.00) startOffset 0 endOffset 40 width 285.60: "Mid marker has no markerWidth specified."
      RenderSVGText {text} at (0,65) size 290x19 contains 1 chunk(s)
        RenderSVGInlineText {#text} at (0,0) size 290x19
          chunk 1 text run 1 at (0.00,80.00) startOffset 0 endOffset 41 width 289.20: "End marker has no markerHeight specified."
      RenderSVGResourceMarker {marker} [id="marker1"] [markerUnits=strokeWidth] [ref at (5,5)] [angle=0.00]
        RenderSVGPath {rect} at (0,0) size 5x5 [fill={[type=SOLID] [color=#008000]}] [x=0.00] [y=0.00] [width=10.00] [height=10.00]
      RenderSVGResourceMarker {marker} [id="marker2"] [markerUnits=strokeWidth] [ref at (5,5)] [angle=0.00]
        RenderSVGPath {rect} at (0,0) size 5x5 [fill={[type=SOLID] [color=#008000]}] [x=0.00] [y=0.00] [width=10.00] [height=10.00]
      RenderSVGResourceMarker {marker} [id="marker3"] [markerUnits=strokeWidth] [ref at (5,5)] [angle=0.00]
        RenderSVGPath {rect} at (0,0) size 5x5 [fill={[type=SOLID] [color=#008000]}] [x=0.00] [y=0.00] [width=10.00] [height=10.00]
      RenderSVGPath {path} at (196,180) size 124x124 [start marker=marker1] [middle marker=marker2] [end marker=marker3] [data="M 130 120 L 180 120 L 180 170"]
