layer at (0,0) size 800x600
  RenderView at (0,0) size 800x600
layer at (0,0) size 800x600
  RenderSVGRoot {svg} at (0,5) size 532x578
    RenderSVGText {text} at (110,5) size 107x19 contains 1 chunk(s)
      RenderSVGInlineText {#text} at (0,0) size 107x19
        chunk 1 text run 1 at (110.00,20.00) startOffset 0 endOffset 19 width 107.00: "Visibility: visible"
    RenderSVGText {text} at (340,5) size 109x19 contains 1 chunk(s)
      RenderSVGInlineText {#text} at (0,0) size 109x19
        chunk 1 text run 1 at (340.00,20.00) startOffset 0 endOffset 18 width 109.00: "Visibility: hidden"
    RenderSVGContainer {g} at (0,23) size 532x560
      RenderSVGText {text} at (0,45) size 27x19 contains 1 chunk(s)
        RenderSVGInlineText {#text} at (0,0) size 27x19
          chunk 1 text run 1 at (0.00,60.00) startOffset 0 endOffset 4 width 27.00: "auto"
      RenderSVGText {text} at (100,24) size 20x45 contains 1 chunk(s)
        RenderSVGInlineText {#text} at (0,0) size 20x45
          chunk 1 text run 1 at (100.00,60.00) startOffset 0 endOffset 1 width 20.00: "#"
      RenderSVGText {text} at (105,35) size 28x19 contains 1 chunk(s)
        RenderSVGInlineText {#text} at (0,0) size 28x19
          chunk 1 text run 1 at (105.00,50.00) startOffset 0 endOffset 4 width 28.00: "miss"
      RenderSVGText {text} at (157,24) size 20x45 contains 1 chunk(s)
        RenderSVGInlineText {#text} at (0,0) size 20x45
          chunk 1 text run 1 at (157.00,60.00) startOffset 0 endOffset 1 width 20.00: "#"
      RenderSVGText {text} at (162,35) size 27x19 contains 1 chunk(s)
        RenderSVGInlineText {#text} at (0,0) size 27x19
          chunk 1 text run 1 at (162.00,50.00) startOffset 0 endOffset 3 width 27.00: "HIT"
      RenderSVGText {text} at (214,24) size 20x45 contains 1 chunk(s)
        RenderSVGInlineText {#text} at (0,0) size 20x45
          chunk 1 text run 1 at (214.00,60.00) startOffset 0 endOffset 1 width 20.00: "#"
      RenderSVGText {text} at (219,35) size 27x19 contains 1 chunk(s)
        RenderSVGInlineText {#text} at (0,0) size 27x19
          chunk 1 text run 1 at (219.00,50.00) startOffset 0 endOffset 3 width 27.00: "HIT"
      RenderSVGText {text} at (271,24) size 20x45 contains 1 chunk(s)
        RenderSVGInlineText {#text} at (0,0) size 20x45
          chunk 1 text run 1 at (271.00,60.00) startOffset 0 endOffset 1 width 20.00: "#"
      RenderSVGText {text} at (276,35) size 27x19 contains 1 chunk(s)
        RenderSVGInlineText {#text} at (0,0) size 27x19
          chunk 1 text run 1 at (276.00,50.00) startOffset 0 endOffset 3 width 27.00: "HIT"
      RenderSVGText {text} at (328,24) size 20x45 contains 1 chunk(s)
        RenderSVGInlineText {#text} at (0,0) size 20x45
          chunk 1 text run 1 at (328.00,60.00) startOffset 0 endOffset 1 width 20.00: "#"
      RenderSVGText {text} at (333,35) size 28x19 contains 1 chunk(s)
        RenderSVGInlineText {#text} at (0,0) size 28x19
          chunk 1 text run 1 at (333.00,50.00) startOffset 0 endOffset 4 width 28.00: "miss"
      RenderSVGText {text} at (385,24) size 20x45 contains 1 chunk(s)
        RenderSVGInlineText {#text} at (0,0) size 20x45
          chunk 1 text run 1 at (385.00,60.00) startOffset 0 endOffset 1 width 20.00: "#"
      RenderSVGText {text} at (390,35) size 28x19 contains 1 chunk(s)
        RenderSVGInlineText {#text} at (0,0) size 28x19
          chunk 1 text run 1 at (390.00,50.00) startOffset 0 endOffset 4 width 28.00: "miss"
      RenderSVGText {text} at (442,24) size 20x45 contains 1 chunk(s)
        RenderSVGInlineText {#text} at (0,0) size 20x45
          chunk 1 text run 1 at (442.00,60.00) startOffset 0 endOffset 1 width 20.00: "#"
      RenderSVGText {text} at (447,35) size 28x19 contains 1 chunk(s)
        RenderSVGInlineText {#text} at (0,0) size 28x19
          chunk 1 text run 1 at (447.00,50.00) startOffset 0 endOffset 4 width 28.00: "miss"
      RenderSVGText {text} at (499,24) size 20x45 contains 1 chunk(s)
        RenderSVGInlineText {#text} at (0,0) size 20x45
          chunk 1 text run 1 at (499.00,60.00) startOffset 0 endOffset 1 width 20.00: "#"
      RenderSVGText {text} at (504,35) size 28x19 contains 1 chunk(s)
        RenderSVGInlineText {#text} at (0,0) size 28x19
          chunk 1 text run 1 at (504.00,50.00) startOffset 0 endOffset 4 width 28.00: "miss"
      RenderSVGText {text} at (0,102) size 88x19 contains 1 chunk(s)
        RenderSVGInlineText {#text} at (0,0) size 88x19
          chunk 1 text run 1 at (0.00,117.00) startOffset 0 endOffset 14 width 88.00: "visiblePainted"
      RenderSVGText {text} at (100,81) size 20x45 contains 1 chunk(s)
        RenderSVGInlineText {#text} at (0,0) size 20x45
          chunk 1 text run 1 at (100.00,117.00) startOffset 0 endOffset 1 width 20.00: "#"
      RenderSVGText {text} at (105,92) size 28x19 contains 1 chunk(s)
        RenderSVGInlineText {#text} at (0,0) size 28x19
          chunk 1 text run 1 at (105.00,107.00) startOffset 0 endOffset 4 width 28.00: "miss"
      RenderSVGText {text} at (157,81) size 20x45 contains 1 chunk(s)
        RenderSVGInlineText {#text} at (0,0) size 20x45
          chunk 1 text run 1 at (157.00,117.00) startOffset 0 endOffset 1 width 20.00: "#"
      RenderSVGText {text} at (162,92) size 27x19 contains 1 chunk(s)
        RenderSVGInlineText {#text} at (0,0) size 27x19
          chunk 1 text run 1 at (162.00,107.00) startOffset 0 endOffset 3 width 27.00: "HIT"
      RenderSVGText {text} at (214,81) size 20x45 contains 1 chunk(s)
        RenderSVGInlineText {#text} at (0,0) size 20x45
          chunk 1 text run 1 at (214.00,117.00) startOffset 0 endOffset 1 width 20.00: "#"
      RenderSVGText {text} at (219,92) size 27x19 contains 1 chunk(s)
        RenderSVGInlineText {#text} at (0,0) size 27x19
          chunk 1 text run 1 at (219.00,107.00) startOffset 0 endOffset 3 width 27.00: "HIT"
      RenderSVGText {text} at (271,81) size 20x45 contains 1 chunk(s)
        RenderSVGInlineText {#text} at (0,0) size 20x45
          chunk 1 text run 1 at (271.00,117.00) startOffset 0 endOffset 1 width 20.00: "#"
      RenderSVGText {text} at (276,92) size 27x19 contains 1 chunk(s)
        RenderSVGInlineText {#text} at (0,0) size 27x19
          chunk 1 text run 1 at (276.00,107.00) startOffset 0 endOffset 3 width 27.00: "HIT"
      RenderSVGText {text} at (328,81) size 20x45 contains 1 chunk(s)
        RenderSVGInlineText {#text} at (0,0) size 20x45
          chunk 1 text run 1 at (328.00,117.00) startOffset 0 endOffset 1 width 20.00: "#"
      RenderSVGText {text} at (333,92) size 28x19 contains 1 chunk(s)
        RenderSVGInlineText {#text} at (0,0) size 28x19
          chunk 1 text run 1 at (333.00,107.00) startOffset 0 endOffset 4 width 28.00: "miss"
      RenderSVGText {text} at (385,81) size 20x45 contains 1 chunk(s)
        RenderSVGInlineText {#text} at (0,0) size 20x45
          chunk 1 text run 1 at (385.00,117.00) startOffset 0 endOffset 1 width 20.00: "#"
      RenderSVGText {text} at (390,92) size 28x19 contains 1 chunk(s)
        RenderSVGInlineText {#text} at (0,0) size 28x19
          chunk 1 text run 1 at (390.00,107.00) startOffset 0 endOffset 4 width 28.00: "miss"
      RenderSVGText {text} at (442,81) size 20x45 contains 1 chunk(s)
        RenderSVGInlineText {#text} at (0,0) size 20x45
          chunk 1 text run 1 at (442.00,117.00) startOffset 0 endOffset 1 width 20.00: "#"
      RenderSVGText {text} at (447,92) size 28x19 contains 1 chunk(s)
        RenderSVGInlineText {#text} at (0,0) size 28x19
          chunk 1 text run 1 at (447.00,107.00) startOffset 0 endOffset 4 width 28.00: "miss"
      RenderSVGText {text} at (499,81) size 20x45 contains 1 chunk(s)
        RenderSVGInlineText {#text} at (0,0) size 20x45
          chunk 1 text run 1 at (499.00,117.00) startOffset 0 endOffset 1 width 20.00: "#"
      RenderSVGText {text} at (504,92) size 28x19 contains 1 chunk(s)
        RenderSVGInlineText {#text} at (0,0) size 28x19
          chunk 1 text run 1 at (504.00,107.00) startOffset 0 endOffset 4 width 28.00: "miss"
      RenderSVGText {text} at (0,159) size 62x19 contains 1 chunk(s)
        RenderSVGInlineText {#text} at (0,0) size 62x19
          chunk 1 text run 1 at (0.00,174.00) startOffset 0 endOffset 11 width 62.00: "visibleFill"
      RenderSVGText {text} at (100,138) size 20x45 contains 1 chunk(s)
        RenderSVGInlineText {#text} at (0,0) size 20x45
          chunk 1 text run 1 at (100.00,174.00) startOffset 0 endOffset 1 width 20.00: "#"
      RenderSVGText {text} at (105,149) size 27x19 contains 1 chunk(s)
        RenderSVGInlineText {#text} at (0,0) size 27x19
          chunk 1 text run 1 at (105.00,164.00) startOffset 0 endOffset 3 width 27.00: "HIT"
      RenderSVGText {text} at (157,138) size 20x45 contains 1 chunk(s)
        RenderSVGInlineText {#text} at (0,0) size 20x45
          chunk 1 text run 1 at (157.00,174.00) startOffset 0 endOffset 1 width 20.00: "#"
      RenderSVGText {text} at (162,149) size 27x19 contains 1 chunk(s)
        RenderSVGInlineText {#text} at (0,0) size 27x19
          chunk 1 text run 1 at (162.00,164.00) startOffset 0 endOffset 3 width 27.00: "HIT"
      RenderSVGText {text} at (214,138) size 20x45 contains 1 chunk(s)
        RenderSVGInlineText {#text} at (0,0) size 20x45
          chunk 1 text run 1 at (214.00,174.00) startOffset 0 endOffset 1 width 20.00: "#"
      RenderSVGText {text} at (219,149) size 27x19 contains 1 chunk(s)
        RenderSVGInlineText {#text} at (0,0) size 27x19
          chunk 1 text run 1 at (219.00,164.00) startOffset 0 endOffset 3 width 27.00: "HIT"
      RenderSVGText {text} at (271,138) size 20x45 contains 1 chunk(s)
        RenderSVGInlineText {#text} at (0,0) size 20x45
          chunk 1 text run 1 at (271.00,174.00) startOffset 0 endOffset 1 width 20.00: "#"
      RenderSVGText {text} at (276,149) size 27x19 contains 1 chunk(s)
        RenderSVGInlineText {#text} at (0,0) size 27x19
          chunk 1 text run 1 at (276.00,164.00) startOffset 0 endOffset 3 width 27.00: "HIT"
      RenderSVGText {text} at (328,138) size 20x45 contains 1 chunk(s)
        RenderSVGInlineText {#text} at (0,0) size 20x45
          chunk 1 text run 1 at (328.00,174.00) startOffset 0 endOffset 1 width 20.00: "#"
      RenderSVGText {text} at (333,149) size 28x19 contains 1 chunk(s)
        RenderSVGInlineText {#text} at (0,0) size 28x19
          chunk 1 text run 1 at (333.00,164.00) startOffset 0 endOffset 4 width 28.00: "miss"
      RenderSVGText {text} at (385,138) size 20x45 contains 1 chunk(s)
        RenderSVGInlineText {#text} at (0,0) size 20x45
          chunk 1 text run 1 at (385.00,174.00) startOffset 0 endOffset 1 width 20.00: "#"
      RenderSVGText {text} at (390,149) size 28x19 contains 1 chunk(s)
        RenderSVGInlineText {#text} at (0,0) size 28x19
          chunk 1 text run 1 at (390.00,164.00) startOffset 0 endOffset 4 width 28.00: "miss"
      RenderSVGText {text} at (442,138) size 20x45 contains 1 chunk(s)
        RenderSVGInlineText {#text} at (0,0) size 20x45
          chunk 1 text run 1 at (442.00,174.00) startOffset 0 endOffset 1 width 20.00: "#"
      RenderSVGText {text} at (447,149) size 28x19 contains 1 chunk(s)
        RenderSVGInlineText {#text} at (0,0) size 28x19
          chunk 1 text run 1 at (447.00,164.00) startOffset 0 endOffset 4 width 28.00: "miss"
      RenderSVGText {text} at (499,138) size 20x45 contains 1 chunk(s)
        RenderSVGInlineText {#text} at (0,0) size 20x45
          chunk 1 text run 1 at (499.00,174.00) startOffset 0 endOffset 1 width 20.00: "#"
      RenderSVGText {text} at (504,149) size 28x19 contains 1 chunk(s)
        RenderSVGInlineText {#text} at (0,0) size 28x19
          chunk 1 text run 1 at (504.00,164.00) startOffset 0 endOffset 4 width 28.00: "miss"
      RenderSVGText {text} at (0,216) size 82x19 contains 1 chunk(s)
        RenderSVGInlineText {#text} at (0,0) size 82x19
          chunk 1 text run 1 at (0.00,231.00) startOffset 0 endOffset 13 width 82.00: "visibleStroke"
      RenderSVGText {text} at (100,195) size 20x45 contains 1 chunk(s)
        RenderSVGInlineText {#text} at (0,0) size 20x45
          chunk 1 text run 1 at (100.00,231.00) startOffset 0 endOffset 1 width 20.00: "#"
      RenderSVGText {text} at (105,206) size 27x19 contains 1 chunk(s)
        RenderSVGInlineText {#text} at (0,0) size 27x19
          chunk 1 text run 1 at (105.00,221.00) startOffset 0 endOffset 3 width 27.00: "HIT"
      RenderSVGText {text} at (157,195) size 20x45 contains 1 chunk(s)
        RenderSVGInlineText {#text} at (0,0) size 20x45
          chunk 1 text run 1 at (157.00,231.00) startOffset 0 endOffset 1 width 20.00: "#"
      RenderSVGText {text} at (162,206) size 27x19 contains 1 chunk(s)
        RenderSVGInlineText {#text} at (0,0) size 27x19
          chunk 1 text run 1 at (162.00,221.00) startOffset 0 endOffset 3 width 27.00: "HIT"
      RenderSVGText {text} at (214,195) size 20x45 contains 1 chunk(s)
        RenderSVGInlineText {#text} at (0,0) size 20x45
          chunk 1 text run 1 at (214.00,231.00) startOffset 0 endOffset 1 width 20.00: "#"
      RenderSVGText {text} at (219,206) size 27x19 contains 1 chunk(s)
        RenderSVGInlineText {#text} at (0,0) size 27x19
          chunk 1 text run 1 at (219.00,221.00) startOffset 0 endOffset 3 width 27.00: "HIT"
      RenderSVGText {text} at (271,195) size 20x45 contains 1 chunk(s)
        RenderSVGInlineText {#text} at (0,0) size 20x45
          chunk 1 text run 1 at (271.00,231.00) startOffset 0 endOffset 1 width 20.00: "#"
      RenderSVGText {text} at (276,206) size 27x19 contains 1 chunk(s)
        RenderSVGInlineText {#text} at (0,0) size 27x19
          chunk 1 text run 1 at (276.00,221.00) startOffset 0 endOffset 3 width 27.00: "HIT"
      RenderSVGText {text} at (328,195) size 20x45 contains 1 chunk(s)
        RenderSVGInlineText {#text} at (0,0) size 20x45
          chunk 1 text run 1 at (328.00,231.00) startOffset 0 endOffset 1 width 20.00: "#"
      RenderSVGText {text} at (333,206) size 28x19 contains 1 chunk(s)
        RenderSVGInlineText {#text} at (0,0) size 28x19
          chunk 1 text run 1 at (333.00,221.00) startOffset 0 endOffset 4 width 28.00: "miss"
      RenderSVGText {text} at (385,195) size 20x45 contains 1 chunk(s)
        RenderSVGInlineText {#text} at (0,0) size 20x45
          chunk 1 text run 1 at (385.00,231.00) startOffset 0 endOffset 1 width 20.00: "#"
      RenderSVGText {text} at (390,206) size 28x19 contains 1 chunk(s)
        RenderSVGInlineText {#text} at (0,0) size 28x19
          chunk 1 text run 1 at (390.00,221.00) startOffset 0 endOffset 4 width 28.00: "miss"
      RenderSVGText {text} at (442,195) size 20x45 contains 1 chunk(s)
        RenderSVGInlineText {#text} at (0,0) size 20x45
          chunk 1 text run 1 at (442.00,231.00) startOffset 0 endOffset 1 width 20.00: "#"
      RenderSVGText {text} at (447,206) size 28x19 contains 1 chunk(s)
        RenderSVGInlineText {#text} at (0,0) size 28x19
          chunk 1 text run 1 at (447.00,221.00) startOffset 0 endOffset 4 width 28.00: "miss"
      RenderSVGText {text} at (499,195) size 20x45 contains 1 chunk(s)
        RenderSVGInlineText {#text} at (0,0) size 20x45
          chunk 1 text run 1 at (499.00,231.00) startOffset 0 endOffset 1 width 20.00: "#"
      RenderSVGText {text} at (504,206) size 28x19 contains 1 chunk(s)
        RenderSVGInlineText {#text} at (0,0) size 28x19
          chunk 1 text run 1 at (504.00,221.00) startOffset 0 endOffset 4 width 28.00: "miss"
      RenderSVGText {text} at (0,273) size 41x19 contains 1 chunk(s)
        RenderSVGInlineText {#text} at (0,0) size 41x19
          chunk 1 text run 1 at (0.00,288.00) startOffset 0 endOffset 7 width 41.00: "visible"
      RenderSVGText {text} at (100,252) size 20x45 contains 1 chunk(s)
        RenderSVGInlineText {#text} at (0,0) size 20x45
          chunk 1 text run 1 at (100.00,288.00) startOffset 0 endOffset 1 width 20.00: "#"
      RenderSVGText {text} at (105,263) size 27x19 contains 1 chunk(s)
        RenderSVGInlineText {#text} at (0,0) size 27x19
          chunk 1 text run 1 at (105.00,278.00) startOffset 0 endOffset 3 width 27.00: "HIT"
      RenderSVGText {text} at (157,252) size 20x45 contains 1 chunk(s)
        RenderSVGInlineText {#text} at (0,0) size 20x45
          chunk 1 text run 1 at (157.00,288.00) startOffset 0 endOffset 1 width 20.00: "#"
      RenderSVGText {text} at (162,263) size 27x19 contains 1 chunk(s)
        RenderSVGInlineText {#text} at (0,0) size 27x19
          chunk 1 text run 1 at (162.00,278.00) startOffset 0 endOffset 3 width 27.00: "HIT"
      RenderSVGText {text} at (214,252) size 20x45 contains 1 chunk(s)
        RenderSVGInlineText {#text} at (0,0) size 20x45
          chunk 1 text run 1 at (214.00,288.00) startOffset 0 endOffset 1 width 20.00: "#"
      RenderSVGText {text} at (219,263) size 27x19 contains 1 chunk(s)
        RenderSVGInlineText {#text} at (0,0) size 27x19
          chunk 1 text run 1 at (219.00,278.00) startOffset 0 endOffset 3 width 27.00: "HIT"
      RenderSVGText {text} at (271,252) size 20x45 contains 1 chunk(s)
        RenderSVGInlineText {#text} at (0,0) size 20x45
          chunk 1 text run 1 at (271.00,288.00) startOffset 0 endOffset 1 width 20.00: "#"
      RenderSVGText {text} at (276,263) size 27x19 contains 1 chunk(s)
        RenderSVGInlineText {#text} at (0,0) size 27x19
          chunk 1 text run 1 at (276.00,278.00) startOffset 0 endOffset 3 width 27.00: "HIT"
      RenderSVGText {text} at (328,252) size 20x45 contains 1 chunk(s)
        RenderSVGInlineText {#text} at (0,0) size 20x45
          chunk 1 text run 1 at (328.00,288.00) startOffset 0 endOffset 1 width 20.00: "#"
      RenderSVGText {text} at (333,263) size 28x19 contains 1 chunk(s)
        RenderSVGInlineText {#text} at (0,0) size 28x19
          chunk 1 text run 1 at (333.00,278.00) startOffset 0 endOffset 4 width 28.00: "miss"
      RenderSVGText {text} at (385,252) size 20x45 contains 1 chunk(s)
        RenderSVGInlineText {#text} at (0,0) size 20x45
          chunk 1 text run 1 at (385.00,288.00) startOffset 0 endOffset 1 width 20.00: "#"
      RenderSVGText {text} at (390,263) size 28x19 contains 1 chunk(s)
        RenderSVGInlineText {#text} at (0,0) size 28x19
          chunk 1 text run 1 at (390.00,278.00) startOffset 0 endOffset 4 width 28.00: "miss"
      RenderSVGText {text} at (442,252) size 20x45 contains 1 chunk(s)
        RenderSVGInlineText {#text} at (0,0) size 20x45
          chunk 1 text run 1 at (442.00,288.00) startOffset 0 endOffset 1 width 20.00: "#"
      RenderSVGText {text} at (447,263) size 28x19 contains 1 chunk(s)
        RenderSVGInlineText {#text} at (0,0) size 28x19
          chunk 1 text run 1 at (447.00,278.00) startOffset 0 endOffset 4 width 28.00: "miss"
      RenderSVGText {text} at (499,252) size 20x45 contains 1 chunk(s)
        RenderSVGInlineText {#text} at (0,0) size 20x45
          chunk 1 text run 1 at (499.00,288.00) startOffset 0 endOffset 1 width 20.00: "#"
      RenderSVGText {text} at (504,263) size 28x19 contains 1 chunk(s)
        RenderSVGInlineText {#text} at (0,0) size 28x19
          chunk 1 text run 1 at (504.00,278.00) startOffset 0 endOffset 4 width 28.00: "miss"
      RenderSVGText {text} at (0,330) size 46x19 contains 1 chunk(s)
        RenderSVGInlineText {#text} at (0,0) size 46x19
          chunk 1 text run 1 at (0.00,345.00) startOffset 0 endOffset 7 width 46.00: "painted"
      RenderSVGText {text} at (100,309) size 20x45 contains 1 chunk(s)
        RenderSVGInlineText {#text} at (0,0) size 20x45
          chunk 1 text run 1 at (100.00,345.00) startOffset 0 endOffset 1 width 20.00: "#"
      RenderSVGText {text} at (105,320) size 28x19 contains 1 chunk(s)
        RenderSVGInlineText {#text} at (0,0) size 28x19
          chunk 1 text run 1 at (105.00,335.00) startOffset 0 endOffset 4 width 28.00: "miss"
      RenderSVGText {text} at (157,309) size 20x45 contains 1 chunk(s)
        RenderSVGInlineText {#text} at (0,0) size 20x45
          chunk 1 text run 1 at (157.00,345.00) startOffset 0 endOffset 1 width 20.00: "#"
      RenderSVGText {text} at (162,320) size 27x19 contains 1 chunk(s)
        RenderSVGInlineText {#text} at (0,0) size 27x19
          chunk 1 text run 1 at (162.00,335.00) startOffset 0 endOffset 3 width 27.00: "HIT"
      RenderSVGText {text} at (214,309) size 20x45 contains 1 chunk(s)
        RenderSVGInlineText {#text} at (0,0) size 20x45
          chunk 1 text run 1 at (214.00,345.00) startOffset 0 endOffset 1 width 20.00: "#"
      RenderSVGText {text} at (219,320) size 27x19 contains 1 chunk(s)
        RenderSVGInlineText {#text} at (0,0) size 27x19
          chunk 1 text run 1 at (219.00,335.00) startOffset 0 endOffset 3 width 27.00: "HIT"
      RenderSVGText {text} at (271,309) size 20x45 contains 1 chunk(s)
        RenderSVGInlineText {#text} at (0,0) size 20x45
          chunk 1 text run 1 at (271.00,345.00) startOffset 0 endOffset 1 width 20.00: "#"
      RenderSVGText {text} at (276,320) size 27x19 contains 1 chunk(s)
        RenderSVGInlineText {#text} at (0,0) size 27x19
          chunk 1 text run 1 at (276.00,335.00) startOffset 0 endOffset 3 width 27.00: "HIT"
      RenderSVGText {text} at (328,309) size 20x45 contains 1 chunk(s)
        RenderSVGInlineText {#text} at (0,0) size 20x45
          chunk 1 text run 1 at (328.00,345.00) startOffset 0 endOffset 1 width 20.00: "#"
      RenderSVGText {text} at (333,320) size 28x19 contains 1 chunk(s)
        RenderSVGInlineText {#text} at (0,0) size 28x19
          chunk 1 text run 1 at (333.00,335.00) startOffset 0 endOffset 4 width 28.00: "miss"
      RenderSVGText {text} at (385,309) size 20x45 contains 1 chunk(s)
        RenderSVGInlineText {#text} at (0,0) size 20x45
          chunk 1 text run 1 at (385.00,345.00) startOffset 0 endOffset 1 width 20.00: "#"
      RenderSVGText {text} at (390,320) size 27x19 contains 1 chunk(s)
        RenderSVGInlineText {#text} at (0,0) size 27x19
          chunk 1 text run 1 at (390.00,335.00) startOffset 0 endOffset 3 width 27.00: "HIT"
      RenderSVGText {text} at (442,309) size 20x45 contains 1 chunk(s)
        RenderSVGInlineText {#text} at (0,0) size 20x45
          chunk 1 text run 1 at (442.00,345.00) startOffset 0 endOffset 1 width 20.00: "#"
      RenderSVGText {text} at (447,320) size 27x19 contains 1 chunk(s)
        RenderSVGInlineText {#text} at (0,0) size 27x19
          chunk 1 text run 1 at (447.00,335.00) startOffset 0 endOffset 3 width 27.00: "HIT"
      RenderSVGText {text} at (499,309) size 20x45 contains 1 chunk(s)
        RenderSVGInlineText {#text} at (0,0) size 20x45
          chunk 1 text run 1 at (499.00,345.00) startOffset 0 endOffset 1 width 20.00: "#"
      RenderSVGText {text} at (504,320) size 27x19 contains 1 chunk(s)
        RenderSVGInlineText {#text} at (0,0) size 27x19
          chunk 1 text run 1 at (504.00,335.00) startOffset 0 endOffset 3 width 27.00: "HIT"
      RenderSVGText {text} at (0,387) size 17x19 contains 1 chunk(s)
        RenderSVGInlineText {#text} at (0,0) size 17x19
          chunk 1 text run 1 at (0.00,402.00) startOffset 0 endOffset 4 width 17.00: "fill"
      RenderSVGText {text} at (100,366) size 20x45 contains 1 chunk(s)
        RenderSVGInlineText {#text} at (0,0) size 20x45
          chunk 1 text run 1 at (100.00,402.00) startOffset 0 endOffset 1 width 20.00: "#"
      RenderSVGText {text} at (105,377) size 27x19 contains 1 chunk(s)
        RenderSVGInlineText {#text} at (0,0) size 27x19
          chunk 1 text run 1 at (105.00,392.00) startOffset 0 endOffset 3 width 27.00: "HIT"
      RenderSVGText {text} at (157,366) size 20x45 contains 1 chunk(s)
        RenderSVGInlineText {#text} at (0,0) size 20x45
          chunk 1 text run 1 at (157.00,402.00) startOffset 0 endOffset 1 width 20.00: "#"
      RenderSVGText {text} at (162,377) size 27x19 contains 1 chunk(s)
        RenderSVGInlineText {#text} at (0,0) size 27x19
          chunk 1 text run 1 at (162.00,392.00) startOffset 0 endOffset 3 width 27.00: "HIT"
      RenderSVGText {text} at (214,366) size 20x45 contains 1 chunk(s)
        RenderSVGInlineText {#text} at (0,0) size 20x45
          chunk 1 text run 1 at (214.00,402.00) startOffset 0 endOffset 1 width 20.00: "#"
      RenderSVGText {text} at (219,377) size 27x19 contains 1 chunk(s)
        RenderSVGInlineText {#text} at (0,0) size 27x19
          chunk 1 text run 1 at (219.00,392.00) startOffset 0 endOffset 3 width 27.00: "HIT"
      RenderSVGText {text} at (271,366) size 20x45 contains 1 chunk(s)
        RenderSVGInlineText {#text} at (0,0) size 20x45
          chunk 1 text run 1 at (271.00,402.00) startOffset 0 endOffset 1 width 20.00: "#"
      RenderSVGText {text} at (276,377) size 27x19 contains 1 chunk(s)
        RenderSVGInlineText {#text} at (0,0) size 27x19
          chunk 1 text run 1 at (276.00,392.00) startOffset 0 endOffset 3 width 27.00: "HIT"
      RenderSVGText {text} at (328,366) size 20x45 contains 1 chunk(s)
        RenderSVGInlineText {#text} at (0,0) size 20x45
          chunk 1 text run 1 at (328.00,402.00) startOffset 0 endOffset 1 width 20.00: "#"
      RenderSVGText {text} at (333,377) size 27x19 contains 1 chunk(s)
        RenderSVGInlineText {#text} at (0,0) size 27x19
          chunk 1 text run 1 at (333.00,392.00) startOffset 0 endOffset 3 width 27.00: "HIT"
      RenderSVGText {text} at (385,366) size 20x45 contains 1 chunk(s)
        RenderSVGInlineText {#text} at (0,0) size 20x45
          chunk 1 text run 1 at (385.00,402.00) startOffset 0 endOffset 1 width 20.00: "#"
      RenderSVGText {text} at (390,377) size 27x19 contains 1 chunk(s)
        RenderSVGInlineText {#text} at (0,0) size 27x19
          chunk 1 text run 1 at (390.00,392.00) startOffset 0 endOffset 3 width 27.00: "HIT"
      RenderSVGText {text} at (442,366) size 20x45 contains 1 chunk(s)
        RenderSVGInlineText {#text} at (0,0) size 20x45
          chunk 1 text run 1 at (442.00,402.00) startOffset 0 endOffset 1 width 20.00: "#"
      RenderSVGText {text} at (447,377) size 27x19 contains 1 chunk(s)
        RenderSVGInlineText {#text} at (0,0) size 27x19
          chunk 1 text run 1 at (447.00,392.00) startOffset 0 endOffset 3 width 27.00: "HIT"
      RenderSVGText {text} at (499,366) size 20x45 contains 1 chunk(s)
        RenderSVGInlineText {#text} at (0,0) size 20x45
          chunk 1 text run 1 at (499.00,402.00) startOffset 0 endOffset 1 width 20.00: "#"
      RenderSVGText {text} at (504,377) size 27x19 contains 1 chunk(s)
        RenderSVGInlineText {#text} at (0,0) size 27x19
          chunk 1 text run 1 at (504.00,392.00) startOffset 0 endOffset 3 width 27.00: "HIT"
      RenderSVGText {text} at (0,444) size 38x19 contains 1 chunk(s)
        RenderSVGInlineText {#text} at (0,0) size 38x19
          chunk 1 text run 1 at (0.00,459.00) startOffset 0 endOffset 6 width 38.00: "stroke"
      RenderSVGText {text} at (100,423) size 20x45 contains 1 chunk(s)
        RenderSVGInlineText {#text} at (0,0) size 20x45
          chunk 1 text run 1 at (100.00,459.00) startOffset 0 endOffset 1 width 20.00: "#"
      RenderSVGText {text} at (105,434) size 27x19 contains 1 chunk(s)
        RenderSVGInlineText {#text} at (0,0) size 27x19
          chunk 1 text run 1 at (105.00,449.00) startOffset 0 endOffset 3 width 27.00: "HIT"
      RenderSVGText {text} at (157,423) size 20x45 contains 1 chunk(s)
        RenderSVGInlineText {#text} at (0,0) size 20x45
          chunk 1 text run 1 at (157.00,459.00) startOffset 0 endOffset 1 width 20.00: "#"
      RenderSVGText {text} at (162,434) size 27x19 contains 1 chunk(s)
        RenderSVGInlineText {#text} at (0,0) size 27x19
          chunk 1 text run 1 at (162.00,449.00) startOffset 0 endOffset 3 width 27.00: "HIT"
      RenderSVGText {text} at (214,423) size 20x45 contains 1 chunk(s)
        RenderSVGInlineText {#text} at (0,0) size 20x45
          chunk 1 text run 1 at (214.00,459.00) startOffset 0 endOffset 1 width 20.00: "#"
      RenderSVGText {text} at (219,434) size 27x19 contains 1 chunk(s)
        RenderSVGInlineText {#text} at (0,0) size 27x19
          chunk 1 text run 1 at (219.00,449.00) startOffset 0 endOffset 3 width 27.00: "HIT"
      RenderSVGText {text} at (271,423) size 20x45 contains 1 chunk(s)
        RenderSVGInlineText {#text} at (0,0) size 20x45
          chunk 1 text run 1 at (271.00,459.00) startOffset 0 endOffset 1 width 20.00: "#"
      RenderSVGText {text} at (276,434) size 27x19 contains 1 chunk(s)
        RenderSVGInlineText {#text} at (0,0) size 27x19
          chunk 1 text run 1 at (276.00,449.00) startOffset 0 endOffset 3 width 27.00: "HIT"
      RenderSVGText {text} at (328,423) size 20x45 contains 1 chunk(s)
        RenderSVGInlineText {#text} at (0,0) size 20x45
          chunk 1 text run 1 at (328.00,459.00) startOffset 0 endOffset 1 width 20.00: "#"
      RenderSVGText {text} at (333,434) size 27x19 contains 1 chunk(s)
        RenderSVGInlineText {#text} at (0,0) size 27x19
          chunk 1 text run 1 at (333.00,449.00) startOffset 0 endOffset 3 width 27.00: "HIT"
      RenderSVGText {text} at (385,423) size 20x45 contains 1 chunk(s)
        RenderSVGInlineText {#text} at (0,0) size 20x45
          chunk 1 text run 1 at (385.00,459.00) startOffset 0 endOffset 1 width 20.00: "#"
      RenderSVGText {text} at (390,434) size 27x19 contains 1 chunk(s)
        RenderSVGInlineText {#text} at (0,0) size 27x19
          chunk 1 text run 1 at (390.00,449.00) startOffset 0 endOffset 3 width 27.00: "HIT"
      RenderSVGText {text} at (442,423) size 20x45 contains 1 chunk(s)
        RenderSVGInlineText {#text} at (0,0) size 20x45
          chunk 1 text run 1 at (442.00,459.00) startOffset 0 endOffset 1 width 20.00: "#"
      RenderSVGText {text} at (447,434) size 27x19 contains 1 chunk(s)
        RenderSVGInlineText {#text} at (0,0) size 27x19
          chunk 1 text run 1 at (447.00,449.00) startOffset 0 endOffset 3 width 27.00: "HIT"
      RenderSVGText {text} at (499,423) size 20x45 contains 1 chunk(s)
        RenderSVGInlineText {#text} at (0,0) size 20x45
          chunk 1 text run 1 at (499.00,459.00) startOffset 0 endOffset 1 width 20.00: "#"
      RenderSVGText {text} at (504,434) size 27x19 contains 1 chunk(s)
        RenderSVGInlineText {#text} at (0,0) size 27x19
          chunk 1 text run 1 at (504.00,449.00) startOffset 0 endOffset 3 width 27.00: "HIT"
      RenderSVGText {text} at (0,501) size 15x19 contains 1 chunk(s)
        RenderSVGInlineText {#text} at (0,0) size 15x19
          chunk 1 text run 1 at (0.00,516.00) startOffset 0 endOffset 3 width 15.00: "all"
      RenderSVGText {text} at (100,480) size 20x45 contains 1 chunk(s)
        RenderSVGInlineText {#text} at (0,0) size 20x45
          chunk 1 text run 1 at (100.00,516.00) startOffset 0 endOffset 1 width 20.00: "#"
      RenderSVGText {text} at (105,491) size 27x19 contains 1 chunk(s)
        RenderSVGInlineText {#text} at (0,0) size 27x19
          chunk 1 text run 1 at (105.00,506.00) startOffset 0 endOffset 3 width 27.00: "HIT"
      RenderSVGText {text} at (157,480) size 20x45 contains 1 chunk(s)
        RenderSVGInlineText {#text} at (0,0) size 20x45
          chunk 1 text run 1 at (157.00,516.00) startOffset 0 endOffset 1 width 20.00: "#"
      RenderSVGText {text} at (162,491) size 27x19 contains 1 chunk(s)
        RenderSVGInlineText {#text} at (0,0) size 27x19
          chunk 1 text run 1 at (162.00,506.00) startOffset 0 endOffset 3 width 27.00: "HIT"
      RenderSVGText {text} at (214,480) size 20x45 contains 1 chunk(s)
        RenderSVGInlineText {#text} at (0,0) size 20x45
          chunk 1 text run 1 at (214.00,516.00) startOffset 0 endOffset 1 width 20.00: "#"
      RenderSVGText {text} at (219,491) size 27x19 contains 1 chunk(s)
        RenderSVGInlineText {#text} at (0,0) size 27x19
          chunk 1 text run 1 at (219.00,506.00) startOffset 0 endOffset 3 width 27.00: "HIT"
      RenderSVGText {text} at (271,480) size 20x45 contains 1 chunk(s)
        RenderSVGInlineText {#text} at (0,0) size 20x45
          chunk 1 text run 1 at (271.00,516.00) startOffset 0 endOffset 1 width 20.00: "#"
      RenderSVGText {text} at (276,491) size 27x19 contains 1 chunk(s)
        RenderSVGInlineText {#text} at (0,0) size 27x19
          chunk 1 text run 1 at (276.00,506.00) startOffset 0 endOffset 3 width 27.00: "HIT"
      RenderSVGText {text} at (328,480) size 20x45 contains 1 chunk(s)
        RenderSVGInlineText {#text} at (0,0) size 20x45
          chunk 1 text run 1 at (328.00,516.00) startOffset 0 endOffset 1 width 20.00: "#"
      RenderSVGText {text} at (333,491) size 27x19 contains 1 chunk(s)
        RenderSVGInlineText {#text} at (0,0) size 27x19
          chunk 1 text run 1 at (333.00,506.00) startOffset 0 endOffset 3 width 27.00: "HIT"
      RenderSVGText {text} at (385,480) size 20x45 contains 1 chunk(s)
        RenderSVGInlineText {#text} at (0,0) size 20x45
          chunk 1 text run 1 at (385.00,516.00) startOffset 0 endOffset 1 width 20.00: "#"
      RenderSVGText {text} at (390,491) size 27x19 contains 1 chunk(s)
        RenderSVGInlineText {#text} at (0,0) size 27x19
          chunk 1 text run 1 at (390.00,506.00) startOffset 0 endOffset 3 width 27.00: "HIT"
      RenderSVGText {text} at (442,480) size 20x45 contains 1 chunk(s)
        RenderSVGInlineText {#text} at (0,0) size 20x45
          chunk 1 text run 1 at (442.00,516.00) startOffset 0 endOffset 1 width 20.00: "#"
      RenderSVGText {text} at (447,491) size 27x19 contains 1 chunk(s)
        RenderSVGInlineText {#text} at (0,0) size 27x19
          chunk 1 text run 1 at (447.00,506.00) startOffset 0 endOffset 3 width 27.00: "HIT"
      RenderSVGText {text} at (499,480) size 20x45 contains 1 chunk(s)
        RenderSVGInlineText {#text} at (0,0) size 20x45
          chunk 1 text run 1 at (499.00,516.00) startOffset 0 endOffset 1 width 20.00: "#"
      RenderSVGText {text} at (504,491) size 27x19 contains 1 chunk(s)
        RenderSVGInlineText {#text} at (0,0) size 27x19
          chunk 1 text run 1 at (504.00,506.00) startOffset 0 endOffset 3 width 27.00: "HIT"
      RenderSVGText {text} at (0,558) size 31x19 contains 1 chunk(s)
        RenderSVGInlineText {#text} at (0,0) size 31x19
          chunk 1 text run 1 at (0.00,573.00) startOffset 0 endOffset 4 width 31.00: "none"
      RenderSVGText {text} at (100,537) size 20x45 contains 1 chunk(s)
        RenderSVGInlineText {#text} at (0,0) size 20x45
          chunk 1 text run 1 at (100.00,573.00) startOffset 0 endOffset 1 width 20.00: "#"
      RenderSVGText {text} at (105,548) size 28x19 contains 1 chunk(s)
        RenderSVGInlineText {#text} at (0,0) size 28x19
          chunk 1 text run 1 at (105.00,563.00) startOffset 0 endOffset 4 width 28.00: "miss"
      RenderSVGText {text} at (157,537) size 20x45 contains 1 chunk(s)
        RenderSVGInlineText {#text} at (0,0) size 20x45
          chunk 1 text run 1 at (157.00,573.00) startOffset 0 endOffset 1 width 20.00: "#"
      RenderSVGText {text} at (162,548) size 28x19 contains 1 chunk(s)
        RenderSVGInlineText {#text} at (0,0) size 28x19
          chunk 1 text run 1 at (162.00,563.00) startOffset 0 endOffset 4 width 28.00: "miss"
      RenderSVGText {text} at (214,537) size 20x45 contains 1 chunk(s)
        RenderSVGInlineText {#text} at (0,0) size 20x45
          chunk 1 text run 1 at (214.00,573.00) startOffset 0 endOffset 1 width 20.00: "#"
      RenderSVGText {text} at (219,548) size 28x19 contains 1 chunk(s)
        RenderSVGInlineText {#text} at (0,0) size 28x19
          chunk 1 text run 1 at (219.00,563.00) startOffset 0 endOffset 4 width 28.00: "miss"
      RenderSVGText {text} at (271,537) size 20x45 contains 1 chunk(s)
        RenderSVGInlineText {#text} at (0,0) size 20x45
          chunk 1 text run 1 at (271.00,573.00) startOffset 0 endOffset 1 width 20.00: "#"
      RenderSVGText {text} at (276,548) size 28x19 contains 1 chunk(s)
        RenderSVGInlineText {#text} at (0,0) size 28x19
          chunk 1 text run 1 at (276.00,563.00) startOffset 0 endOffset 4 width 28.00: "miss"
      RenderSVGText {text} at (328,537) size 20x45 contains 1 chunk(s)
        RenderSVGInlineText {#text} at (0,0) size 20x45
          chunk 1 text run 1 at (328.00,573.00) startOffset 0 endOffset 1 width 20.00: "#"
      RenderSVGText {text} at (333,548) size 28x19 contains 1 chunk(s)
        RenderSVGInlineText {#text} at (0,0) size 28x19
          chunk 1 text run 1 at (333.00,563.00) startOffset 0 endOffset 4 width 28.00: "miss"
      RenderSVGText {text} at (385,537) size 20x45 contains 1 chunk(s)
        RenderSVGInlineText {#text} at (0,0) size 20x45
          chunk 1 text run 1 at (385.00,573.00) startOffset 0 endOffset 1 width 20.00: "#"
      RenderSVGText {text} at (390,548) size 28x19 contains 1 chunk(s)
        RenderSVGInlineText {#text} at (0,0) size 28x19
          chunk 1 text run 1 at (390.00,563.00) startOffset 0 endOffset 4 width 28.00: "miss"
      RenderSVGText {text} at (442,537) size 20x45 contains 1 chunk(s)
        RenderSVGInlineText {#text} at (0,0) size 20x45
          chunk 1 text run 1 at (442.00,573.00) startOffset 0 endOffset 1 width 20.00: "#"
      RenderSVGText {text} at (447,548) size 28x19 contains 1 chunk(s)
        RenderSVGInlineText {#text} at (0,0) size 28x19
          chunk 1 text run 1 at (447.00,563.00) startOffset 0 endOffset 4 width 28.00: "miss"
      RenderSVGText {text} at (499,537) size 20x45 contains 1 chunk(s)
        RenderSVGInlineText {#text} at (0,0) size 20x45
          chunk 1 text run 1 at (499.00,573.00) startOffset 0 endOffset 1 width 20.00: "#"
      RenderSVGText {text} at (504,548) size 28x19 contains 1 chunk(s)
        RenderSVGInlineText {#text} at (0,0) size 28x19
          chunk 1 text run 1 at (504.00,563.00) startOffset 0 endOffset 4 width 28.00: "miss"
caret: position 18 of child 0 {#text} of child 5 {text} of child 0 {svg} of document
