layer at (0,0) size 800x600
  RenderView at (0,0) size 800x600
layer at (0,0) size 800x600
  RenderSVGRoot {svg} at (0,3) size 730x593
    RenderSVGText {text} at (610,3) size 60x19 contains 1 chunk(s)
      RenderSVGInlineText {#text} at (0,0) size 60x19
        chunk 1 text run 1 at (610.00,18.00) startOffset 0 endOffset 8 width 60.00: "Example:"
    RenderSVGText {text} at (605,25) size 49x19 contains 1 chunk(s)
      RenderSVGInlineText {#text} at (0,0) size 49x19
        chunk 1 text run 1 at (605.00,40.00) startOffset 0 endOffset 9 width 49.00: "Hit Fill:"
    RenderSVGText {text} at (605,45) size 69x19 contains 1 chunk(s)
      RenderSVGInlineText {#text} at (0,0) size 69x19
        chunk 1 text run 1 at (605.00,60.00) startOffset 0 endOffset 11 width 69.00: "Hit Stroke:"
    RenderSVGText {text} at (110,5) size 107x19 contains 1 chunk(s)
      RenderSVGInlineText {#text} at (0,0) size 107x19
        chunk 1 text run 1 at (110.00,20.00) startOffset 0 endOffset 19 width 107.00: "Visibility: visible"
    RenderSVGText {text} at (340,5) size 109x19 contains 1 chunk(s)
      RenderSVGInlineText {#text} at (0,0) size 109x19
        chunk 1 text run 1 at (340.00,20.00) startOffset 0 endOffset 18 width 109.00: "Visibility: hidden"
    RenderSVGContainer {g} at (0,20) size 730x576
      RenderSVGPath {rect} at (680,20) size 50x50 [fill={[type=SOLID] [color=#FFA500]}] [x=680.00] [y=20.00] [width=50.00] [height=50.00]
      RenderSVGText {text} at (685,25) size 27x19 contains 1 chunk(s)
        RenderSVGInlineText {#text} at (0,0) size 27x19
          chunk 1 text run 1 at (685.00,40.00) startOffset 0 endOffset 3 width 27.00: "HIT"
      RenderSVGText {text} at (685,45) size 28x19 contains 1 chunk(s)
        RenderSVGInlineText {#text} at (0,0) size 28x19
          chunk 1 text run 1 at (685.00,60.00) startOffset 0 endOffset 4 width 28.00: "miss"
      RenderSVGText {text} at (0,45) size 27x19 contains 1 chunk(s)
        RenderSVGInlineText {#text} at (0,0) size 27x19
          chunk 1 text run 1 at (0.00,60.00) startOffset 0 endOffset 4 width 27.00: "auto"
      RenderSVGPath {rect} at (100,30) size 50x50 [x=100.00] [y=30.00] [width=50.00] [height=50.00]
      RenderSVGText {text} at (105,35) size 28x19 contains 1 chunk(s)
        RenderSVGInlineText {#text} at (0,0) size 28x19
          chunk 1 text run 1 at (105.00,50.00) startOffset 0 endOffset 4 width 28.00: "miss"
      RenderSVGText {text} at (105,55) size 28x19 contains 1 chunk(s)
        RenderSVGInlineText {#text} at (0,0) size 28x19
          chunk 1 text run 1 at (105.00,70.00) startOffset 0 endOffset 4 width 28.00: "miss"
      RenderSVGPath {rect} at (154,27) size 56x56 [stroke={[type=SOLID] [color=#0000FF] [stroke width=6.00]}] [x=157.00] [y=30.00] [width=50.00] [height=50.00]
      RenderSVGText {text} at (162,35) size 27x19 contains 1 chunk(s)
        RenderSVGInlineText {#text} at (0,0) size 27x19
          chunk 1 text run 1 at (162.00,50.00) startOffset 0 endOffset 3 width 27.00: "HIT"
      RenderSVGText {text} at (162,55) size 27x19 contains 1 chunk(s)
        RenderSVGInlineText {#text} at (0,0) size 27x19
          chunk 1 text run 1 at (162.00,70.00) startOffset 0 endOffset 3 width 27.00: "HIT"
      RenderSVGPath {rect} at (214,30) size 50x50 [fill={[type=SOLID] [color=#FFA500]}] [x=214.00] [y=30.00] [width=50.00] [height=50.00]
      RenderSVGText {text} at (219,35) size 27x19 contains 1 chunk(s)
        RenderSVGInlineText {#text} at (0,0) size 27x19
          chunk 1 text run 1 at (219.00,50.00) startOffset 0 endOffset 3 width 27.00: "HIT"
      RenderSVGText {text} at (219,55) size 27x19 contains 1 chunk(s)
        RenderSVGInlineText {#text} at (0,0) size 27x19
          chunk 1 text run 1 at (219.00,70.00) startOffset 0 endOffset 3 width 27.00: "HIT"
      RenderSVGPath {rect} at (268,27) size 56x56 [stroke={[type=SOLID] [color=#0000FF] [stroke width=6.00]}] [fill={[type=SOLID] [color=#FFA500]}] [x=271.00] [y=30.00] [width=50.00] [height=50.00]
      RenderSVGText {text} at (276,35) size 27x19 contains 1 chunk(s)
        RenderSVGInlineText {#text} at (0,0) size 27x19
          chunk 1 text run 1 at (276.00,50.00) startOffset 0 endOffset 3 width 27.00: "HIT"
      RenderSVGText {text} at (276,55) size 27x19 contains 1 chunk(s)
        RenderSVGInlineText {#text} at (0,0) size 27x19
          chunk 1 text run 1 at (276.00,70.00) startOffset 0 endOffset 3 width 27.00: "HIT"
      RenderSVGPath {rect} at (328,30) size 50x50 [x=328.00] [y=30.00] [width=50.00] [height=50.00]
      RenderSVGText {text} at (333,35) size 28x19 contains 1 chunk(s)
        RenderSVGInlineText {#text} at (0,0) size 28x19
          chunk 1 text run 1 at (333.00,50.00) startOffset 0 endOffset 4 width 28.00: "miss"
      RenderSVGText {text} at (333,55) size 28x19 contains 1 chunk(s)
        RenderSVGInlineText {#text} at (0,0) size 28x19
          chunk 1 text run 1 at (333.00,70.00) startOffset 0 endOffset 4 width 28.00: "miss"
      RenderSVGPath {rect} at (382,27) size 56x56 [stroke={[type=SOLID] [color=#0000FF] [stroke width=6.00]}] [x=385.00] [y=30.00] [width=50.00] [height=50.00]
      RenderSVGText {text} at (390,35) size 28x19 contains 1 chunk(s)
        RenderSVGInlineText {#text} at (0,0) size 28x19
          chunk 1 text run 1 at (390.00,50.00) startOffset 0 endOffset 4 width 28.00: "miss"
      RenderSVGText {text} at (390,55) size 28x19 contains 1 chunk(s)
        RenderSVGInlineText {#text} at (0,0) size 28x19
          chunk 1 text run 1 at (390.00,70.00) startOffset 0 endOffset 4 width 28.00: "miss"
      RenderSVGPath {rect} at (442,30) size 50x50 [fill={[type=SOLID] [color=#FFA500]}] [x=442.00] [y=30.00] [width=50.00] [height=50.00]
      RenderSVGText {text} at (447,35) size 28x19 contains 1 chunk(s)
        RenderSVGInlineText {#text} at (0,0) size 28x19
          chunk 1 text run 1 at (447.00,50.00) startOffset 0 endOffset 4 width 28.00: "miss"
      RenderSVGText {text} at (447,55) size 28x19 contains 1 chunk(s)
        RenderSVGInlineText {#text} at (0,0) size 28x19
          chunk 1 text run 1 at (447.00,70.00) startOffset 0 endOffset 4 width 28.00: "miss"
      RenderSVGPath {rect} at (496,27) size 56x56 [stroke={[type=SOLID] [color=#0000FF] [stroke width=6.00]}] [fill={[type=SOLID] [color=#FFA500]}] [x=499.00] [y=30.00] [width=50.00] [height=50.00]
      RenderSVGText {text} at (504,35) size 28x19 contains 1 chunk(s)
        RenderSVGInlineText {#text} at (0,0) size 28x19
          chunk 1 text run 1 at (504.00,50.00) startOffset 0 endOffset 4 width 28.00: "miss"
      RenderSVGText {text} at (504,55) size 28x19 contains 1 chunk(s)
        RenderSVGInlineText {#text} at (0,0) size 28x19
          chunk 1 text run 1 at (504.00,70.00) startOffset 0 endOffset 4 width 28.00: "miss"
      RenderSVGText {text} at (0,102) size 88x19 contains 1 chunk(s)
        RenderSVGInlineText {#text} at (0,0) size 88x19
          chunk 1 text run 1 at (0.00,117.00) startOffset 0 endOffset 14 width 88.00: "visiblePainted"
      RenderSVGPath {rect} at (100,87) size 50x50 [x=100.00] [y=87.00] [width=50.00] [height=50.00]
      RenderSVGText {text} at (105,92) size 28x19 contains 1 chunk(s)
        RenderSVGInlineText {#text} at (0,0) size 28x19
          chunk 1 text run 1 at (105.00,107.00) startOffset 0 endOffset 4 width 28.00: "miss"
      RenderSVGText {text} at (105,112) size 28x19 contains 1 chunk(s)
        RenderSVGInlineText {#text} at (0,0) size 28x19
          chunk 1 text run 1 at (105.00,127.00) startOffset 0 endOffset 4 width 28.00: "miss"
      RenderSVGPath {rect} at (154,84) size 56x56 [stroke={[type=SOLID] [color=#0000FF] [stroke width=6.00]}] [x=157.00] [y=87.00] [width=50.00] [height=50.00]
      RenderSVGText {text} at (162,92) size 27x19 contains 1 chunk(s)
        RenderSVGInlineText {#text} at (0,0) size 27x19
          chunk 1 text run 1 at (162.00,107.00) startOffset 0 endOffset 3 width 27.00: "HIT"
      RenderSVGText {text} at (162,112) size 27x19 contains 1 chunk(s)
        RenderSVGInlineText {#text} at (0,0) size 27x19
          chunk 1 text run 1 at (162.00,127.00) startOffset 0 endOffset 3 width 27.00: "HIT"
      RenderSVGPath {rect} at (214,87) size 50x50 [fill={[type=SOLID] [color=#FFA500]}] [x=214.00] [y=87.00] [width=50.00] [height=50.00]
      RenderSVGText {text} at (219,92) size 27x19 contains 1 chunk(s)
        RenderSVGInlineText {#text} at (0,0) size 27x19
          chunk 1 text run 1 at (219.00,107.00) startOffset 0 endOffset 3 width 27.00: "HIT"
      RenderSVGText {text} at (219,112) size 27x19 contains 1 chunk(s)
        RenderSVGInlineText {#text} at (0,0) size 27x19
          chunk 1 text run 1 at (219.00,127.00) startOffset 0 endOffset 3 width 27.00: "HIT"
      RenderSVGPath {rect} at (268,84) size 56x56 [stroke={[type=SOLID] [color=#0000FF] [stroke width=6.00]}] [fill={[type=SOLID] [color=#FFA500]}] [x=271.00] [y=87.00] [width=50.00] [height=50.00]
      RenderSVGText {text} at (276,92) size 27x19 contains 1 chunk(s)
        RenderSVGInlineText {#text} at (0,0) size 27x19
          chunk 1 text run 1 at (276.00,107.00) startOffset 0 endOffset 3 width 27.00: "HIT"
      RenderSVGText {text} at (276,112) size 27x19 contains 1 chunk(s)
        RenderSVGInlineText {#text} at (0,0) size 27x19
          chunk 1 text run 1 at (276.00,127.00) startOffset 0 endOffset 3 width 27.00: "HIT"
      RenderSVGPath {rect} at (328,87) size 50x50 [x=328.00] [y=87.00] [width=50.00] [height=50.00]
      RenderSVGText {text} at (333,92) size 28x19 contains 1 chunk(s)
        RenderSVGInlineText {#text} at (0,0) size 28x19
          chunk 1 text run 1 at (333.00,107.00) startOffset 0 endOffset 4 width 28.00: "miss"
      RenderSVGText {text} at (333,112) size 28x19 contains 1 chunk(s)
        RenderSVGInlineText {#text} at (0,0) size 28x19
          chunk 1 text run 1 at (333.00,127.00) startOffset 0 endOffset 4 width 28.00: "miss"
      RenderSVGPath {rect} at (382,84) size 56x56 [stroke={[type=SOLID] [color=#0000FF] [stroke width=6.00]}] [x=385.00] [y=87.00] [width=50.00] [height=50.00]
      RenderSVGText {text} at (390,92) size 28x19 contains 1 chunk(s)
        RenderSVGInlineText {#text} at (0,0) size 28x19
          chunk 1 text run 1 at (390.00,107.00) startOffset 0 endOffset 4 width 28.00: "miss"
      RenderSVGText {text} at (390,112) size 28x19 contains 1 chunk(s)
        RenderSVGInlineText {#text} at (0,0) size 28x19
          chunk 1 text run 1 at (390.00,127.00) startOffset 0 endOffset 4 width 28.00: "miss"
      RenderSVGPath {rect} at (442,87) size 50x50 [fill={[type=SOLID] [color=#FFA500]}] [x=442.00] [y=87.00] [width=50.00] [height=50.00]
      RenderSVGText {text} at (447,92) size 28x19 contains 1 chunk(s)
        RenderSVGInlineText {#text} at (0,0) size 28x19
          chunk 1 text run 1 at (447.00,107.00) startOffset 0 endOffset 4 width 28.00: "miss"
      RenderSVGText {text} at (447,112) size 28x19 contains 1 chunk(s)
        RenderSVGInlineText {#text} at (0,0) size 28x19
          chunk 1 text run 1 at (447.00,127.00) startOffset 0 endOffset 4 width 28.00: "miss"
      RenderSVGPath {rect} at (496,84) size 56x56 [stroke={[type=SOLID] [color=#0000FF] [stroke width=6.00]}] [fill={[type=SOLID] [color=#FFA500]}] [x=499.00] [y=87.00] [width=50.00] [height=50.00]
      RenderSVGText {text} at (504,92) size 28x19 contains 1 chunk(s)
        RenderSVGInlineText {#text} at (0,0) size 28x19
          chunk 1 text run 1 at (504.00,107.00) startOffset 0 endOffset 4 width 28.00: "miss"
      RenderSVGText {text} at (504,112) size 28x19 contains 1 chunk(s)
        RenderSVGInlineText {#text} at (0,0) size 28x19
          chunk 1 text run 1 at (504.00,127.00) startOffset 0 endOffset 4 width 28.00: "miss"
      RenderSVGText {text} at (0,159) size 62x19 contains 1 chunk(s)
        RenderSVGInlineText {#text} at (0,0) size 62x19
          chunk 1 text run 1 at (0.00,174.00) startOffset 0 endOffset 11 width 62.00: "visibleFill"
      RenderSVGPath {rect} at (100,144) size 50x50 [x=100.00] [y=144.00] [width=50.00] [height=50.00]
      RenderSVGText {text} at (105,149) size 27x19 contains 1 chunk(s)
        RenderSVGInlineText {#text} at (0,0) size 27x19
          chunk 1 text run 1 at (105.00,164.00) startOffset 0 endOffset 3 width 27.00: "HIT"
      RenderSVGText {text} at (105,169) size 27x19 contains 1 chunk(s)
        RenderSVGInlineText {#text} at (0,0) size 27x19
          chunk 1 text run 1 at (105.00,184.00) startOffset 0 endOffset 3 width 27.00: "HIT"
      RenderSVGPath {rect} at (154,141) size 56x56 [stroke={[type=SOLID] [color=#0000FF] [stroke width=6.00]}] [x=157.00] [y=144.00] [width=50.00] [height=50.00]
      RenderSVGText {text} at (162,149) size 27x19 contains 1 chunk(s)
        RenderSVGInlineText {#text} at (0,0) size 27x19
          chunk 1 text run 1 at (162.00,164.00) startOffset 0 endOffset 3 width 27.00: "HIT"
      RenderSVGText {text} at (162,169) size 27x19 contains 1 chunk(s)
        RenderSVGInlineText {#text} at (0,0) size 27x19
          chunk 1 text run 1 at (162.00,184.00) startOffset 0 endOffset 3 width 27.00: "HIT"
      RenderSVGPath {rect} at (214,144) size 50x50 [fill={[type=SOLID] [color=#FFA500]}] [x=214.00] [y=144.00] [width=50.00] [height=50.00]
      RenderSVGText {text} at (219,149) size 27x19 contains 1 chunk(s)
        RenderSVGInlineText {#text} at (0,0) size 27x19
          chunk 1 text run 1 at (219.00,164.00) startOffset 0 endOffset 3 width 27.00: "HIT"
      RenderSVGText {text} at (219,169) size 27x19 contains 1 chunk(s)
        RenderSVGInlineText {#text} at (0,0) size 27x19
          chunk 1 text run 1 at (219.00,184.00) startOffset 0 endOffset 3 width 27.00: "HIT"
      RenderSVGPath {rect} at (268,141) size 56x56 [stroke={[type=SOLID] [color=#0000FF] [stroke width=6.00]}] [fill={[type=SOLID] [color=#FFA500]}] [x=271.00] [y=144.00] [width=50.00] [height=50.00]
      RenderSVGText {text} at (276,149) size 27x19 contains 1 chunk(s)
        RenderSVGInlineText {#text} at (0,0) size 27x19
          chunk 1 text run 1 at (276.00,164.00) startOffset 0 endOffset 3 width 27.00: "HIT"
      RenderSVGText {text} at (276,169) size 27x19 contains 1 chunk(s)
        RenderSVGInlineText {#text} at (0,0) size 27x19
          chunk 1 text run 1 at (276.00,184.00) startOffset 0 endOffset 3 width 27.00: "HIT"
      RenderSVGPath {rect} at (328,144) size 50x50 [x=328.00] [y=144.00] [width=50.00] [height=50.00]
      RenderSVGText {text} at (333,149) size 28x19 contains 1 chunk(s)
        RenderSVGInlineText {#text} at (0,0) size 28x19
          chunk 1 text run 1 at (333.00,164.00) startOffset 0 endOffset 4 width 28.00: "miss"
      RenderSVGText {text} at (333,169) size 28x19 contains 1 chunk(s)
        RenderSVGInlineText {#text} at (0,0) size 28x19
          chunk 1 text run 1 at (333.00,184.00) startOffset 0 endOffset 4 width 28.00: "miss"
      RenderSVGPath {rect} at (382,141) size 56x56 [stroke={[type=SOLID] [color=#0000FF] [stroke width=6.00]}] [x=385.00] [y=144.00] [width=50.00] [height=50.00]
      RenderSVGText {text} at (390,149) size 28x19 contains 1 chunk(s)
        RenderSVGInlineText {#text} at (0,0) size 28x19
          chunk 1 text run 1 at (390.00,164.00) startOffset 0 endOffset 4 width 28.00: "miss"
      RenderSVGText {text} at (390,169) size 28x19 contains 1 chunk(s)
        RenderSVGInlineText {#text} at (0,0) size 28x19
          chunk 1 text run 1 at (390.00,184.00) startOffset 0 endOffset 4 width 28.00: "miss"
      RenderSVGPath {rect} at (442,144) size 50x50 [fill={[type=SOLID] [color=#FFA500]}] [x=442.00] [y=144.00] [width=50.00] [height=50.00]
      RenderSVGText {text} at (447,149) size 28x19 contains 1 chunk(s)
        RenderSVGInlineText {#text} at (0,0) size 28x19
          chunk 1 text run 1 at (447.00,164.00) startOffset 0 endOffset 4 width 28.00: "miss"
      RenderSVGText {text} at (447,169) size 28x19 contains 1 chunk(s)
        RenderSVGInlineText {#text} at (0,0) size 28x19
          chunk 1 text run 1 at (447.00,184.00) startOffset 0 endOffset 4 width 28.00: "miss"
      RenderSVGPath {rect} at (496,141) size 56x56 [stroke={[type=SOLID] [color=#0000FF] [stroke width=6.00]}] [fill={[type=SOLID] [color=#FFA500]}] [x=499.00] [y=144.00] [width=50.00] [height=50.00]
      RenderSVGText {text} at (504,149) size 28x19 contains 1 chunk(s)
        RenderSVGInlineText {#text} at (0,0) size 28x19
          chunk 1 text run 1 at (504.00,164.00) startOffset 0 endOffset 4 width 28.00: "miss"
      RenderSVGText {text} at (504,169) size 28x19 contains 1 chunk(s)
        RenderSVGInlineText {#text} at (0,0) size 28x19
          chunk 1 text run 1 at (504.00,184.00) startOffset 0 endOffset 4 width 28.00: "miss"
      RenderSVGText {text} at (0,216) size 82x19 contains 1 chunk(s)
        RenderSVGInlineText {#text} at (0,0) size 82x19
          chunk 1 text run 1 at (0.00,231.00) startOffset 0 endOffset 13 width 82.00: "visibleStroke"
      RenderSVGPath {rect} at (100,201) size 50x50 [x=100.00] [y=201.00] [width=50.00] [height=50.00]
      RenderSVGText {text} at (105,206) size 27x19 contains 1 chunk(s)
        RenderSVGInlineText {#text} at (0,0) size 27x19
          chunk 1 text run 1 at (105.00,221.00) startOffset 0 endOffset 3 width 27.00: "HIT"
      RenderSVGText {text} at (105,226) size 27x19 contains 1 chunk(s)
        RenderSVGInlineText {#text} at (0,0) size 27x19
          chunk 1 text run 1 at (105.00,241.00) startOffset 0 endOffset 3 width 27.00: "HIT"
      RenderSVGPath {rect} at (154,198) size 56x56 [stroke={[type=SOLID] [color=#0000FF] [stroke width=6.00]}] [x=157.00] [y=201.00] [width=50.00] [height=50.00]
      RenderSVGText {text} at (162,206) size 27x19 contains 1 chunk(s)
        RenderSVGInlineText {#text} at (0,0) size 27x19
          chunk 1 text run 1 at (162.00,221.00) startOffset 0 endOffset 3 width 27.00: "HIT"
      RenderSVGText {text} at (162,226) size 27x19 contains 1 chunk(s)
        RenderSVGInlineText {#text} at (0,0) size 27x19
          chunk 1 text run 1 at (162.00,241.00) startOffset 0 endOffset 3 width 27.00: "HIT"
      RenderSVGPath {rect} at (214,201) size 50x50 [fill={[type=SOLID] [color=#FFA500]}] [x=214.00] [y=201.00] [width=50.00] [height=50.00]
      RenderSVGText {text} at (219,206) size 27x19 contains 1 chunk(s)
        RenderSVGInlineText {#text} at (0,0) size 27x19
          chunk 1 text run 1 at (219.00,221.00) startOffset 0 endOffset 3 width 27.00: "HIT"
      RenderSVGText {text} at (219,226) size 27x19 contains 1 chunk(s)
        RenderSVGInlineText {#text} at (0,0) size 27x19
          chunk 1 text run 1 at (219.00,241.00) startOffset 0 endOffset 3 width 27.00: "HIT"
      RenderSVGPath {rect} at (268,198) size 56x56 [stroke={[type=SOLID] [color=#0000FF] [stroke width=6.00]}] [fill={[type=SOLID] [color=#FFA500]}] [x=271.00] [y=201.00] [width=50.00] [height=50.00]
      RenderSVGText {text} at (276,206) size 27x19 contains 1 chunk(s)
        RenderSVGInlineText {#text} at (0,0) size 27x19
          chunk 1 text run 1 at (276.00,221.00) startOffset 0 endOffset 3 width 27.00: "HIT"
      RenderSVGText {text} at (276,226) size 27x19 contains 1 chunk(s)
        RenderSVGInlineText {#text} at (0,0) size 27x19
          chunk 1 text run 1 at (276.00,241.00) startOffset 0 endOffset 3 width 27.00: "HIT"
      RenderSVGPath {rect} at (328,201) size 50x50 [x=328.00] [y=201.00] [width=50.00] [height=50.00]
      RenderSVGText {text} at (333,206) size 28x19 contains 1 chunk(s)
        RenderSVGInlineText {#text} at (0,0) size 28x19
          chunk 1 text run 1 at (333.00,221.00) startOffset 0 endOffset 4 width 28.00: "miss"
      RenderSVGText {text} at (333,226) size 28x19 contains 1 chunk(s)
        RenderSVGInlineText {#text} at (0,0) size 28x19
          chunk 1 text run 1 at (333.00,241.00) startOffset 0 endOffset 4 width 28.00: "miss"
      RenderSVGPath {rect} at (382,198) size 56x56 [stroke={[type=SOLID] [color=#0000FF] [stroke width=6.00]}] [x=385.00] [y=201.00] [width=50.00] [height=50.00]
      RenderSVGText {text} at (390,206) size 28x19 contains 1 chunk(s)
        RenderSVGInlineText {#text} at (0,0) size 28x19
          chunk 1 text run 1 at (390.00,221.00) startOffset 0 endOffset 4 width 28.00: "miss"
      RenderSVGText {text} at (390,226) size 28x19 contains 1 chunk(s)
        RenderSVGInlineText {#text} at (0,0) size 28x19
          chunk 1 text run 1 at (390.00,241.00) startOffset 0 endOffset 4 width 28.00: "miss"
      RenderSVGPath {rect} at (442,201) size 50x50 [fill={[type=SOLID] [color=#FFA500]}] [x=442.00] [y=201.00] [width=50.00] [height=50.00]
      RenderSVGText {text} at (447,206) size 28x19 contains 1 chunk(s)
        RenderSVGInlineText {#text} at (0,0) size 28x19
          chunk 1 text run 1 at (447.00,221.00) startOffset 0 endOffset 4 width 28.00: "miss"
      RenderSVGText {text} at (447,226) size 28x19 contains 1 chunk(s)
        RenderSVGInlineText {#text} at (0,0) size 28x19
          chunk 1 text run 1 at (447.00,241.00) startOffset 0 endOffset 4 width 28.00: "miss"
      RenderSVGPath {rect} at (496,198) size 56x56 [stroke={[type=SOLID] [color=#0000FF] [stroke width=6.00]}] [fill={[type=SOLID] [color=#FFA500]}] [x=499.00] [y=201.00] [width=50.00] [height=50.00]
      RenderSVGText {text} at (504,206) size 28x19 contains 1 chunk(s)
        RenderSVGInlineText {#text} at (0,0) size 28x19
          chunk 1 text run 1 at (504.00,221.00) startOffset 0 endOffset 4 width 28.00: "miss"
      RenderSVGText {text} at (504,226) size 28x19 contains 1 chunk(s)
        RenderSVGInlineText {#text} at (0,0) size 28x19
          chunk 1 text run 1 at (504.00,241.00) startOffset 0 endOffset 4 width 28.00: "miss"
      RenderSVGText {text} at (0,273) size 41x19 contains 1 chunk(s)
        RenderSVGInlineText {#text} at (0,0) size 41x19
          chunk 1 text run 1 at (0.00,288.00) startOffset 0 endOffset 7 width 41.00: "visible"
      RenderSVGPath {rect} at (100,258) size 50x50 [x=100.00] [y=258.00] [width=50.00] [height=50.00]
      RenderSVGText {text} at (105,263) size 27x19 contains 1 chunk(s)
        RenderSVGInlineText {#text} at (0,0) size 27x19
          chunk 1 text run 1 at (105.00,278.00) startOffset 0 endOffset 3 width 27.00: "HIT"
      RenderSVGText {text} at (105,283) size 27x19 contains 1 chunk(s)
        RenderSVGInlineText {#text} at (0,0) size 27x19
          chunk 1 text run 1 at (105.00,298.00) startOffset 0 endOffset 3 width 27.00: "HIT"
      RenderSVGPath {rect} at (154,255) size 56x56 [stroke={[type=SOLID] [color=#0000FF] [stroke width=6.00]}] [x=157.00] [y=258.00] [width=50.00] [height=50.00]
      RenderSVGText {text} at (162,263) size 27x19 contains 1 chunk(s)
        RenderSVGInlineText {#text} at (0,0) size 27x19
          chunk 1 text run 1 at (162.00,278.00) startOffset 0 endOffset 3 width 27.00: "HIT"
      RenderSVGText {text} at (162,283) size 27x19 contains 1 chunk(s)
        RenderSVGInlineText {#text} at (0,0) size 27x19
          chunk 1 text run 1 at (162.00,298.00) startOffset 0 endOffset 3 width 27.00: "HIT"
      RenderSVGPath {rect} at (214,258) size 50x50 [fill={[type=SOLID] [color=#FFA500]}] [x=214.00] [y=258.00] [width=50.00] [height=50.00]
      RenderSVGText {text} at (219,263) size 27x19 contains 1 chunk(s)
        RenderSVGInlineText {#text} at (0,0) size 27x19
          chunk 1 text run 1 at (219.00,278.00) startOffset 0 endOffset 3 width 27.00: "HIT"
      RenderSVGText {text} at (219,283) size 27x19 contains 1 chunk(s)
        RenderSVGInlineText {#text} at (0,0) size 27x19
          chunk 1 text run 1 at (219.00,298.00) startOffset 0 endOffset 3 width 27.00: "HIT"
      RenderSVGPath {rect} at (268,255) size 56x56 [stroke={[type=SOLID] [color=#0000FF] [stroke width=6.00]}] [fill={[type=SOLID] [color=#FFA500]}] [x=271.00] [y=258.00] [width=50.00] [height=50.00]
      RenderSVGText {text} at (276,263) size 27x19 contains 1 chunk(s)
        RenderSVGInlineText {#text} at (0,0) size 27x19
          chunk 1 text run 1 at (276.00,278.00) startOffset 0 endOffset 3 width 27.00: "HIT"
      RenderSVGText {text} at (276,283) size 27x19 contains 1 chunk(s)
        RenderSVGInlineText {#text} at (0,0) size 27x19
          chunk 1 text run 1 at (276.00,298.00) startOffset 0 endOffset 3 width 27.00: "HIT"
      RenderSVGPath {rect} at (328,258) size 50x50 [x=328.00] [y=258.00] [width=50.00] [height=50.00]
      RenderSVGText {text} at (333,263) size 28x19 contains 1 chunk(s)
        RenderSVGInlineText {#text} at (0,0) size 28x19
          chunk 1 text run 1 at (333.00,278.00) startOffset 0 endOffset 4 width 28.00: "miss"
      RenderSVGText {text} at (333,283) size 28x19 contains 1 chunk(s)
        RenderSVGInlineText {#text} at (0,0) size 28x19
          chunk 1 text run 1 at (333.00,298.00) startOffset 0 endOffset 4 width 28.00: "miss"
      RenderSVGPath {rect} at (382,255) size 56x56 [stroke={[type=SOLID] [color=#0000FF] [stroke width=6.00]}] [x=385.00] [y=258.00] [width=50.00] [height=50.00]
      RenderSVGText {text} at (390,263) size 28x19 contains 1 chunk(s)
        RenderSVGInlineText {#text} at (0,0) size 28x19
          chunk 1 text run 1 at (390.00,278.00) startOffset 0 endOffset 4 width 28.00: "miss"
      RenderSVGText {text} at (390,283) size 28x19 contains 1 chunk(s)
        RenderSVGInlineText {#text} at (0,0) size 28x19
          chunk 1 text run 1 at (390.00,298.00) startOffset 0 endOffset 4 width 28.00: "miss"
      RenderSVGPath {rect} at (442,258) size 50x50 [fill={[type=SOLID] [color=#FFA500]}] [x=442.00] [y=258.00] [width=50.00] [height=50.00]
      RenderSVGText {text} at (447,263) size 28x19 contains 1 chunk(s)
        RenderSVGInlineText {#text} at (0,0) size 28x19
          chunk 1 text run 1 at (447.00,278.00) startOffset 0 endOffset 4 width 28.00: "miss"
      RenderSVGText {text} at (447,283) size 28x19 contains 1 chunk(s)
        RenderSVGInlineText {#text} at (0,0) size 28x19
          chunk 1 text run 1 at (447.00,298.00) startOffset 0 endOffset 4 width 28.00: "miss"
      RenderSVGPath {rect} at (496,255) size 56x56 [stroke={[type=SOLID] [color=#0000FF] [stroke width=6.00]}] [fill={[type=SOLID] [color=#FFA500]}] [x=499.00] [y=258.00] [width=50.00] [height=50.00]
      RenderSVGText {text} at (504,263) size 28x19 contains 1 chunk(s)
        RenderSVGInlineText {#text} at (0,0) size 28x19
          chunk 1 text run 1 at (504.00,278.00) startOffset 0 endOffset 4 width 28.00: "miss"
      RenderSVGText {text} at (504,283) size 28x19 contains 1 chunk(s)
        RenderSVGInlineText {#text} at (0,0) size 28x19
          chunk 1 text run 1 at (504.00,298.00) startOffset 0 endOffset 4 width 28.00: "miss"
      RenderSVGText {text} at (0,330) size 46x19 contains 1 chunk(s)
        RenderSVGInlineText {#text} at (0,0) size 46x19
          chunk 1 text run 1 at (0.00,345.00) startOffset 0 endOffset 7 width 46.00: "painted"
      RenderSVGPath {rect} at (100,315) size 50x50 [x=100.00] [y=315.00] [width=50.00] [height=50.00]
      RenderSVGText {text} at (105,320) size 28x19 contains 1 chunk(s)
        RenderSVGInlineText {#text} at (0,0) size 28x19
          chunk 1 text run 1 at (105.00,335.00) startOffset 0 endOffset 4 width 28.00: "miss"
      RenderSVGText {text} at (105,340) size 28x19 contains 1 chunk(s)
        RenderSVGInlineText {#text} at (0,0) size 28x19
          chunk 1 text run 1 at (105.00,355.00) startOffset 0 endOffset 4 width 28.00: "miss"
      RenderSVGPath {rect} at (154,312) size 56x56 [stroke={[type=SOLID] [color=#0000FF] [stroke width=6.00]}] [x=157.00] [y=315.00] [width=50.00] [height=50.00]
      RenderSVGText {text} at (162,320) size 27x19 contains 1 chunk(s)
        RenderSVGInlineText {#text} at (0,0) size 27x19
          chunk 1 text run 1 at (162.00,335.00) startOffset 0 endOffset 3 width 27.00: "HIT"
      RenderSVGText {text} at (162,340) size 27x19 contains 1 chunk(s)
        RenderSVGInlineText {#text} at (0,0) size 27x19
          chunk 1 text run 1 at (162.00,355.00) startOffset 0 endOffset 3 width 27.00: "HIT"
      RenderSVGPath {rect} at (214,315) size 50x50 [fill={[type=SOLID] [color=#FFA500]}] [x=214.00] [y=315.00] [width=50.00] [height=50.00]
      RenderSVGText {text} at (219,320) size 27x19 contains 1 chunk(s)
        RenderSVGInlineText {#text} at (0,0) size 27x19
          chunk 1 text run 1 at (219.00,335.00) startOffset 0 endOffset 3 width 27.00: "HIT"
      RenderSVGText {text} at (219,340) size 27x19 contains 1 chunk(s)
        RenderSVGInlineText {#text} at (0,0) size 27x19
          chunk 1 text run 1 at (219.00,355.00) startOffset 0 endOffset 3 width 27.00: "HIT"
      RenderSVGPath {rect} at (268,312) size 56x56 [stroke={[type=SOLID] [color=#0000FF] [stroke width=6.00]}] [fill={[type=SOLID] [color=#FFA500]}] [x=271.00] [y=315.00] [width=50.00] [height=50.00]
      RenderSVGText {text} at (276,320) size 27x19 contains 1 chunk(s)
        RenderSVGInlineText {#text} at (0,0) size 27x19
          chunk 1 text run 1 at (276.00,335.00) startOffset 0 endOffset 3 width 27.00: "HIT"
      RenderSVGText {text} at (276,340) size 27x19 contains 1 chunk(s)
        RenderSVGInlineText {#text} at (0,0) size 27x19
          chunk 1 text run 1 at (276.00,355.00) startOffset 0 endOffset 3 width 27.00: "HIT"
      RenderSVGPath {rect} at (328,315) size 50x50 [x=328.00] [y=315.00] [width=50.00] [height=50.00]
      RenderSVGText {text} at (333,320) size 28x19 contains 1 chunk(s)
        RenderSVGInlineText {#text} at (0,0) size 28x19
          chunk 1 text run 1 at (333.00,335.00) startOffset 0 endOffset 4 width 28.00: "miss"
      RenderSVGText {text} at (333,340) size 28x19 contains 1 chunk(s)
        RenderSVGInlineText {#text} at (0,0) size 28x19
          chunk 1 text run 1 at (333.00,355.00) startOffset 0 endOffset 4 width 28.00: "miss"
      RenderSVGPath {rect} at (382,312) size 56x56 [stroke={[type=SOLID] [color=#0000FF] [stroke width=6.00]}] [x=385.00] [y=315.00] [width=50.00] [height=50.00]
      RenderSVGText {text} at (390,320) size 27x19 contains 1 chunk(s)
        RenderSVGInlineText {#text} at (0,0) size 27x19
          chunk 1 text run 1 at (390.00,335.00) startOffset 0 endOffset 3 width 27.00: "HIT"
      RenderSVGText {text} at (390,340) size 27x19 contains 1 chunk(s)
        RenderSVGInlineText {#text} at (0,0) size 27x19
          chunk 1 text run 1 at (390.00,355.00) startOffset 0 endOffset 3 width 27.00: "HIT"
      RenderSVGPath {rect} at (442,315) size 50x50 [fill={[type=SOLID] [color=#FFA500]}] [x=442.00] [y=315.00] [width=50.00] [height=50.00]
      RenderSVGText {text} at (447,320) size 27x19 contains 1 chunk(s)
        RenderSVGInlineText {#text} at (0,0) size 27x19
          chunk 1 text run 1 at (447.00,335.00) startOffset 0 endOffset 3 width 27.00: "HIT"
      RenderSVGText {text} at (447,340) size 27x19 contains 1 chunk(s)
        RenderSVGInlineText {#text} at (0,0) size 27x19
          chunk 1 text run 1 at (447.00,355.00) startOffset 0 endOffset 3 width 27.00: "HIT"
      RenderSVGPath {rect} at (496,312) size 56x56 [stroke={[type=SOLID] [color=#0000FF] [stroke width=6.00]}] [fill={[type=SOLID] [color=#FFA500]}] [x=499.00] [y=315.00] [width=50.00] [height=50.00]
      RenderSVGText {text} at (504,320) size 27x19 contains 1 chunk(s)
        RenderSVGInlineText {#text} at (0,0) size 27x19
          chunk 1 text run 1 at (504.00,335.00) startOffset 0 endOffset 3 width 27.00: "HIT"
      RenderSVGText {text} at (504,340) size 27x19 contains 1 chunk(s)
        RenderSVGInlineText {#text} at (0,0) size 27x19
          chunk 1 text run 1 at (504.00,355.00) startOffset 0 endOffset 3 width 27.00: "HIT"
      RenderSVGText {text} at (0,387) size 17x19 contains 1 chunk(s)
        RenderSVGInlineText {#text} at (0,0) size 17x19
          chunk 1 text run 1 at (0.00,402.00) startOffset 0 endOffset 4 width 17.00: "fill"
      RenderSVGPath {rect} at (100,372) size 50x50 [x=100.00] [y=372.00] [width=50.00] [height=50.00]
      RenderSVGText {text} at (105,377) size 27x19 contains 1 chunk(s)
        RenderSVGInlineText {#text} at (0,0) size 27x19
          chunk 1 text run 1 at (105.00,392.00) startOffset 0 endOffset 3 width 27.00: "HIT"
      RenderSVGText {text} at (105,397) size 27x19 contains 1 chunk(s)
        RenderSVGInlineText {#text} at (0,0) size 27x19
          chunk 1 text run 1 at (105.00,412.00) startOffset 0 endOffset 3 width 27.00: "HIT"
      RenderSVGPath {rect} at (154,369) size 56x56 [stroke={[type=SOLID] [color=#0000FF] [stroke width=6.00]}] [x=157.00] [y=372.00] [width=50.00] [height=50.00]
      RenderSVGText {text} at (162,377) size 27x19 contains 1 chunk(s)
        RenderSVGInlineText {#text} at (0,0) size 27x19
          chunk 1 text run 1 at (162.00,392.00) startOffset 0 endOffset 3 width 27.00: "HIT"
      RenderSVGText {text} at (162,397) size 27x19 contains 1 chunk(s)
        RenderSVGInlineText {#text} at (0,0) size 27x19
          chunk 1 text run 1 at (162.00,412.00) startOffset 0 endOffset 3 width 27.00: "HIT"
      RenderSVGPath {rect} at (214,372) size 50x50 [fill={[type=SOLID] [color=#FFA500]}] [x=214.00] [y=372.00] [width=50.00] [height=50.00]
      RenderSVGText {text} at (219,377) size 27x19 contains 1 chunk(s)
        RenderSVGInlineText {#text} at (0,0) size 27x19
          chunk 1 text run 1 at (219.00,392.00) startOffset 0 endOffset 3 width 27.00: "HIT"
      RenderSVGText {text} at (219,397) size 27x19 contains 1 chunk(s)
        RenderSVGInlineText {#text} at (0,0) size 27x19
          chunk 1 text run 1 at (219.00,412.00) startOffset 0 endOffset 3 width 27.00: "HIT"
      RenderSVGPath {rect} at (268,369) size 56x56 [stroke={[type=SOLID] [color=#0000FF] [stroke width=6.00]}] [fill={[type=SOLID] [color=#FFA500]}] [x=271.00] [y=372.00] [width=50.00] [height=50.00]
      RenderSVGText {text} at (276,377) size 27x19 contains 1 chunk(s)
        RenderSVGInlineText {#text} at (0,0) size 27x19
          chunk 1 text run 1 at (276.00,392.00) startOffset 0 endOffset 3 width 27.00: "HIT"
      RenderSVGText {text} at (276,397) size 27x19 contains 1 chunk(s)
        RenderSVGInlineText {#text} at (0,0) size 27x19
          chunk 1 text run 1 at (276.00,412.00) startOffset 0 endOffset 3 width 27.00: "HIT"
      RenderSVGPath {rect} at (328,372) size 50x50 [x=328.00] [y=372.00] [width=50.00] [height=50.00]
      RenderSVGText {text} at (333,377) size 27x19 contains 1 chunk(s)
        RenderSVGInlineText {#text} at (0,0) size 27x19
          chunk 1 text run 1 at (333.00,392.00) startOffset 0 endOffset 3 width 27.00: "HIT"
      RenderSVGText {text} at (333,397) size 27x19 contains 1 chunk(s)
        RenderSVGInlineText {#text} at (0,0) size 27x19
          chunk 1 text run 1 at (333.00,412.00) startOffset 0 endOffset 3 width 27.00: "HIT"
      RenderSVGPath {rect} at (382,369) size 56x56 [stroke={[type=SOLID] [color=#0000FF] [stroke width=6.00]}] [x=385.00] [y=372.00] [width=50.00] [height=50.00]
      RenderSVGText {text} at (390,377) size 27x19 contains 1 chunk(s)
        RenderSVGInlineText {#text} at (0,0) size 27x19
          chunk 1 text run 1 at (390.00,392.00) startOffset 0 endOffset 3 width 27.00: "HIT"
      RenderSVGText {text} at (390,397) size 27x19 contains 1 chunk(s)
        RenderSVGInlineText {#text} at (0,0) size 27x19
          chunk 1 text run 1 at (390.00,412.00) startOffset 0 endOffset 3 width 27.00: "HIT"
      RenderSVGPath {rect} at (442,372) size 50x50 [fill={[type=SOLID] [color=#FFA500]}] [x=442.00] [y=372.00] [width=50.00] [height=50.00]
      RenderSVGText {text} at (447,377) size 27x19 contains 1 chunk(s)
        RenderSVGInlineText {#text} at (0,0) size 27x19
          chunk 1 text run 1 at (447.00,392.00) startOffset 0 endOffset 3 width 27.00: "HIT"
      RenderSVGText {text} at (447,397) size 27x19 contains 1 chunk(s)
        RenderSVGInlineText {#text} at (0,0) size 27x19
          chunk 1 text run 1 at (447.00,412.00) startOffset 0 endOffset 3 width 27.00: "HIT"
      RenderSVGPath {rect} at (496,369) size 56x56 [stroke={[type=SOLID] [color=#0000FF] [stroke width=6.00]}] [fill={[type=SOLID] [color=#FFA500]}] [x=499.00] [y=372.00] [width=50.00] [height=50.00]
      RenderSVGText {text} at (504,377) size 27x19 contains 1 chunk(s)
        RenderSVGInlineText {#text} at (0,0) size 27x19
          chunk 1 text run 1 at (504.00,392.00) startOffset 0 endOffset 3 width 27.00: "HIT"
      RenderSVGText {text} at (504,397) size 27x19 contains 1 chunk(s)
        RenderSVGInlineText {#text} at (0,0) size 27x19
          chunk 1 text run 1 at (504.00,412.00) startOffset 0 endOffset 3 width 27.00: "HIT"
      RenderSVGText {text} at (0,444) size 38x19 contains 1 chunk(s)
        RenderSVGInlineText {#text} at (0,0) size 38x19
          chunk 1 text run 1 at (0.00,459.00) startOffset 0 endOffset 6 width 38.00: "stroke"
      RenderSVGPath {rect} at (100,429) size 50x50 [x=100.00] [y=429.00] [width=50.00] [height=50.00]
      RenderSVGText {text} at (105,434) size 27x19 contains 1 chunk(s)
        RenderSVGInlineText {#text} at (0,0) size 27x19
          chunk 1 text run 1 at (105.00,449.00) startOffset 0 endOffset 3 width 27.00: "HIT"
      RenderSVGText {text} at (105,454) size 27x19 contains 1 chunk(s)
        RenderSVGInlineText {#text} at (0,0) size 27x19
          chunk 1 text run 1 at (105.00,469.00) startOffset 0 endOffset 3 width 27.00: "HIT"
      RenderSVGPath {rect} at (154,426) size 56x56 [stroke={[type=SOLID] [color=#0000FF] [stroke width=6.00]}] [x=157.00] [y=429.00] [width=50.00] [height=50.00]
      RenderSVGText {text} at (162,434) size 27x19 contains 1 chunk(s)
        RenderSVGInlineText {#text} at (0,0) size 27x19
          chunk 1 text run 1 at (162.00,449.00) startOffset 0 endOffset 3 width 27.00: "HIT"
      RenderSVGText {text} at (162,454) size 27x19 contains 1 chunk(s)
        RenderSVGInlineText {#text} at (0,0) size 27x19
          chunk 1 text run 1 at (162.00,469.00) startOffset 0 endOffset 3 width 27.00: "HIT"
      RenderSVGPath {rect} at (214,429) size 50x50 [fill={[type=SOLID] [color=#FFA500]}] [x=214.00] [y=429.00] [width=50.00] [height=50.00]
      RenderSVGText {text} at (219,434) size 27x19 contains 1 chunk(s)
        RenderSVGInlineText {#text} at (0,0) size 27x19
          chunk 1 text run 1 at (219.00,449.00) startOffset 0 endOffset 3 width 27.00: "HIT"
      RenderSVGText {text} at (219,454) size 27x19 contains 1 chunk(s)
        RenderSVGInlineText {#text} at (0,0) size 27x19
          chunk 1 text run 1 at (219.00,469.00) startOffset 0 endOffset 3 width 27.00: "HIT"
      RenderSVGPath {rect} at (268,426) size 56x56 [stroke={[type=SOLID] [color=#0000FF] [stroke width=6.00]}] [fill={[type=SOLID] [color=#FFA500]}] [x=271.00] [y=429.00] [width=50.00] [height=50.00]
      RenderSVGText {text} at (276,434) size 27x19 contains 1 chunk(s)
        RenderSVGInlineText {#text} at (0,0) size 27x19
          chunk 1 text run 1 at (276.00,449.00) startOffset 0 endOffset 3 width 27.00: "HIT"
      RenderSVGText {text} at (276,454) size 27x19 contains 1 chunk(s)
        RenderSVGInlineText {#text} at (0,0) size 27x19
          chunk 1 text run 1 at (276.00,469.00) startOffset 0 endOffset 3 width 27.00: "HIT"
      RenderSVGPath {rect} at (328,429) size 50x50 [x=328.00] [y=429.00] [width=50.00] [height=50.00]
      RenderSVGText {text} at (333,434) size 27x19 contains 1 chunk(s)
        RenderSVGInlineText {#text} at (0,0) size 27x19
          chunk 1 text run 1 at (333.00,449.00) startOffset 0 endOffset 3 width 27.00: "HIT"
      RenderSVGText {text} at (333,454) size 27x19 contains 1 chunk(s)
        RenderSVGInlineText {#text} at (0,0) size 27x19
          chunk 1 text run 1 at (333.00,469.00) startOffset 0 endOffset 3 width 27.00: "HIT"
      RenderSVGPath {rect} at (382,426) size 56x56 [stroke={[type=SOLID] [color=#0000FF] [stroke width=6.00]}] [x=385.00] [y=429.00] [width=50.00] [height=50.00]
      RenderSVGText {text} at (390,434) size 27x19 contains 1 chunk(s)
        RenderSVGInlineText {#text} at (0,0) size 27x19
          chunk 1 text run 1 at (390.00,449.00) startOffset 0 endOffset 3 width 27.00: "HIT"
      RenderSVGText {text} at (390,454) size 27x19 contains 1 chunk(s)
        RenderSVGInlineText {#text} at (0,0) size 27x19
          chunk 1 text run 1 at (390.00,469.00) startOffset 0 endOffset 3 width 27.00: "HIT"
      RenderSVGPath {rect} at (442,429) size 50x50 [fill={[type=SOLID] [color=#FFA500]}] [x=442.00] [y=429.00] [width=50.00] [height=50.00]
      RenderSVGText {text} at (447,434) size 27x19 contains 1 chunk(s)
        RenderSVGInlineText {#text} at (0,0) size 27x19
          chunk 1 text run 1 at (447.00,449.00) startOffset 0 endOffset 3 width 27.00: "HIT"
      RenderSVGText {text} at (447,454) size 27x19 contains 1 chunk(s)
        RenderSVGInlineText {#text} at (0,0) size 27x19
          chunk 1 text run 1 at (447.00,469.00) startOffset 0 endOffset 3 width 27.00: "HIT"
      RenderSVGPath {rect} at (496,426) size 56x56 [stroke={[type=SOLID] [color=#0000FF] [stroke width=6.00]}] [fill={[type=SOLID] [color=#FFA500]}] [x=499.00] [y=429.00] [width=50.00] [height=50.00]
      RenderSVGText {text} at (504,434) size 27x19 contains 1 chunk(s)
        RenderSVGInlineText {#text} at (0,0) size 27x19
          chunk 1 text run 1 at (504.00,449.00) startOffset 0 endOffset 3 width 27.00: "HIT"
      RenderSVGText {text} at (504,454) size 27x19 contains 1 chunk(s)
        RenderSVGInlineText {#text} at (0,0) size 27x19
          chunk 1 text run 1 at (504.00,469.00) startOffset 0 endOffset 3 width 27.00: "HIT"
      RenderSVGText {text} at (0,501) size 15x19 contains 1 chunk(s)
        RenderSVGInlineText {#text} at (0,0) size 15x19
          chunk 1 text run 1 at (0.00,516.00) startOffset 0 endOffset 3 width 15.00: "all"
      RenderSVGPath {rect} at (100,486) size 50x50 [x=100.00] [y=486.00] [width=50.00] [height=50.00]
      RenderSVGText {text} at (105,491) size 27x19 contains 1 chunk(s)
        RenderSVGInlineText {#text} at (0,0) size 27x19
          chunk 1 text run 1 at (105.00,506.00) startOffset 0 endOffset 3 width 27.00: "HIT"
      RenderSVGText {text} at (105,511) size 27x19 contains 1 chunk(s)
        RenderSVGInlineText {#text} at (0,0) size 27x19
          chunk 1 text run 1 at (105.00,526.00) startOffset 0 endOffset 3 width 27.00: "HIT"
      RenderSVGPath {rect} at (154,483) size 56x56 [stroke={[type=SOLID] [color=#0000FF] [stroke width=6.00]}] [x=157.00] [y=486.00] [width=50.00] [height=50.00]
      RenderSVGText {text} at (162,491) size 27x19 contains 1 chunk(s)
        RenderSVGInlineText {#text} at (0,0) size 27x19
          chunk 1 text run 1 at (162.00,506.00) startOffset 0 endOffset 3 width 27.00: "HIT"
      RenderSVGText {text} at (162,511) size 27x19 contains 1 chunk(s)
        RenderSVGInlineText {#text} at (0,0) size 27x19
          chunk 1 text run 1 at (162.00,526.00) startOffset 0 endOffset 3 width 27.00: "HIT"
      RenderSVGPath {rect} at (214,486) size 50x50 [fill={[type=SOLID] [color=#FFA500]}] [x=214.00] [y=486.00] [width=50.00] [height=50.00]
      RenderSVGText {text} at (219,491) size 27x19 contains 1 chunk(s)
        RenderSVGInlineText {#text} at (0,0) size 27x19
          chunk 1 text run 1 at (219.00,506.00) startOffset 0 endOffset 3 width 27.00: "HIT"
      RenderSVGText {text} at (219,511) size 27x19 contains 1 chunk(s)
        RenderSVGInlineText {#text} at (0,0) size 27x19
          chunk 1 text run 1 at (219.00,526.00) startOffset 0 endOffset 3 width 27.00: "HIT"
      RenderSVGPath {rect} at (268,483) size 56x56 [stroke={[type=SOLID] [color=#0000FF] [stroke width=6.00]}] [fill={[type=SOLID] [color=#FFA500]}] [x=271.00] [y=486.00] [width=50.00] [height=50.00]
      RenderSVGText {text} at (276,491) size 27x19 contains 1 chunk(s)
        RenderSVGInlineText {#text} at (0,0) size 27x19
          chunk 1 text run 1 at (276.00,506.00) startOffset 0 endOffset 3 width 27.00: "HIT"
      RenderSVGText {text} at (276,511) size 27x19 contains 1 chunk(s)
        RenderSVGInlineText {#text} at (0,0) size 27x19
          chunk 1 text run 1 at (276.00,526.00) startOffset 0 endOffset 3 width 27.00: "HIT"
      RenderSVGPath {rect} at (328,486) size 50x50 [x=328.00] [y=486.00] [width=50.00] [height=50.00]
      RenderSVGText {text} at (333,491) size 27x19 contains 1 chunk(s)
        RenderSVGInlineText {#text} at (0,0) size 27x19
          chunk 1 text run 1 at (333.00,506.00) startOffset 0 endOffset 3 width 27.00: "HIT"
      RenderSVGText {text} at (333,511) size 27x19 contains 1 chunk(s)
        RenderSVGInlineText {#text} at (0,0) size 27x19
          chunk 1 text run 1 at (333.00,526.00) startOffset 0 endOffset 3 width 27.00: "HIT"
      RenderSVGPath {rect} at (382,483) size 56x56 [stroke={[type=SOLID] [color=#0000FF] [stroke width=6.00]}] [x=385.00] [y=486.00] [width=50.00] [height=50.00]
      RenderSVGText {text} at (390,491) size 27x19 contains 1 chunk(s)
        RenderSVGInlineText {#text} at (0,0) size 27x19
          chunk 1 text run 1 at (390.00,506.00) startOffset 0 endOffset 3 width 27.00: "HIT"
      RenderSVGText {text} at (390,511) size 27x19 contains 1 chunk(s)
        RenderSVGInlineText {#text} at (0,0) size 27x19
          chunk 1 text run 1 at (390.00,526.00) startOffset 0 endOffset 3 width 27.00: "HIT"
      RenderSVGPath {rect} at (442,486) size 50x50 [fill={[type=SOLID] [color=#FFA500]}] [x=442.00] [y=486.00] [width=50.00] [height=50.00]
      RenderSVGText {text} at (447,491) size 27x19 contains 1 chunk(s)
        RenderSVGInlineText {#text} at (0,0) size 27x19
          chunk 1 text run 1 at (447.00,506.00) startOffset 0 endOffset 3 width 27.00: "HIT"
      RenderSVGText {text} at (447,511) size 27x19 contains 1 chunk(s)
        RenderSVGInlineText {#text} at (0,0) size 27x19
          chunk 1 text run 1 at (447.00,526.00) startOffset 0 endOffset 3 width 27.00: "HIT"
      RenderSVGPath {rect} at (496,483) size 56x56 [stroke={[type=SOLID] [color=#0000FF] [stroke width=6.00]}] [fill={[type=SOLID] [color=#FFA500]}] [x=499.00] [y=486.00] [width=50.00] [height=50.00]
      RenderSVGText {text} at (504,491) size 27x19 contains 1 chunk(s)
        RenderSVGInlineText {#text} at (0,0) size 27x19
          chunk 1 text run 1 at (504.00,506.00) startOffset 0 endOffset 3 width 27.00: "HIT"
      RenderSVGText {text} at (504,511) size 27x19 contains 1 chunk(s)
        RenderSVGInlineText {#text} at (0,0) size 27x19
          chunk 1 text run 1 at (504.00,526.00) startOffset 0 endOffset 3 width 27.00: "HIT"
      RenderSVGText {text} at (0,558) size 31x19 contains 1 chunk(s)
        RenderSVGInlineText {#text} at (0,0) size 31x19
          chunk 1 text run 1 at (0.00,573.00) startOffset 0 endOffset 4 width 31.00: "none"
      RenderSVGPath {rect} at (100,543) size 50x50 [x=100.00] [y=543.00] [width=50.00] [height=50.00]
      RenderSVGText {text} at (105,548) size 28x19 contains 1 chunk(s)
        RenderSVGInlineText {#text} at (0,0) size 28x19
          chunk 1 text run 1 at (105.00,563.00) startOffset 0 endOffset 4 width 28.00: "miss"
      RenderSVGText {text} at (105,568) size 28x19 contains 1 chunk(s)
        RenderSVGInlineText {#text} at (0,0) size 28x19
          chunk 1 text run 1 at (105.00,583.00) startOffset 0 endOffset 4 width 28.00: "miss"
      RenderSVGPath {rect} at (154,540) size 56x56 [stroke={[type=SOLID] [color=#0000FF] [stroke width=6.00]}] [x=157.00] [y=543.00] [width=50.00] [height=50.00]
      RenderSVGText {text} at (162,548) size 28x19 contains 1 chunk(s)
        RenderSVGInlineText {#text} at (0,0) size 28x19
          chunk 1 text run 1 at (162.00,563.00) startOffset 0 endOffset 4 width 28.00: "miss"
      RenderSVGText {text} at (162,568) size 28x19 contains 1 chunk(s)
        RenderSVGInlineText {#text} at (0,0) size 28x19
          chunk 1 text run 1 at (162.00,583.00) startOffset 0 endOffset 4 width 28.00: "miss"
      RenderSVGPath {rect} at (214,543) size 50x50 [fill={[type=SOLID] [color=#FFA500]}] [x=214.00] [y=543.00] [width=50.00] [height=50.00]
      RenderSVGText {text} at (219,548) size 28x19 contains 1 chunk(s)
        RenderSVGInlineText {#text} at (0,0) size 28x19
          chunk 1 text run 1 at (219.00,563.00) startOffset 0 endOffset 4 width 28.00: "miss"
      RenderSVGText {text} at (219,568) size 28x19 contains 1 chunk(s)
        RenderSVGInlineText {#text} at (0,0) size 28x19
          chunk 1 text run 1 at (219.00,583.00) startOffset 0 endOffset 4 width 28.00: "miss"
      RenderSVGPath {rect} at (268,540) size 56x56 [stroke={[type=SOLID] [color=#0000FF] [stroke width=6.00]}] [fill={[type=SOLID] [color=#FFA500]}] [x=271.00] [y=543.00] [width=50.00] [height=50.00]
      RenderSVGText {text} at (276,548) size 28x19 contains 1 chunk(s)
        RenderSVGInlineText {#text} at (0,0) size 28x19
          chunk 1 text run 1 at (276.00,563.00) startOffset 0 endOffset 4 width 28.00: "miss"
      RenderSVGText {text} at (276,568) size 28x19 contains 1 chunk(s)
        RenderSVGInlineText {#text} at (0,0) size 28x19
          chunk 1 text run 1 at (276.00,583.00) startOffset 0 endOffset 4 width 28.00: "miss"
      RenderSVGPath {rect} at (328,543) size 50x50 [x=328.00] [y=543.00] [width=50.00] [height=50.00]
      RenderSVGText {text} at (333,548) size 28x19 contains 1 chunk(s)
        RenderSVGInlineText {#text} at (0,0) size 28x19
          chunk 1 text run 1 at (333.00,563.00) startOffset 0 endOffset 4 width 28.00: "miss"
      RenderSVGText {text} at (333,568) size 28x19 contains 1 chunk(s)
        RenderSVGInlineText {#text} at (0,0) size 28x19
          chunk 1 text run 1 at (333.00,583.00) startOffset 0 endOffset 4 width 28.00: "miss"
      RenderSVGPath {rect} at (382,540) size 56x56 [stroke={[type=SOLID] [color=#0000FF] [stroke width=6.00]}] [x=385.00] [y=543.00] [width=50.00] [height=50.00]
      RenderSVGText {text} at (390,548) size 28x19 contains 1 chunk(s)
        RenderSVGInlineText {#text} at (0,0) size 28x19
          chunk 1 text run 1 at (390.00,563.00) startOffset 0 endOffset 4 width 28.00: "miss"
      RenderSVGText {text} at (390,568) size 28x19 contains 1 chunk(s)
        RenderSVGInlineText {#text} at (0,0) size 28x19
          chunk 1 text run 1 at (390.00,583.00) startOffset 0 endOffset 4 width 28.00: "miss"
      RenderSVGPath {rect} at (442,543) size 50x50 [fill={[type=SOLID] [color=#FFA500]}] [x=442.00] [y=543.00] [width=50.00] [height=50.00]
      RenderSVGText {text} at (447,548) size 28x19 contains 1 chunk(s)
        RenderSVGInlineText {#text} at (0,0) size 28x19
          chunk 1 text run 1 at (447.00,563.00) startOffset 0 endOffset 4 width 28.00: "miss"
      RenderSVGText {text} at (447,568) size 28x19 contains 1 chunk(s)
        RenderSVGInlineText {#text} at (0,0) size 28x19
          chunk 1 text run 1 at (447.00,583.00) startOffset 0 endOffset 4 width 28.00: "miss"
      RenderSVGPath {rect} at (496,540) size 56x56 [stroke={[type=SOLID] [color=#0000FF] [stroke width=6.00]}] [fill={[type=SOLID] [color=#FFA500]}] [x=499.00] [y=543.00] [width=50.00] [height=50.00]
      RenderSVGText {text} at (504,548) size 28x19 contains 1 chunk(s)
        RenderSVGInlineText {#text} at (0,0) size 28x19
          chunk 1 text run 1 at (504.00,563.00) startOffset 0 endOffset 4 width 28.00: "miss"
      RenderSVGText {text} at (504,568) size 28x19 contains 1 chunk(s)
        RenderSVGInlineText {#text} at (0,0) size 28x19
          chunk 1 text run 1 at (504.00,583.00) startOffset 0 endOffset 4 width 28.00: "miss"
