layer at (0,0) size 800x600
  RenderView at (0,0) size 800x600
layer at (0,0) size 500x155 layerType: background only
layer at (0,0) size 281x75
  RenderBlock (positioned) zI: -1 {div} at (0,0) size 281x75 [bgcolor=#FF0000]
layer at (0,0) size 500x155 layerType: foreground only
  RenderBlock {html} at (0,0) size 500x155
    RenderBody {body} at (0,0) size 500x155
      RenderBlock {p} at (0,0) size 500x155
        RenderEmbeddedObject {object} at (0,0) size 375x150
          layer at (0,0) size 375x150
            RenderView at (0,0) size 375x150
          layer at (0,0) size 375x75
            RenderSVGRoot {svg} at (0,0) size 282x75
              RenderSVGPath {rect} at (0,0) size 282x75 [fill={[type=SOLID] [color=#ADD8E6]}] [x=0.00] [y=0.00] [width=281.25] [height=75.00]
              RenderSVGPath {rect} at (14,3) size 254x69 [fill={[type=SOLID] [color=#008000]}] [x=14.06] [y=3.75] [width=253.12] [height=67.50]
layer at (0,80) size 281x75
  RenderSVGRoot {svg} at (0,80) size 281x75
    RenderSVGPath {rect} at (0,80) size 281x75 [fill={[type=SOLID] [color=#ADD8E6]}] [x=0.00] [y=0.00] [width=100.00] [height=100.00]
    RenderSVGPath {rect} at (14,83) size 253x69 [fill={[type=SOLID] [color=#008000]}] [x=5.00] [y=5.00] [width=90.00] [height=90.00]
