layer at (0,0) size 784x584
  RenderView at (0,0) size 784x584
layer at (0,0) size 784x114
  RenderBlock {HTML} at (0,0) size 784x114
layer at (8,8) size 768x98 clip at (8,8) size 752x82
  RenderBody {BODY} at (8,8) size 768x98
    RenderBlock {P} at (0,16) size 752x22
      RenderText {#text} at (0,0) size 579x22
        text run at (0,0) width 579: "Test passes if there is no white space between the blue box below and the orange lines."
    RenderBlock {DIV} at (0,54) size 96x28 [border: (3px solid #FFA500) none (3px solid #FFA500) none]
      RenderBlock {DIV} at (0,3) size 96x22 [bgcolor=#0000FF]
        RenderText {#text} at (0,0) size 71x22
          text run at (0,0) width 71: "Filler Text"
