layer at (0,0) size 800x600
  RenderView at (0,0) size 800x600
layer at (0,0) size 800x600
  RenderSVGRoot {svg} at (0,0) size 105x105
    RenderSVGPath {rect} at (0,0) size 105x105 [stroke={[type=SOLID] [color=#008000] [stroke width=10.00] [dash array={10.00, 10.00}]}] [x=0.00] [y=0.00] [width=100.00] [height=100.00]
