layer at (0,0) size 785x1716
  RenderView at (0,0) size 785x600
layer at (0,0) size 785x1716
  RenderBlock {HTML} at (0,0) size 785x1716
    RenderBody {BODY} at (0,0) size 785x1716
      RenderPartObject {IFRAME} at (0,0) size 785x881
        layer at (0,0) size 785x881
          RenderView at (0,0) size 785x881
        layer at (0,0) size 785x881
          RenderBlock {HTML} at (0,0) size 785x881
            RenderBody {BODY} at (0,5) size 785x876
              RenderBlock {DIV} at (0,0) size 785x20
                RenderText {#text} at (0,0) size 190x19
                  text run at (0,0) width 190: "CompatMode: CSS1Compat"
              RenderBlock (anonymous) at (0,25) size 785x851
                RenderBlock {DIV} at (0,32) size 187x64 [border: (1px solid #0000FF)]
                  RenderBlock {SPAN} at (1,13) size 80x0
                  RenderBR {BR} at (81,1) size 0x15
                RenderBlock {DIV} at (187,32) size 187x64 [border: (1px solid #0000FF)]
                  RenderBlock {SPAN} at (1,1) size 80x16
                    RenderText {#text} at (0,0) size 77x15
                      text run at (0,0) width 77: "disabled: \"true\","
                  RenderBR {BR} at (81,1) size 0x15
                RenderBlock {DIV} at (374,0) size 203x96 [border: (1px solid #0000FF)]
                  RenderBlock {SPAN} at (1,1) size 80x32
                    RenderText {#text} at (0,0) size 78x31
                      text run at (0,0) width 27: "style:"
                      text run at (0,16) width 78: "\"padding:10px\","
                  RenderBR {BR} at (81,17) size 0x15
                RenderBlock {DIV} at (577,20) size 183x76 [border: (1px solid #0000FF)]
                  RenderBlock {SPAN} at (1,1) size 80x32
                    RenderText {#text} at (0,0) size 72x31
                      text run at (0,0) width 27: "style:"
                      text run at (0,16) width 72: "\"padding:0px\","
                  RenderBR {BR} at (81,17) size 0x15
                RenderBlock {DIV} at (0,132) size 203x96 [border: (1px solid #0000FF)]
                  RenderBlock {SPAN} at (1,1) size 80x32
                    RenderText {#text} at (0,0) size 72x31
                      text run at (0,0) width 27: "style:"
                      text run at (0,16) width 72: "\"margin:10px\","
                  RenderBR {BR} at (81,17) size 0x15
                RenderBlock {DIV} at (203,152) size 183x76 [border: (1px solid #0000FF)]
                  RenderBlock {SPAN} at (1,1) size 80x32
                    RenderText {#text} at (0,0) size 66x31
                      text run at (0,0) width 27: "style:"
                      text run at (0,16) width 66: "\"margin:0px\","
                  RenderBR {BR} at (81,17) size 0x15
                RenderBlock {DIV} at (386,148) size 82x80 [border: (1px solid #0000FF)]
                  RenderBlock {SPAN} at (1,1) size 80x32
                    RenderText {#text} at (0,0) size 68x31
                      text run at (0,0) width 27: "style:"
                      text run at (0,16) width 68: "\"width:60px\","
                  RenderBR {BR} at (81,17) size 0x15
                RenderBlock {DIV} at (468,96) size 104x132 [border: (1px solid #0000FF)]
                  RenderBlock {SPAN} at (1,1) size 80x48
                    RenderText {#text} at (0,0) size 73x47
                      text run at (0,0) width 27: "style:"
                      text run at (0,16) width 63: "\"width:60px;"
                      text run at (0,32) width 73: "padding:20px\","
                  RenderBR {BR} at (81,33) size 0x15
                RenderBlock {DIV} at (572,136) size 82x92 [border: (1px solid #0000FF)]
                  RenderBlock {SPAN} at (1,1) size 80x48
                    RenderText {#text} at (0,0) size 63x47
                      text run at (0,0) width 27: "style:"
                      text run at (0,16) width 63: "\"width:60px;"
                      text run at (0,32) width 55: "padding:0\","
                  RenderBR {BR} at (81,33) size 0x15
                RenderBlock {DIV} at (0,260) size 187x104 [border: (1px solid #0000FF)]
                  RenderBlock {SPAN} at (1,1) size 80x32
                    RenderText {#text} at (0,0) size 69x31
                      text run at (0,0) width 27: "style:"
                      text run at (0,16) width 69: "\"height:60px\","
                  RenderBR {BR} at (81,17) size 0x15
                RenderBlock {DIV} at (187,244) size 82x120 [border: (1px solid #0000FF)]
                  RenderBlock {SPAN} at (1,1) size 80x48
                    RenderText {#text} at (0,0) size 64x47
                      text run at (0,0) width 27: "style:"
                      text run at (0,16) width 63: "\"width:60px;"
                      text run at (0,32) width 64: "height:60px\","
                  RenderBR {BR} at (81,33) size 0x15
                RenderBlock {DIV} at (269,284) size 187x80 [border: (1px solid #0000FF)]
                  RenderBlock {SPAN} at (1,1) size 80x32
                    RenderText {#text} at (0,0) size 91x31
                      text run at (0,0) width 27: "style:"
                      text run at (0,16) width 91: "\"overflow:hidden\","
                  RenderBR {BR} at (81,17) size 0x15
                RenderBlock {DIV} at (456,269) size 187x95 [border: (1px solid #0000FF)]
                  RenderBlock {SPAN} at (1,1) size 80x32
                    RenderText {#text} at (0,0) size 85x31
                      text run at (0,0) width 27: "style:"
                      text run at (0,16) width 85: "\"overflow:scroll\","
                  RenderBR {BR} at (81,17) size 0x15
                RenderBlock {DIV} at (643,228) size 82x136 [border: (1px solid #0000FF)]
                  RenderBlock {SPAN} at (1,1) size 80x64
                    RenderText {#text} at (0,0) size 86x63
                      text run at (0,0) width 27: "style:"
                      text run at (0,16) width 86: "\"overflow:hidden;"
                      text run at (0,32) width 58: "width:60px;"
                      text run at (0,48) width 64: "height:60px\","
                  RenderBR {BR} at (81,49) size 0x15
                RenderBlock {DIV} at (0,364) size 82x136 [border: (1px solid #0000FF)]
                  RenderBlock {SPAN} at (1,1) size 80x64
                    RenderText {#text} at (0,0) size 80x63
                      text run at (0,0) width 27: "style:"
                      text run at (0,16) width 80: "\"overflow:scroll;"
                      text run at (0,32) width 58: "width:60px;"
                      text run at (0,48) width 64: "height:60px\","
                  RenderBR {BR} at (81,49) size 0x15
                RenderBlock {DIV} at (82,380) size 82x120 [border: (1px solid #0000FF)]
                  RenderBlock {SPAN} at (1,1) size 80x48
                    RenderText {#text} at (0,0) size 74x47
                      text run at (0,0) width 74: "cols: \"5\", style:"
                      text run at (0,16) width 63: "\"width:60px;"
                      text run at (0,32) width 64: "height:60px\","
                  RenderBR {BR} at (81,33) size 0x15
                RenderBlock {DIV} at (164,380) size 82x120 [border: (1px solid #0000FF)]
                  RenderBlock {SPAN} at (1,1) size 80x48
                    RenderText {#text} at (0,0) size 79x47
                      text run at (0,0) width 79: "rows: \"4\", style:"
                      text run at (0,16) width 63: "\"width:60px;"
                      text run at (0,32) width 64: "height:60px\","
                  RenderBR {BR} at (81,33) size 0x15
                RenderBlock {DIV} at (246,364) size 82x136 [border: (1px solid #0000FF)]
                  RenderBlock {SPAN} at (1,1) size 80x64
                    RenderText {#text} at (0,0) size 74x63
                      text run at (0,0) width 74: "cols: \"5\", rows:"
                      text run at (0,16) width 49: "\"4\", style:"
                      text run at (0,32) width 63: "\"width:60px;"
                      text run at (0,48) width 64: "height:60px\","
                  RenderBR {BR} at (81,49) size 0x15
                RenderBlock {DIV} at (328,436) size 82x64 [border: (1px solid #0000FF)]
                  RenderBlock {SPAN} at (1,1) size 80x16
                    RenderText {#text} at (0,0) size 44x15
                      text run at (0,0) width 44: "cols: \"3\","
                  RenderBR {BR} at (81,1) size 0x15
                RenderBlock {DIV} at (410,420) size 187x80 [border: (1px solid #0000FF)]
                  RenderBlock {SPAN} at (1,1) size 80x16
                    RenderText {#text} at (0,0) size 49x15
                      text run at (0,0) width 49: "rows: \"3\","
                  RenderBR {BR} at (81,1) size 0x15
                RenderBlock {DIV} at (597,436) size 83x64 [border: (1px solid #0000FF)]
                  RenderBlock {SPAN} at (1,1) size 80x16
                    RenderText {#text} at (0,0) size 44x15
                      text run at (0,0) width 44: "cols: \"7\","
                  RenderBR {BR} at (81,1) size 0x15
                RenderBlock {DIV} at (0,500) size 187x144 [border: (1px solid #0000FF)]
                  RenderBlock {SPAN} at (1,1) size 80x16
                    RenderText {#text} at (0,0) size 49x15
                      text run at (0,0) width 49: "rows: \"7\","
                  RenderBR {BR} at (81,1) size 0x15
                RenderBlock {DIV} at (187,532) size 82x112 [border: (1px solid #0000FF)]
                  RenderBlock {SPAN} at (1,1) size 80x32
                    RenderText {#text} at (0,0) size 74x31
                      text run at (0,0) width 74: "cols: \"5\", rows:"
                      text run at (0,16) width 19: "\"4\","
                  RenderBR {BR} at (81,17) size 0x15
                RenderBlock {DIV} at (269,565) size 187x79 [border: (1px solid #0000FF)]
                  RenderBlock {SPAN} at (1,1) size 80x16
                    RenderText {#text} at (0,0) size 58x15
                      text run at (0,0) width 58: "wrap: \"off\","
                  RenderBR {BR} at (81,1) size 0x15
                RenderBlock {DIV} at (456,580) size 187x64 [border: (1px solid #0000FF)]
                  RenderBlock {SPAN} at (1,1) size 80x16
                    RenderText {#text} at (0,0) size 65x15
                      text run at (0,0) width 65: "wrap: \"hard\","
                  RenderBR {BR} at (81,1) size 0x15
                RenderBlock {DIV} at (0,660) size 187x64 [border: (1px solid #0000FF)]
                  RenderBlock {SPAN} at (1,1) size 80x16
                    RenderText {#text} at (0,0) size 63x15
                      text run at (0,0) width 63: "wrap: \"soft\","
                  RenderBR {BR} at (81,1) size 0x15
                RenderBlock {DIV} at (187,644) size 187x80 [border: (1px solid #0000FF)]
                  RenderBlock {SPAN} at (1,1) size 80x32
                    RenderText {#text} at (0,0) size 71x31
                      text run at (0,0) width 66: "style: \"white-"
                      text run at (0,16) width 71: "space:normal\","
                  RenderBR {BR} at (81,17) size 0x15
                RenderBlock {DIV} at (374,644) size 187x80 [border: (1px solid #0000FF)]
                  RenderBlock {SPAN} at (1,1) size 80x32
                    RenderText {#text} at (0,0) size 66x31
                      text run at (0,0) width 66: "style: \"white-"
                      text run at (0,16) width 54: "space:pre\","
                  RenderBR {BR} at (81,17) size 0x15
                RenderBlock {DIV} at (561,644) size 187x80 [border: (1px solid #0000FF)]
                  RenderBlock {SPAN} at (1,1) size 80x32
                    RenderText {#text} at (0,0) size 79x31
                      text run at (0,0) width 66: "style: \"white-"
                      text run at (0,16) width 79: "space:prewrap\","
                  RenderBR {BR} at (81,17) size 0x15
                RenderBlock {DIV} at (0,771) size 187x80 [border: (1px solid #0000FF)]
                  RenderBlock {SPAN} at (1,1) size 80x32
                    RenderText {#text} at (0,0) size 75x31
                      text run at (0,0) width 66: "style: \"white-"
                      text run at (0,16) width 75: "space:nowrap\","
                  RenderBR {BR} at (81,17) size 0x15
                RenderBlock {DIV} at (187,771) size 187x80 [border: (1px solid #0000FF)]
                  RenderBlock {SPAN} at (1,1) size 80x32
                    RenderText {#text} at (0,0) size 75x31
                      text run at (0,0) width 66: "style: \"white-"
                      text run at (0,16) width 75: "space:pre-line\","
                  RenderBR {BR} at (81,17) size 0x15
                RenderBlock {DIV} at (374,756) size 187x95 [border: (1px solid #0000FF)]
                  RenderBlock {SPAN} at (1,1) size 80x32
                    RenderText {#text} at (0,0) size 69x31
                      text run at (0,0) width 64: "style: \"word-"
                      text run at (0,16) width 69: "wrap:normal\","
                  RenderBR {BR} at (81,17) size 0x15
                RenderBlock {DIV} at (561,724) size 187x127 [border: (1px solid #0000FF)]
                  RenderBlock {SPAN} at (1,1) size 80x64
                    RenderText {#text} at (0,0) size 66x63
                      text run at (0,0) width 58: "wrap: \"off\","
                      text run at (0,16) width 66: "style: \"white-"
                      text run at (0,32) width 50: "space:pre-"
                      text run at (0,48) width 33: "wrap\","
                  RenderBR {BR} at (81,49) size 0x15
        layer at (3,81) size 181x38 clip at (4,82) size 179x36
          RenderTextControl {TEXTAREA} at (3,19) size 181x38 [bgcolor=#FFFFFF] [border: (1px solid #000000)]
            RenderBlock {DIV} at (3,3) size 175x16
              RenderText {#text} at (0,0) size 136x16
                text run at (0,0) width 136: "Lorem ipsum dolor"
        layer at (190,81) size 181x38 clip at (191,82) size 164x36 scrollHeight 84
          RenderTextControl {TEXTAREA} at (3,19) size 181x38 [bgcolor=#EBEBE4] [border: (1px solid #000000)]
            RenderBlock {DIV} at (3,3) size 160x80 [color=#545454]
              RenderText {#text} at (0,0) size 160x80
                text run at (0,0) width 144: "Lorem ipsum  dolor"
                text run at (144,0) width 8: " "
                text run at (0,16) width 160: "ABCDEFGHIJKLMNOPQRST"
                text run at (0,32) width 48: "UVWXYZ"
                text run at (48,32) width 8: " "
                text run at (0,48) width 160: "abcdefghijklmnopqrst"
                text run at (0,64) width 16: "uv"
        layer at (377,65) size 197x54 clip at (378,66) size 180x52 scrollHeight 100
          RenderTextControl {TEXTAREA} at (3,35) size 197x54 [bgcolor=#FFFFFF] [border: (1px solid #000000)]
            RenderBlock {DIV} at (11,11) size 160x80
              RenderText {#text} at (0,0) size 160x80
                text run at (0,0) width 144: "Lorem ipsum  dolor"
                text run at (144,0) width 8: " "
                text run at (0,16) width 160: "ABCDEFGHIJKLMNOPQRST"
                text run at (0,32) width 48: "UVWXYZ"
                text run at (48,32) width 8: " "
                text run at (0,48) width 160: "abcdefghijklmnopqrst"
                text run at (0,64) width 16: "uv"
        layer at (580,85) size 177x34 clip at (581,86) size 160x32 scrollHeight 80
          RenderTextControl {TEXTAREA} at (3,35) size 177x34 [bgcolor=#FFFFFF] [border: (1px solid #000000)]
            RenderBlock {DIV} at (1,1) size 160x80
              RenderText {#text} at (0,0) size 160x80
                text run at (0,0) width 144: "Lorem ipsum  dolor"
                text run at (144,0) width 8: " "
                text run at (0,16) width 160: "ABCDEFGHIJKLMNOPQRST"
                text run at (0,32) width 48: "UVWXYZ"
                text run at (48,32) width 8: " "
                text run at (0,48) width 160: "abcdefghijklmnopqrst"
                text run at (0,64) width 16: "uv"
        layer at (11,205) size 181x38 clip at (12,206) size 164x36 scrollHeight 84
          RenderTextControl {TEXTAREA} at (11,43) size 181x38 [bgcolor=#FFFFFF] [border: (1px solid #000000)]
            RenderBlock {DIV} at (3,3) size 160x80
              RenderText {#text} at (0,0) size 160x80
                text run at (0,0) width 144: "Lorem ipsum  dolor"
                text run at (144,0) width 8: " "
                text run at (0,16) width 160: "ABCDEFGHIJKLMNOPQRST"
                text run at (0,32) width 48: "UVWXYZ"
                text run at (48,32) width 8: " "
                text run at (0,48) width 160: "abcdefghijklmnopqrst"
                text run at (0,64) width 16: "uv"
        layer at (204,215) size 181x38 clip at (205,216) size 164x36 scrollHeight 84
          RenderTextControl {TEXTAREA} at (1,33) size 181x38 [bgcolor=#FFFFFF] [border: (1px solid #000000)]
            RenderBlock {DIV} at (3,3) size 160x80
              RenderText {#text} at (0,0) size 160x80
                text run at (0,0) width 144: "Lorem ipsum  dolor"
                text run at (144,0) width 8: " "
                text run at (0,16) width 160: "ABCDEFGHIJKLMNOPQRST"
                text run at (0,32) width 48: "UVWXYZ"
                text run at (48,32) width 8: " "
                text run at (0,48) width 160: "abcdefghijklmnopqrst"
                text run at (0,64) width 16: "uv"
        layer at (387,213) size 66x38 clip at (388,214) size 49x36 scrollHeight 244
          RenderTextControl {TEXTAREA} at (1,35) size 66x38 [bgcolor=#FFFFFF] [border: (1px solid #000000)]
            RenderBlock {DIV} at (3,3) size 45x240
              RenderText {#text} at (0,0) size 45x240
                text run at (0,0) width 40: "Lorem"
                text run at (40,0) width 5: " "
                text run at (0,16) width 40: "ipsum"
                text run at (0,32) width 16: "  "
                text run at (0,48) width 40: "dolor"
                text run at (40,48) width 5: " "
                text run at (0,64) width 40: "ABCDE"
                text run at (0,80) width 40: "FGHIJ"
                text run at (0,96) width 40: "KLMNO"
                text run at (0,112) width 40: "PQRST"
                text run at (0,128) width 40: "UVWXY"
                text run at (0,144) width 8: "Z"
                text run at (8,144) width 8: " "
                text run at (0,160) width 40: "abcde"
                text run at (0,176) width 40: "fghij"
                text run at (0,192) width 40: "klmno"
                text run at (0,208) width 40: "pqrst"
                text run at (0,224) width 16: "uv"
        layer at (469,177) size 102x74 clip at (470,178) size 85x72 scrollHeight 280
          RenderTextControl {TEXTAREA} at (1,51) size 102x74 [bgcolor=#FFFFFF] [border: (1px solid #000000)]
            RenderBlock {DIV} at (21,21) size 45x240
              RenderText {#text} at (0,0) size 45x240
                text run at (0,0) width 40: "Lorem"
                text run at (40,0) width 5: " "
                text run at (0,16) width 40: "ipsum"
                text run at (0,32) width 16: "  "
                text run at (0,48) width 40: "dolor"
                text run at (40,48) width 5: " "
                text run at (0,64) width 40: "ABCDE"
                text run at (0,80) width 40: "FGHIJ"
                text run at (0,96) width 40: "KLMNO"
                text run at (0,112) width 40: "PQRST"
                text run at (0,128) width 40: "UVWXY"
                text run at (0,144) width 8: "Z"
                text run at (8,144) width 8: " "
                text run at (0,160) width 40: "abcde"
                text run at (0,176) width 40: "fghij"
                text run at (0,192) width 40: "klmno"
                text run at (0,208) width 40: "pqrst"
                text run at (0,224) width 16: "uv"
        layer at (573,217) size 62x34 clip at (574,218) size 45x32 scrollHeight 240
          RenderTextControl {TEXTAREA} at (1,51) size 62x34 [bgcolor=#FFFFFF] [border: (1px solid #000000)]
            RenderBlock {DIV} at (1,1) size 45x240
              RenderText {#text} at (0,0) size 45x240
                text run at (0,0) width 40: "Lorem"
                text run at (40,0) width 5: " "
                text run at (0,16) width 40: "ipsum"
                text run at (0,32) width 16: "  "
                text run at (0,48) width 40: "dolor"
                text run at (40,48) width 5: " "
                text run at (0,64) width 40: "ABCDE"
                text run at (0,80) width 40: "FGHIJ"
                text run at (0,96) width 40: "KLMNO"
                text run at (0,112) width 40: "PQRST"
                text run at (0,128) width 40: "UVWXY"
                text run at (0,144) width 8: "Z"
                text run at (8,144) width 8: " "
                text run at (0,160) width 40: "abcde"
                text run at (0,176) width 40: "fghij"
                text run at (0,192) width 40: "klmno"
                text run at (0,208) width 40: "pqrst"
                text run at (0,224) width 16: "uv"
        layer at (3,323) size 181x66 clip at (4,324) size 164x64 scrollHeight 84
          RenderTextControl {TEXTAREA} at (3,33) size 181x66 [bgcolor=#FFFFFF] [border: (1px solid #000000)]
            RenderBlock {DIV} at (3,3) size 160x80
              RenderText {#text} at (0,0) size 160x80
                text run at (0,0) width 144: "Lorem ipsum  dolor"
                text run at (144,0) width 8: " "
                text run at (0,16) width 160: "ABCDEFGHIJKLMNOPQRST"
                text run at (0,32) width 48: "UVWXYZ"
                text run at (48,32) width 8: " "
                text run at (0,48) width 160: "abcdefghijklmnopqrst"
                text run at (0,64) width 16: "uv"
        layer at (188,323) size 66x66 clip at (189,324) size 49x64 scrollHeight 244
          RenderTextControl {TEXTAREA} at (1,49) size 66x66 [bgcolor=#FFFFFF] [border: (1px solid #000000)]
            RenderBlock {DIV} at (3,3) size 45x240
              RenderText {#text} at (0,0) size 45x240
                text run at (0,0) width 40: "Lorem"
                text run at (40,0) width 5: " "
                text run at (0,16) width 40: "ipsum"
                text run at (0,32) width 16: "  "
                text run at (0,48) width 40: "dolor"
                text run at (40,48) width 5: " "
                text run at (0,64) width 40: "ABCDE"
                text run at (0,80) width 40: "FGHIJ"
                text run at (0,96) width 40: "KLMNO"
                text run at (0,112) width 40: "PQRST"
                text run at (0,128) width 40: "UVWXY"
                text run at (0,144) width 8: "Z"
                text run at (8,144) width 8: " "
                text run at (0,160) width 40: "abcde"
                text run at (0,176) width 40: "fghij"
                text run at (0,192) width 40: "klmno"
                text run at (0,208) width 40: "pqrst"
                text run at (0,224) width 16: "uv"
        layer at (272,349) size 181x38 clip at (273,350) size 179x36 scrollHeight 84
          RenderTextControl {TEXTAREA} at (3,35) size 181x38 [bgcolor=#FFFFFF] [border: (1px solid #000000)]
            RenderBlock {DIV} at (3,3) size 175x80
              RenderText {#text} at (0,0) size 168x80
                text run at (0,0) width 144: "Lorem ipsum  dolor"
                text run at (144,0) width 8: " "
                text run at (0,16) width 168: "ABCDEFGHIJKLMNOPQRSTU"
                text run at (0,32) width 40: "VWXYZ"
                text run at (40,32) width 8: " "
                text run at (0,48) width 168: "abcdefghijklmnopqrstu"
                text run at (0,64) width 8: "v"
        layer at (459,334) size 181x53 clip at (460,335) size 164x36 scrollHeight 84
          RenderTextControl {TEXTAREA} at (3,35) size 181x53 [bgcolor=#FFFFFF] [border: (1px solid #000000)]
            RenderBlock {DIV} at (3,3) size 160x80
              RenderText {#text} at (0,0) size 160x80
                text run at (0,0) width 144: "Lorem ipsum  dolor"
                text run at (144,0) width 8: " "
                text run at (0,16) width 160: "ABCDEFGHIJKLMNOPQRST"
                text run at (0,32) width 48: "UVWXYZ"
                text run at (48,32) width 8: " "
                text run at (0,48) width 160: "abcdefghijklmnopqrst"
                text run at (0,64) width 16: "uv"
        layer at (644,323) size 66x66 clip at (645,324) size 64x64 scrollHeight 180
          RenderTextControl {TEXTAREA} at (1,65) size 66x66 [bgcolor=#FFFFFF] [border: (1px solid #000000)]
            RenderBlock {DIV} at (3,3) size 60x176
              RenderText {#text} at (0,0) size 56x176
                text run at (0,0) width 40: "Lorem"
                text run at (40,0) width 8: " "
                text run at (0,16) width 40: "ipsum"
                text run at (40,16) width 16: "  "
                text run at (0,32) width 40: "dolor"
                text run at (40,32) width 8: " "
                text run at (0,48) width 56: "ABCDEFG"
                text run at (0,64) width 56: "HIJKLMN"
                text run at (0,80) width 56: "OPQRSTU"
                text run at (0,96) width 40: "VWXYZ"
                text run at (40,96) width 8: " "
                text run at (0,112) width 56: "abcdefg"
                text run at (0,128) width 56: "hijklmn"
                text run at (0,144) width 56: "opqrstu"
                text run at (0,160) width 8: "v"
        layer at (1,459) size 66x66 clip at (2,460) size 49x49 scrollHeight 244
          RenderTextControl {TEXTAREA} at (1,65) size 66x66 [bgcolor=#FFFFFF] [border: (1px solid #000000)]
            RenderBlock {DIV} at (3,3) size 45x240
              RenderText {#text} at (0,0) size 45x240
                text run at (0,0) width 40: "Lorem"
                text run at (40,0) width 5: " "
                text run at (0,16) width 40: "ipsum"
                text run at (0,32) width 16: "  "
                text run at (0,48) width 40: "dolor"
                text run at (40,48) width 5: " "
                text run at (0,64) width 40: "ABCDE"
                text run at (0,80) width 40: "FGHIJ"
                text run at (0,96) width 40: "KLMNO"
                text run at (0,112) width 40: "PQRST"
                text run at (0,128) width 40: "UVWXY"
                text run at (0,144) width 8: "Z"
                text run at (8,144) width 8: " "
                text run at (0,160) width 40: "abcde"
                text run at (0,176) width 40: "fghij"
                text run at (0,192) width 40: "klmno"
                text run at (0,208) width 40: "pqrst"
                text run at (0,224) width 16: "uv"
        layer at (83,459) size 66x66 clip at (84,460) size 49x64 scrollHeight 244
          RenderTextControl {TEXTAREA} at (1,49) size 66x66 [bgcolor=#FFFFFF] [border: (1px solid #000000)]
            RenderBlock {DIV} at (3,3) size 45x240
              RenderText {#text} at (0,0) size 45x240
                text run at (0,0) width 40: "Lorem"
                text run at (40,0) width 5: " "
                text run at (0,16) width 40: "ipsum"
                text run at (0,32) width 16: "  "
                text run at (0,48) width 40: "dolor"
                text run at (40,48) width 5: " "
                text run at (0,64) width 40: "ABCDE"
                text run at (0,80) width 40: "FGHIJ"
                text run at (0,96) width 40: "KLMNO"
                text run at (0,112) width 40: "PQRST"
                text run at (0,128) width 40: "UVWXY"
                text run at (0,144) width 8: "Z"
                text run at (8,144) width 8: " "
                text run at (0,160) width 40: "abcde"
                text run at (0,176) width 40: "fghij"
                text run at (0,192) width 40: "klmno"
                text run at (0,208) width 40: "pqrst"
                text run at (0,224) width 16: "uv"
        layer at (165,459) size 66x66 clip at (166,460) size 49x64 scrollHeight 244
          RenderTextControl {TEXTAREA} at (1,49) size 66x66 [bgcolor=#FFFFFF] [border: (1px solid #000000)]
            RenderBlock {DIV} at (3,3) size 45x240
              RenderText {#text} at (0,0) size 45x240
                text run at (0,0) width 40: "Lorem"
                text run at (40,0) width 5: " "
                text run at (0,16) width 40: "ipsum"
                text run at (0,32) width 16: "  "
                text run at (0,48) width 40: "dolor"
                text run at (40,48) width 5: " "
                text run at (0,64) width 40: "ABCDE"
                text run at (0,80) width 40: "FGHIJ"
                text run at (0,96) width 40: "KLMNO"
                text run at (0,112) width 40: "PQRST"
                text run at (0,128) width 40: "UVWXY"
                text run at (0,144) width 8: "Z"
                text run at (8,144) width 8: " "
                text run at (0,160) width 40: "abcde"
                text run at (0,176) width 40: "fghij"
                text run at (0,192) width 40: "klmno"
                text run at (0,208) width 40: "pqrst"
                text run at (0,224) width 16: "uv"
        layer at (247,459) size 66x66 clip at (248,460) size 49x64 scrollHeight 244
          RenderTextControl {TEXTAREA} at (1,65) size 66x66 [bgcolor=#FFFFFF] [border: (1px solid #000000)]
            RenderBlock {DIV} at (3,3) size 45x240
              RenderText {#text} at (0,0) size 45x240
                text run at (0,0) width 40: "Lorem"
                text run at (40,0) width 5: " "
                text run at (0,16) width 40: "ipsum"
                text run at (0,32) width 16: "  "
                text run at (0,48) width 40: "dolor"
                text run at (40,48) width 5: " "
                text run at (0,64) width 40: "ABCDE"
                text run at (0,80) width 40: "FGHIJ"
                text run at (0,96) width 40: "KLMNO"
                text run at (0,112) width 40: "PQRST"
                text run at (0,128) width 40: "UVWXY"
                text run at (0,144) width 8: "Z"
                text run at (8,144) width 8: " "
                text run at (0,160) width 40: "abcde"
                text run at (0,176) width 40: "fghij"
                text run at (0,192) width 40: "klmno"
                text run at (0,208) width 40: "pqrst"
                text run at (0,224) width 16: "uv"
        layer at (331,485) size 45x38 clip at (332,486) size 28x36 scrollHeight 372
          RenderTextControl {TEXTAREA} at (3,19) size 45x38 [bgcolor=#FFFFFF] [border: (1px solid #000000)]
            RenderBlock {DIV} at (3,3) size 24x368
              RenderText {#text} at (0,0) size 24x368
                text run at (0,0) width 24: "Lor"
                text run at (0,16) width 16: "em"
                text run at (16,16) width 8: " "
                text run at (0,32) width 24: "ips"
                text run at (0,48) width 16: "um"
                text run at (16,48) width 8: "  "
                text run at (0,64) width 24: "dol"
                text run at (0,80) width 16: "or"
                text run at (16,80) width 8: " "
                text run at (0,96) width 24: "ABC"
                text run at (0,112) width 24: "DEF"
                text run at (0,128) width 24: "GHI"
                text run at (0,144) width 24: "JKL"
                text run at (0,160) width 24: "MNO"
                text run at (0,176) width 24: "PQR"
                text run at (0,192) width 24: "STU"
                text run at (0,208) width 24: "VWX"
                text run at (0,224) width 16: "YZ"
                text run at (16,224) width 8: " "
                text run at (0,240) width 24: "abc"
                text run at (0,256) width 24: "def"
                text run at (0,272) width 24: "ghi"
                text run at (0,288) width 24: "jkl"
                text run at (0,304) width 24: "mno"
                text run at (0,320) width 24: "pqr"
                text run at (0,336) width 24: "stu"
                text run at (0,352) width 8: "v"
        layer at (413,469) size 181x54 clip at (414,470) size 164x52 scrollHeight 84
          RenderTextControl {TEXTAREA} at (3,19) size 181x54 [bgcolor=#FFFFFF] [border: (1px solid #000000)]
            RenderBlock {DIV} at (3,3) size 160x80
              RenderText {#text} at (0,0) size 160x80
                text run at (0,0) width 144: "Lorem ipsum  dolor"
                text run at (144,0) width 8: " "
                text run at (0,16) width 160: "ABCDEFGHIJKLMNOPQRST"
                text run at (0,32) width 48: "UVWXYZ"
                text run at (48,32) width 8: " "
                text run at (0,48) width 160: "abcdefghijklmnopqrst"
                text run at (0,64) width 16: "uv"
        layer at (600,485) size 77x38 clip at (601,486) size 60x36 scrollHeight 180
          RenderTextControl {TEXTAREA} at (3,19) size 77x38 [bgcolor=#FFFFFF] [border: (1px solid #000000)]
            RenderBlock {DIV} at (3,3) size 56x176
              RenderText {#text} at (0,0) size 56x176
                text run at (0,0) width 40: "Lorem"
                text run at (40,0) width 8: " "
                text run at (0,16) width 40: "ipsum"
                text run at (40,16) width 16: "  "
                text run at (0,32) width 40: "dolor"
                text run at (40,32) width 8: " "
                text run at (0,48) width 56: "ABCDEFG"
                text run at (0,64) width 56: "HIJKLMN"
                text run at (0,80) width 56: "OPQRSTU"
                text run at (0,96) width 40: "VWXYZ"
                text run at (40,96) width 8: " "
                text run at (0,112) width 56: "abcdefg"
                text run at (0,128) width 56: "hijklmn"
                text run at (0,144) width 56: "opqrstu"
                text run at (0,160) width 8: "v"
        layer at (3,549) size 181x118 clip at (4,550) size 179x116
          RenderTextControl {TEXTAREA} at (3,19) size 181x118 [bgcolor=#FFFFFF] [border: (1px solid #000000)]
            RenderBlock {DIV} at (3,3) size 175x80
              RenderText {#text} at (0,0) size 168x80
                text run at (0,0) width 144: "Lorem ipsum  dolor"
                text run at (144,0) width 8: " "
                text run at (0,16) width 168: "ABCDEFGHIJKLMNOPQRSTU"
                text run at (0,32) width 40: "VWXYZ"
                text run at (40,32) width 8: " "
                text run at (0,48) width 168: "abcdefghijklmnopqrstu"
                text run at (0,64) width 8: "v"
        layer at (190,597) size 61x70 clip at (191,598) size 44x68 scrollHeight 244
          RenderTextControl {TEXTAREA} at (3,35) size 61x70 [bgcolor=#FFFFFF] [border: (1px solid #000000)]
            RenderBlock {DIV} at (3,3) size 40x240
              RenderText {#text} at (0,0) size 40x240
                text run at (0,0) width 40: "Lorem"
                text run at (40,0) width 0: " "
                text run at (0,16) width 40: "ipsum"
                text run at (0,32) width 16: "  "
                text run at (0,48) width 40: "dolor"
                text run at (40,48) width 0: " "
                text run at (0,64) width 40: "ABCDE"
                text run at (0,80) width 40: "FGHIJ"
                text run at (0,96) width 40: "KLMNO"
                text run at (0,112) width 40: "PQRST"
                text run at (0,128) width 40: "UVWXY"
                text run at (0,144) width 8: "Z"
                text run at (8,144) width 8: " "
                text run at (0,160) width 40: "abcde"
                text run at (0,176) width 40: "fghij"
                text run at (0,192) width 40: "klmno"
                text run at (0,208) width 40: "pqrst"
                text run at (0,224) width 16: "uv"
        layer at (272,614) size 181x53 clip at (273,615) size 179x36 scrollWidth 546
          RenderTextControl {TEXTAREA} at (3,19) size 181x53 [bgcolor=#FFFFFF] [border: (1px solid #000000)]
            RenderBlock {DIV} at (3,3) size 175x16
              RenderText {#text} at (0,0) size 544x16
                text run at (0,0) width 544: "Lorem ipsum  dolor ABCDEFGHIJKLMNOPQRSTUVWXYZ abcdefghijklmnopqrstuv"
        layer at (459,629) size 181x38 clip at (460,630) size 164x36 scrollHeight 84
          RenderTextControl {TEXTAREA} at (3,19) size 181x38 [bgcolor=#FFFFFF] [border: (1px solid #000000)]
            RenderBlock {DIV} at (3,3) size 160x80
              RenderText {#text} at (0,0) size 160x80
                text run at (0,0) width 144: "Lorem ipsum  dolor"
                text run at (144,0) width 8: " "
                text run at (0,16) width 160: "ABCDEFGHIJKLMNOPQRST"
                text run at (0,32) width 48: "UVWXYZ"
                text run at (48,32) width 8: " "
                text run at (0,48) width 160: "abcdefghijklmnopqrst"
                text run at (0,64) width 16: "uv"
        layer at (3,709) size 181x38 clip at (4,710) size 164x36 scrollHeight 84
          RenderTextControl {TEXTAREA} at (3,19) size 181x38 [bgcolor=#FFFFFF] [border: (1px solid #000000)]
            RenderBlock {DIV} at (3,3) size 160x80
              RenderText {#text} at (0,0) size 160x80
                text run at (0,0) width 144: "Lorem ipsum  dolor"
                text run at (144,0) width 8: " "
                text run at (0,16) width 160: "ABCDEFGHIJKLMNOPQRST"
                text run at (0,32) width 48: "UVWXYZ"
                text run at (48,32) width 8: " "
                text run at (0,48) width 160: "abcdefghijklmnopqrst"
                text run at (0,64) width 16: "uv"
        layer at (190,709) size 181x38 clip at (191,710) size 164x36 scrollHeight 84
          RenderTextControl {TEXTAREA} at (3,35) size 181x38 [bgcolor=#FFFFFF] [border: (1px solid #000000)]
            RenderBlock {DIV} at (3,3) size 160x80
              RenderText {#text} at (0,0) size 160x80
                text run at (0,0) width 96: "Lorem ipsum "
                text run at (96,0) width 40: "dolor"
                text run at (0,16) width 160: "ABCDEFGHIJKLMNOPQRST"
                text run at (0,32) width 48: "UVWXYZ"
                text run at (0,48) width 160: "abcdefghijklmnopqrst"
                text run at (0,64) width 16: "uv"
        layer at (377,709) size 181x38 clip at (378,710) size 164x36 scrollHeight 68
          RenderTextControl {TEXTAREA} at (3,35) size 181x38 [bgcolor=#FFFFFF] [border: (1px solid #000000)]
            RenderBlock {DIV} at (3,3) size 160x64
              RenderText {#text} at (0,0) size 160x64
                text run at (0,0) width 160: "Lorem ipsum  dolor A"
                text run at (0,16) width 160: "BCDEFGHIJKLMNOPQRSTU"
                text run at (0,32) width 160: "VWXYZ abcdefghijklmn"
                text run at (0,48) width 64: "opqrstuv"
        layer at (564,709) size 181x38 clip at (565,710) size 164x36 scrollHeight 84
          RenderTextControl {TEXTAREA} at (3,35) size 181x38 [bgcolor=#FFFFFF] [border: (1px solid #000000)]
            RenderBlock {DIV} at (3,3) size 160x80
              RenderText {#text} at (0,0) size 160x80
                text run at (0,0) width 144: "Lorem ipsum  dolor"
                text run at (144,0) width 8: " "
                text run at (0,16) width 160: "ABCDEFGHIJKLMNOPQRST"
                text run at (0,32) width 48: "UVWXYZ"
                text run at (48,32) width 8: " "
                text run at (0,48) width 160: "abcdefghijklmnopqrst"
                text run at (0,64) width 16: "uv"
        layer at (3,836) size 181x38 clip at (4,837) size 179x21 scrollWidth 538
          RenderTextControl {TEXTAREA} at (3,35) size 181x38 [bgcolor=#FFFFFF] [border: (1px solid #000000)]
            RenderBlock {DIV} at (3,3) size 175x16
              RenderText {#text} at (0,0) size 536x16
                text run at (0,0) width 96: "Lorem ipsum "
                text run at (96,0) width 440: "dolor ABCDEFGHIJKLMNOPQRSTUVWXYZ abcdefghijklmnopqrstuv"
        layer at (190,836) size 181x38 clip at (191,837) size 164x36 scrollHeight 84
          RenderTextControl {TEXTAREA} at (3,35) size 181x38 [bgcolor=#FFFFFF] [border: (1px solid #000000)]
            RenderBlock {DIV} at (3,3) size 160x80
              RenderText {#text} at (0,0) size 160x80
                text run at (0,0) width 96: "Lorem ipsum "
                text run at (96,0) width 40: "dolor"
                text run at (0,16) width 160: "ABCDEFGHIJKLMNOPQRST"
                text run at (0,32) width 48: "UVWXYZ"
                text run at (0,48) width 160: "abcdefghijklmnopqrst"
                text run at (0,64) width 16: "uv"
        layer at (377,821) size 181x53 clip at (378,822) size 164x36 scrollWidth 210 scrollHeight 68
          RenderTextControl {TEXTAREA} at (3,35) size 181x53 [bgcolor=#FFFFFF] [border: (1px solid #000000)]
            RenderBlock {DIV} at (3,3) size 160x64
              RenderText {#text} at (0,0) size 208x64
                text run at (0,0) width 144: "Lorem ipsum  dolor"
                text run at (144,0) width 8: " "
                text run at (0,16) width 208: "ABCDEFGHIJKLMNOPQRSTUVWXYZ"
                text run at (0,32) width 8: " "
                text run at (0,48) width 176: "abcdefghijklmnopqrstuv"
        layer at (564,821) size 181x53 clip at (565,822) size 164x36 scrollWidth 210 scrollHeight 68
          RenderTextControl {TEXTAREA} at (3,67) size 181x53 [bgcolor=#FFFFFF] [border: (1px solid #000000)]
            RenderBlock {DIV} at (3,3) size 160x64
              RenderText {#text} at (0,0) size 208x64
                text run at (0,0) width 144: "Lorem ipsum  dolor"
                text run at (144,0) width 8: " "
                text run at (0,16) width 208: "ABCDEFGHIJKLMNOPQRSTUVWXYZ"
                text run at (0,32) width 8: " "
                text run at (0,48) width 176: "abcdefghijklmnopqrstuv"
      RenderPartObject {IFRAME} at (0,881) size 785x835
        layer at (0,0) size 785x835
          RenderView at (0,0) size 785x835
        layer at (0,0) size 785x835
          RenderBlock {HTML} at (0,0) size 785x835
            RenderBody {BODY} at (0,5) size 785x830
              RenderBlock {DIV} at (0,0) size 785x20
                RenderText {#text} at (0,0) size 188x19
                  text run at (0,0) width 188: "CompatMode: BackCompat"
              RenderBlock (anonymous) at (0,25) size 785x805
                RenderBlock {DIV} at (0,50) size 185x42 [border: (1px solid #0000FF)]
                  RenderBlock {SPAN} at (1,1) size 80x0
                  RenderBR {BR} at (81,1) size 0x0
                RenderBlock {DIV} at (185,34) size 185x58 [border: (1px solid #0000FF)]
                  RenderBlock {SPAN} at (1,1) size 80x16
                    RenderText {#text} at (0,0) size 77x15
                      text run at (0,0) width 77: "disabled: \"true\","
                  RenderBR {BR} at (81,13) size 0x0
                RenderBlock {DIV} at (370,0) size 203x92 [border: (1px solid #0000FF)]
                  RenderBlock {SPAN} at (1,1) size 80x32
                    RenderText {#text} at (0,0) size 78x31
                      text run at (0,0) width 27: "style:"
                      text run at (0,16) width 78: "\"padding:10px\","
                  RenderBR {BR} at (81,29) size 0x0
                RenderBlock {DIV} at (573,20) size 183x72 [border: (1px solid #0000FF)]
                  RenderBlock {SPAN} at (1,1) size 80x32
                    RenderText {#text} at (0,0) size 72x31
                      text run at (0,0) width 27: "style:"
                      text run at (0,16) width 72: "\"padding:0px\","
                  RenderBR {BR} at (81,29) size 0x0
                RenderBlock {DIV} at (0,130) size 201x90 [border: (1px solid #0000FF)]
                  RenderBlock {SPAN} at (1,1) size 80x32
                    RenderText {#text} at (0,0) size 72x31
                      text run at (0,0) width 27: "style:"
                      text run at (0,16) width 72: "\"margin:10px\","
                  RenderBR {BR} at (81,29) size 0x0
                RenderBlock {DIV} at (201,150) size 181x70 [border: (1px solid #0000FF)]
                  RenderBlock {SPAN} at (1,1) size 80x32
                    RenderText {#text} at (0,0) size 66x31
                      text run at (0,0) width 27: "style:"
                      text run at (0,16) width 66: "\"margin:0px\","
                  RenderBR {BR} at (81,29) size 0x0
                RenderBlock {DIV} at (382,146) size 82x74 [border: (1px solid #0000FF)]
                  RenderBlock {SPAN} at (1,1) size 80x32
                    RenderText {#text} at (0,0) size 68x31
                      text run at (0,0) width 27: "style:"
                      text run at (0,16) width 68: "\"width:60px\","
                  RenderBR {BR} at (81,29) size 0x0
                RenderBlock {DIV} at (464,92) size 82x128 [border: (1px solid #0000FF)]
                  RenderBlock {SPAN} at (1,1) size 80x48
                    RenderText {#text} at (0,0) size 73x47
                      text run at (0,0) width 27: "style:"
                      text run at (0,16) width 63: "\"width:60px;"
                      text run at (0,32) width 73: "padding:20px\","
                  RenderBR {BR} at (81,45) size 0x0
                RenderBlock {DIV} at (546,132) size 82x88 [border: (1px solid #0000FF)]
                  RenderBlock {SPAN} at (1,1) size 80x48
                    RenderText {#text} at (0,0) size 63x47
                      text run at (0,0) width 27: "style:"
                      text run at (0,16) width 63: "\"width:60px;"
                      text run at (0,32) width 55: "padding:0\","
                  RenderBR {BR} at (81,45) size 0x0
                RenderBlock {DIV} at (0,252) size 185x94 [border: (1px solid #0000FF)]
                  RenderBlock {SPAN} at (1,1) size 80x32
                    RenderText {#text} at (0,0) size 69x31
                      text run at (0,0) width 27: "style:"
                      text run at (0,16) width 69: "\"height:60px\","
                  RenderBR {BR} at (81,29) size 0x0
                RenderBlock {DIV} at (185,236) size 82x110 [border: (1px solid #0000FF)]
                  RenderBlock {SPAN} at (1,1) size 80x48
                    RenderText {#text} at (0,0) size 64x47
                      text run at (0,0) width 27: "style:"
                      text run at (0,16) width 63: "\"width:60px;"
                      text run at (0,32) width 64: "height:60px\","
                  RenderBR {BR} at (81,45) size 0x0
                RenderBlock {DIV} at (267,272) size 185x74 [border: (1px solid #0000FF)]
                  RenderBlock {SPAN} at (1,1) size 80x32
                    RenderText {#text} at (0,0) size 91x31
                      text run at (0,0) width 27: "style:"
                      text run at (0,16) width 91: "\"overflow:hidden\","
                  RenderBR {BR} at (81,29) size 0x0
                RenderBlock {DIV} at (452,257) size 185x89 [border: (1px solid #0000FF)]
                  RenderBlock {SPAN} at (1,1) size 80x32
                    RenderText {#text} at (0,0) size 85x31
                      text run at (0,0) width 27: "style:"
                      text run at (0,16) width 85: "\"overflow:scroll\","
                  RenderBR {BR} at (81,29) size 0x0
                RenderBlock {DIV} at (637,220) size 82x126 [border: (1px solid #0000FF)]
                  RenderBlock {SPAN} at (1,1) size 80x64
                    RenderText {#text} at (0,0) size 86x63
                      text run at (0,0) width 27: "style:"
                      text run at (0,16) width 86: "\"overflow:hidden;"
                      text run at (0,32) width 58: "width:60px;"
                      text run at (0,48) width 64: "height:60px\","
                  RenderBR {BR} at (81,61) size 0x0
                RenderBlock {DIV} at (0,346) size 82x126 [border: (1px solid #0000FF)]
                  RenderBlock {SPAN} at (1,1) size 80x64
                    RenderText {#text} at (0,0) size 80x63
                      text run at (0,0) width 27: "style:"
                      text run at (0,16) width 80: "\"overflow:scroll;"
                      text run at (0,32) width 58: "width:60px;"
                      text run at (0,48) width 64: "height:60px\","
                  RenderBR {BR} at (81,61) size 0x0
                RenderBlock {DIV} at (82,362) size 82x110 [border: (1px solid #0000FF)]
                  RenderBlock {SPAN} at (1,1) size 80x48
                    RenderText {#text} at (0,0) size 74x47
                      text run at (0,0) width 74: "cols: \"5\", style:"
                      text run at (0,16) width 63: "\"width:60px;"
                      text run at (0,32) width 64: "height:60px\","
                  RenderBR {BR} at (81,45) size 0x0
                RenderBlock {DIV} at (164,362) size 82x110 [border: (1px solid #0000FF)]
                  RenderBlock {SPAN} at (1,1) size 80x48
                    RenderText {#text} at (0,0) size 79x47
                      text run at (0,0) width 79: "rows: \"4\", style:"
                      text run at (0,16) width 63: "\"width:60px;"
                      text run at (0,32) width 64: "height:60px\","
                  RenderBR {BR} at (81,45) size 0x0
                RenderBlock {DIV} at (246,346) size 82x126 [border: (1px solid #0000FF)]
                  RenderBlock {SPAN} at (1,1) size 80x64
                    RenderText {#text} at (0,0) size 74x63
                      text run at (0,0) width 74: "cols: \"5\", rows:"
                      text run at (0,16) width 49: "\"4\", style:"
                      text run at (0,32) width 63: "\"width:60px;"
                      text run at (0,48) width 64: "height:60px\","
                  RenderBR {BR} at (81,61) size 0x0
                RenderBlock {DIV} at (328,414) size 82x58 [border: (1px solid #0000FF)]
                  RenderBlock {SPAN} at (1,1) size 80x16
                    RenderText {#text} at (0,0) size 44x15
                      text run at (0,0) width 44: "cols: \"3\","
                  RenderBR {BR} at (81,13) size 0x0
                RenderBlock {DIV} at (410,398) size 185x74 [border: (1px solid #0000FF)]
                  RenderBlock {SPAN} at (1,1) size 80x16
                    RenderText {#text} at (0,0) size 49x15
                      text run at (0,0) width 49: "rows: \"3\","
                  RenderBR {BR} at (81,13) size 0x0
                RenderBlock {DIV} at (595,414) size 82x58 [border: (1px solid #0000FF)]
                  RenderBlock {SPAN} at (1,1) size 80x16
                    RenderText {#text} at (0,0) size 44x15
                      text run at (0,0) width 44: "cols: \"7\","
                  RenderBR {BR} at (81,13) size 0x0
                RenderBlock {DIV} at (0,472) size 185x138 [border: (1px solid #0000FF)]
                  RenderBlock {SPAN} at (1,1) size 80x16
                    RenderText {#text} at (0,0) size 49x15
                      text run at (0,0) width 49: "rows: \"7\","
                  RenderBR {BR} at (81,13) size 0x0
                RenderBlock {DIV} at (185,504) size 82x106 [border: (1px solid #0000FF)]
                  RenderBlock {SPAN} at (1,1) size 80x32
                    RenderText {#text} at (0,0) size 74x31
                      text run at (0,0) width 74: "cols: \"5\", rows:"
                      text run at (0,16) width 19: "\"4\","
                  RenderBR {BR} at (81,29) size 0x0
                RenderBlock {DIV} at (267,537) size 185x73 [border: (1px solid #0000FF)]
                  RenderBlock {SPAN} at (1,1) size 80x16
                    RenderText {#text} at (0,0) size 58x15
                      text run at (0,0) width 58: "wrap: \"off\","
                  RenderBR {BR} at (81,13) size 0x0
                RenderBlock {DIV} at (452,552) size 185x58 [border: (1px solid #0000FF)]
                  RenderBlock {SPAN} at (1,1) size 80x16
                    RenderText {#text} at (0,0) size 65x15
                      text run at (0,0) width 65: "wrap: \"hard\","
                  RenderBR {BR} at (81,13) size 0x0
                RenderBlock {DIV} at (0,626) size 185x58 [border: (1px solid #0000FF)]
                  RenderBlock {SPAN} at (1,1) size 80x16
                    RenderText {#text} at (0,0) size 63x15
                      text run at (0,0) width 63: "wrap: \"soft\","
                  RenderBR {BR} at (81,13) size 0x0
                RenderBlock {DIV} at (185,610) size 185x74 [border: (1px solid #0000FF)]
                  RenderBlock {SPAN} at (1,1) size 80x32
                    RenderText {#text} at (0,0) size 71x31
                      text run at (0,0) width 66: "style: \"white-"
                      text run at (0,16) width 71: "space:normal\","
                  RenderBR {BR} at (81,29) size 0x0
                RenderBlock {DIV} at (370,610) size 185x74 [border: (1px solid #0000FF)]
                  RenderBlock {SPAN} at (1,1) size 80x32
                    RenderText {#text} at (0,0) size 66x31
                      text run at (0,0) width 66: "style: \"white-"
                      text run at (0,16) width 54: "space:pre\","
                  RenderBR {BR} at (81,29) size 0x0
                RenderBlock {DIV} at (555,610) size 185x74 [border: (1px solid #0000FF)]
                  RenderBlock {SPAN} at (1,1) size 80x32
                    RenderText {#text} at (0,0) size 79x31
                      text run at (0,0) width 66: "style: \"white-"
                      text run at (0,16) width 79: "space:prewrap\","
                  RenderBR {BR} at (81,29) size 0x0
                RenderBlock {DIV} at (0,731) size 185x74 [border: (1px solid #0000FF)]
                  RenderBlock {SPAN} at (1,1) size 80x32
                    RenderText {#text} at (0,0) size 75x31
                      text run at (0,0) width 66: "style: \"white-"
                      text run at (0,16) width 75: "space:nowrap\","
                  RenderBR {BR} at (81,29) size 0x0
                RenderBlock {DIV} at (185,731) size 185x74 [border: (1px solid #0000FF)]
                  RenderBlock {SPAN} at (1,1) size 80x32
                    RenderText {#text} at (0,0) size 75x31
                      text run at (0,0) width 66: "style: \"white-"
                      text run at (0,16) width 75: "space:pre-line\","
                  RenderBR {BR} at (81,29) size 0x0
                RenderBlock {DIV} at (370,716) size 185x89 [border: (1px solid #0000FF)]
                  RenderBlock {SPAN} at (1,1) size 80x32
                    RenderText {#text} at (0,0) size 69x31
                      text run at (0,0) width 64: "style: \"word-"
                      text run at (0,16) width 69: "wrap:normal\","
                  RenderBR {BR} at (81,29) size 0x0
                RenderBlock {DIV} at (555,684) size 185x121 [border: (1px solid #0000FF)]
                  RenderBlock {SPAN} at (1,1) size 80x64
                    RenderText {#text} at (0,0) size 66x63
                      text run at (0,0) width 58: "wrap: \"off\","
                      text run at (0,16) width 66: "style: \"white-"
                      text run at (0,32) width 50: "space:pre-"
                      text run at (0,48) width 33: "wrap\","
                  RenderBR {BR} at (81,61) size 0x0
        layer at (3,83) size 179x36 clip at (4,84) size 177x34
          RenderTextControl {TEXTAREA} at (3,3) size 179x36 [bgcolor=#FFFFFF] [border: (1px solid #000000)]
            RenderBlock {DIV} at (3,3) size 175x16
              RenderText {#text} at (0,0) size 136x16
                text run at (0,0) width 136: "Lorem ipsum dolor"
        layer at (188,83) size 179x36 clip at (189,84) size 162x34 scrollHeight 82
          RenderTextControl {TEXTAREA} at (3,19) size 179x36 [bgcolor=#EBEBE4] [border: (1px solid #000000)]
            RenderBlock {DIV} at (3,3) size 160x80 [color=#545454]
              RenderText {#text} at (0,0) size 160x80
                text run at (0,0) width 144: "Lorem ipsum  dolor"
                text run at (144,0) width 8: " "
                text run at (0,16) width 160: "ABCDEFGHIJKLMNOPQRST"
                text run at (0,32) width 48: "UVWXYZ"
                text run at (48,32) width 8: " "
                text run at (0,48) width 160: "abcdefghijklmnopqrst"
                text run at (0,64) width 16: "uv"
        layer at (373,65) size 197x54 clip at (374,66) size 180x52 scrollHeight 100
          RenderTextControl {TEXTAREA} at (3,35) size 197x54 [bgcolor=#FFFFFF] [border: (1px solid #000000)]
            RenderBlock {DIV} at (11,11) size 160x80
              RenderText {#text} at (0,0) size 160x80
                text run at (0,0) width 144: "Lorem ipsum  dolor"
                text run at (144,0) width 8: " "
                text run at (0,16) width 160: "ABCDEFGHIJKLMNOPQRST"
                text run at (0,32) width 48: "UVWXYZ"
                text run at (48,32) width 8: " "
                text run at (0,48) width 160: "abcdefghijklmnopqrst"
                text run at (0,64) width 16: "uv"
        layer at (576,85) size 177x34 clip at (577,86) size 160x32 scrollHeight 80
          RenderTextControl {TEXTAREA} at (3,35) size 177x34 [bgcolor=#FFFFFF] [border: (1px solid #000000)]
            RenderBlock {DIV} at (1,1) size 160x80
              RenderText {#text} at (0,0) size 160x80
                text run at (0,0) width 144: "Lorem ipsum  dolor"
                text run at (144,0) width 8: " "
                text run at (0,16) width 160: "ABCDEFGHIJKLMNOPQRST"
                text run at (0,32) width 48: "UVWXYZ"
                text run at (48,32) width 8: " "
                text run at (0,48) width 160: "abcdefghijklmnopqrst"
                text run at (0,64) width 16: "uv"
        layer at (11,203) size 179x36 clip at (12,204) size 162x34 scrollHeight 82
          RenderTextControl {TEXTAREA} at (11,43) size 179x36 [bgcolor=#FFFFFF] [border: (1px solid #000000)]
            RenderBlock {DIV} at (3,3) size 160x80
              RenderText {#text} at (0,0) size 160x80
                text run at (0,0) width 144: "Lorem ipsum  dolor"
                text run at (144,0) width 8: " "
                text run at (0,16) width 160: "ABCDEFGHIJKLMNOPQRST"
                text run at (0,32) width 48: "UVWXYZ"
                text run at (48,32) width 8: " "
                text run at (0,48) width 160: "abcdefghijklmnopqrst"
                text run at (0,64) width 16: "uv"
        layer at (202,213) size 179x36 clip at (203,214) size 162x34 scrollHeight 82
          RenderTextControl {TEXTAREA} at (1,33) size 179x36 [bgcolor=#FFFFFF] [border: (1px solid #000000)]
            RenderBlock {DIV} at (3,3) size 160x80
              RenderText {#text} at (0,0) size 160x80
                text run at (0,0) width 144: "Lorem ipsum  dolor"
                text run at (144,0) width 8: " "
                text run at (0,16) width 160: "ABCDEFGHIJKLMNOPQRST"
                text run at (0,32) width 48: "UVWXYZ"
                text run at (48,32) width 8: " "
                text run at (0,48) width 160: "abcdefghijklmnopqrst"
                text run at (0,64) width 16: "uv"
        layer at (383,211) size 60x36 clip at (384,212) size 43x34 scrollHeight 242
          RenderTextControl {TEXTAREA} at (1,35) size 60x36 [bgcolor=#FFFFFF] [border: (1px solid #000000)]
            RenderBlock {DIV} at (3,3) size 41x240
              RenderText {#text} at (0,0) size 41x240
                text run at (0,0) width 40: "Lorem"
                text run at (40,0) width 1: " "
                text run at (0,16) width 40: "ipsum"
                text run at (0,32) width 16: "  "
                text run at (0,48) width 40: "dolor"
                text run at (40,48) width 1: " "
                text run at (0,64) width 40: "ABCDE"
                text run at (0,80) width 40: "FGHIJ"
                text run at (0,96) width 40: "KLMNO"
                text run at (0,112) width 40: "PQRST"
                text run at (0,128) width 40: "UVWXY"
                text run at (0,144) width 8: "Z"
                text run at (8,144) width 8: " "
                text run at (0,160) width 40: "abcde"
                text run at (0,176) width 40: "fghij"
                text run at (0,192) width 40: "klmno"
                text run at (0,208) width 40: "pqrst"
                text run at (0,224) width 16: "uv"
        layer at (465,173) size 60x74 clip at (466,174) size 43x72 scrollHeight 1128
          RenderTextControl {TEXTAREA} at (1,51) size 60x74 [bgcolor=#FFFFFF] [border: (1px solid #000000)]
            RenderBlock {DIV} at (21,21) size 3x1088
              RenderText {#text} at (0,0) size 8x1088
                text run at (0,0) width 8: "L"
                text run at (0,16) width 8: "o"
                text run at (0,32) width 8: "r"
                text run at (0,48) width 8: "e"
                text run at (0,64) width 8: "m"
                text run at (0,80) width 3: " "
                text run at (0,96) width 8: "i"
                text run at (0,112) width 8: "p"
                text run at (0,128) width 8: "s"
                text run at (0,144) width 8: "u"
                text run at (0,160) width 8: "m"
                text run at (0,176) width 3: " "
                text run at (0,192) width 3: " "
                text run at (0,208) width 8: "d"
                text run at (0,224) width 8: "o"
                text run at (0,240) width 8: "l"
                text run at (0,256) width 8: "o"
                text run at (0,272) width 8: "r"
                text run at (0,288) width 3: " "
                text run at (0,304) width 8: "A"
                text run at (0,320) width 8: "B"
                text run at (0,336) width 8: "C"
                text run at (0,352) width 8: "D"
                text run at (0,368) width 8: "E"
                text run at (0,384) width 8: "F"
                text run at (0,400) width 8: "G"
                text run at (0,416) width 8: "H"
                text run at (0,432) width 8: "I"
                text run at (0,448) width 8: "J"
                text run at (0,464) width 8: "K"
                text run at (0,480) width 8: "L"
                text run at (0,496) width 8: "M"
                text run at (0,512) width 8: "N"
                text run at (0,528) width 8: "O"
                text run at (0,544) width 8: "P"
                text run at (0,560) width 8: "Q"
                text run at (0,576) width 8: "R"
                text run at (0,592) width 8: "S"
                text run at (0,608) width 8: "T"
                text run at (0,624) width 8: "U"
                text run at (0,640) width 8: "V"
                text run at (0,656) width 8: "W"
                text run at (0,672) width 8: "X"
                text run at (0,688) width 8: "Y"
                text run at (0,704) width 8: "Z"
                text run at (0,720) width 3: " "
                text run at (0,736) width 8: "a"
                text run at (0,752) width 8: "b"
                text run at (0,768) width 8: "c"
                text run at (0,784) width 8: "d"
                text run at (0,800) width 8: "e"
                text run at (0,816) width 8: "f"
                text run at (0,832) width 8: "g"
                text run at (0,848) width 8: "h"
                text run at (0,864) width 8: "i"
                text run at (0,880) width 8: "j"
                text run at (0,896) width 8: "k"
                text run at (0,912) width 8: "l"
                text run at (0,928) width 8: "m"
                text run at (0,944) width 8: "n"
                text run at (0,960) width 8: "o"
                text run at (0,976) width 8: "p"
                text run at (0,992) width 8: "q"
                text run at (0,1008) width 8: "r"
                text run at (0,1024) width 8: "s"
                text run at (0,1040) width 8: "t"
                text run at (0,1056) width 8: "u"
                text run at (0,1072) width 8: "v"
        layer at (547,213) size 60x34 clip at (548,214) size 43x32 scrollHeight 240
          RenderTextControl {TEXTAREA} at (1,51) size 60x34 [bgcolor=#FFFFFF] [border: (1px solid #000000)]
            RenderBlock {DIV} at (1,1) size 43x240
              RenderText {#text} at (0,0) size 43x240
                text run at (0,0) width 40: "Lorem"
                text run at (40,0) width 3: " "
                text run at (0,16) width 40: "ipsum"
                text run at (0,32) width 16: "  "
                text run at (0,48) width 40: "dolor"
                text run at (40,48) width 3: " "
                text run at (0,64) width 40: "ABCDE"
                text run at (0,80) width 40: "FGHIJ"
                text run at (0,96) width 40: "KLMNO"
                text run at (0,112) width 40: "PQRST"
                text run at (0,128) width 40: "UVWXY"
                text run at (0,144) width 8: "Z"
                text run at (8,144) width 8: " "
                text run at (0,160) width 40: "abcde"
                text run at (0,176) width 40: "fghij"
                text run at (0,192) width 40: "klmno"
                text run at (0,208) width 40: "pqrst"
                text run at (0,224) width 16: "uv"
        layer at (3,315) size 179x60 clip at (4,316) size 162x58 scrollHeight 82
          RenderTextControl {TEXTAREA} at (3,33) size 179x60 [bgcolor=#FFFFFF] [border: (1px solid #000000)]
            RenderBlock {DIV} at (3,3) size 160x80
              RenderText {#text} at (0,0) size 160x80
                text run at (0,0) width 144: "Lorem ipsum  dolor"
                text run at (144,0) width 8: " "
                text run at (0,16) width 160: "ABCDEFGHIJKLMNOPQRST"
                text run at (0,32) width 48: "UVWXYZ"
                text run at (48,32) width 8: " "
                text run at (0,48) width 160: "abcdefghijklmnopqrst"
                text run at (0,64) width 16: "uv"
        layer at (186,315) size 60x60 clip at (187,316) size 43x58 scrollHeight 242
          RenderTextControl {TEXTAREA} at (1,49) size 60x60 [bgcolor=#FFFFFF] [border: (1px solid #000000)]
            RenderBlock {DIV} at (3,3) size 41x240
              RenderText {#text} at (0,0) size 41x240
                text run at (0,0) width 40: "Lorem"
                text run at (40,0) width 1: " "
                text run at (0,16) width 40: "ipsum"
                text run at (0,32) width 16: "  "
                text run at (0,48) width 40: "dolor"
                text run at (40,48) width 1: " "
                text run at (0,64) width 40: "ABCDE"
                text run at (0,80) width 40: "FGHIJ"
                text run at (0,96) width 40: "KLMNO"
                text run at (0,112) width 40: "PQRST"
                text run at (0,128) width 40: "UVWXY"
                text run at (0,144) width 8: "Z"
                text run at (8,144) width 8: " "
                text run at (0,160) width 40: "abcde"
                text run at (0,176) width 40: "fghij"
                text run at (0,192) width 40: "klmno"
                text run at (0,208) width 40: "pqrst"
                text run at (0,224) width 16: "uv"
        layer at (270,337) size 179x36 clip at (271,338) size 177x34 scrollHeight 82
          RenderTextControl {TEXTAREA} at (3,35) size 179x36 [bgcolor=#FFFFFF] [border: (1px solid #000000)]
            RenderBlock {DIV} at (3,3) size 175x80
              RenderText {#text} at (0,0) size 168x80
                text run at (0,0) width 144: "Lorem ipsum  dolor"
                text run at (144,0) width 8: " "
                text run at (0,16) width 168: "ABCDEFGHIJKLMNOPQRSTU"
                text run at (0,32) width 40: "VWXYZ"
                text run at (40,32) width 8: " "
                text run at (0,48) width 168: "abcdefghijklmnopqrstu"
                text run at (0,64) width 8: "v"
        layer at (455,322) size 179x51 clip at (456,323) size 162x34 scrollHeight 82
          RenderTextControl {TEXTAREA} at (3,35) size 179x51 [bgcolor=#FFFFFF] [border: (1px solid #000000)]
            RenderBlock {DIV} at (3,3) size 160x80
              RenderText {#text} at (0,0) size 160x80
                text run at (0,0) width 144: "Lorem ipsum  dolor"
                text run at (144,0) width 8: " "
                text run at (0,16) width 160: "ABCDEFGHIJKLMNOPQRST"
                text run at (0,32) width 48: "UVWXYZ"
                text run at (48,32) width 8: " "
                text run at (0,48) width 160: "abcdefghijklmnopqrst"
                text run at (0,64) width 16: "uv"
        layer at (638,315) size 60x60 clip at (639,316) size 58x58 scrollHeight 178
          RenderTextControl {TEXTAREA} at (1,65) size 60x60 [bgcolor=#FFFFFF] [border: (1px solid #000000)]
            RenderBlock {DIV} at (3,3) size 56x176
              RenderText {#text} at (0,0) size 56x176
                text run at (0,0) width 40: "Lorem"
                text run at (40,0) width 8: " "
                text run at (0,16) width 40: "ipsum"
                text run at (40,16) width 16: "  "
                text run at (0,32) width 40: "dolor"
                text run at (40,32) width 8: " "
                text run at (0,48) width 56: "ABCDEFG"
                text run at (0,64) width 56: "HIJKLMN"
                text run at (0,80) width 56: "OPQRSTU"
                text run at (0,96) width 40: "VWXYZ"
                text run at (40,96) width 8: " "
                text run at (0,112) width 56: "abcdefg"
                text run at (0,128) width 56: "hijklmn"
                text run at (0,144) width 56: "opqrstu"
                text run at (0,160) width 8: "v"
        layer at (1,441) size 60x60 clip at (2,442) size 43x43 scrollHeight 242
          RenderTextControl {TEXTAREA} at (1,65) size 60x60 [bgcolor=#FFFFFF] [border: (1px solid #000000)]
            RenderBlock {DIV} at (3,3) size 41x240
              RenderText {#text} at (0,0) size 41x240
                text run at (0,0) width 40: "Lorem"
                text run at (40,0) width 1: " "
                text run at (0,16) width 40: "ipsum"
                text run at (0,32) width 16: "  "
                text run at (0,48) width 40: "dolor"
                text run at (40,48) width 1: " "
                text run at (0,64) width 40: "ABCDE"
                text run at (0,80) width 40: "FGHIJ"
                text run at (0,96) width 40: "KLMNO"
                text run at (0,112) width 40: "PQRST"
                text run at (0,128) width 40: "UVWXY"
                text run at (0,144) width 8: "Z"
                text run at (8,144) width 8: " "
                text run at (0,160) width 40: "abcde"
                text run at (0,176) width 40: "fghij"
                text run at (0,192) width 40: "klmno"
                text run at (0,208) width 40: "pqrst"
                text run at (0,224) width 16: "uv"
        layer at (83,441) size 60x60 clip at (84,442) size 43x58 scrollHeight 242
          RenderTextControl {TEXTAREA} at (1,49) size 60x60 [bgcolor=#FFFFFF] [border: (1px solid #000000)]
            RenderBlock {DIV} at (3,3) size 41x240
              RenderText {#text} at (0,0) size 41x240
                text run at (0,0) width 40: "Lorem"
                text run at (40,0) width 1: " "
                text run at (0,16) width 40: "ipsum"
                text run at (0,32) width 16: "  "
                text run at (0,48) width 40: "dolor"
                text run at (40,48) width 1: " "
                text run at (0,64) width 40: "ABCDE"
                text run at (0,80) width 40: "FGHIJ"
                text run at (0,96) width 40: "KLMNO"
                text run at (0,112) width 40: "PQRST"
                text run at (0,128) width 40: "UVWXY"
                text run at (0,144) width 8: "Z"
                text run at (8,144) width 8: " "
                text run at (0,160) width 40: "abcde"
                text run at (0,176) width 40: "fghij"
                text run at (0,192) width 40: "klmno"
                text run at (0,208) width 40: "pqrst"
                text run at (0,224) width 16: "uv"
        layer at (165,441) size 60x60 clip at (166,442) size 43x58 scrollHeight 242
          RenderTextControl {TEXTAREA} at (1,49) size 60x60 [bgcolor=#FFFFFF] [border: (1px solid #000000)]
            RenderBlock {DIV} at (3,3) size 41x240
              RenderText {#text} at (0,0) size 41x240
                text run at (0,0) width 40: "Lorem"
                text run at (40,0) width 1: " "
                text run at (0,16) width 40: "ipsum"
                text run at (0,32) width 16: "  "
                text run at (0,48) width 40: "dolor"
                text run at (40,48) width 1: " "
                text run at (0,64) width 40: "ABCDE"
                text run at (0,80) width 40: "FGHIJ"
                text run at (0,96) width 40: "KLMNO"
                text run at (0,112) width 40: "PQRST"
                text run at (0,128) width 40: "UVWXY"
                text run at (0,144) width 8: "Z"
                text run at (8,144) width 8: " "
                text run at (0,160) width 40: "abcde"
                text run at (0,176) width 40: "fghij"
                text run at (0,192) width 40: "klmno"
                text run at (0,208) width 40: "pqrst"
                text run at (0,224) width 16: "uv"
        layer at (247,441) size 60x60 clip at (248,442) size 43x58 scrollHeight 242
          RenderTextControl {TEXTAREA} at (1,65) size 60x60 [bgcolor=#FFFFFF] [border: (1px solid #000000)]
            RenderBlock {DIV} at (3,3) size 41x240
              RenderText {#text} at (0,0) size 41x240
                text run at (0,0) width 40: "Lorem"
                text run at (40,0) width 1: " "
                text run at (0,16) width 40: "ipsum"
                text run at (0,32) width 16: "  "
                text run at (0,48) width 40: "dolor"
                text run at (40,48) width 1: " "
                text run at (0,64) width 40: "ABCDE"
                text run at (0,80) width 40: "FGHIJ"
                text run at (0,96) width 40: "KLMNO"
                text run at (0,112) width 40: "PQRST"
                text run at (0,128) width 40: "UVWXY"
                text run at (0,144) width 8: "Z"
                text run at (8,144) width 8: " "
                text run at (0,160) width 40: "abcde"
                text run at (0,176) width 40: "fghij"
                text run at (0,192) width 40: "klmno"
                text run at (0,208) width 40: "pqrst"
                text run at (0,224) width 16: "uv"
        layer at (331,463) size 43x36 clip at (332,464) size 26x34 scrollHeight 370
          RenderTextControl {TEXTAREA} at (3,19) size 43x36 [bgcolor=#FFFFFF] [border: (1px solid #000000)]
            RenderBlock {DIV} at (3,3) size 24x368
              RenderText {#text} at (0,0) size 24x368
                text run at (0,0) width 24: "Lor"
                text run at (0,16) width 16: "em"
                text run at (16,16) width 8: " "
                text run at (0,32) width 24: "ips"
                text run at (0,48) width 16: "um"
                text run at (16,48) width 8: "  "
                text run at (0,64) width 24: "dol"
                text run at (0,80) width 16: "or"
                text run at (16,80) width 8: " "
                text run at (0,96) width 24: "ABC"
                text run at (0,112) width 24: "DEF"
                text run at (0,128) width 24: "GHI"
                text run at (0,144) width 24: "JKL"
                text run at (0,160) width 24: "MNO"
                text run at (0,176) width 24: "PQR"
                text run at (0,192) width 24: "STU"
                text run at (0,208) width 24: "VWX"
                text run at (0,224) width 16: "YZ"
                text run at (16,224) width 8: " "
                text run at (0,240) width 24: "abc"
                text run at (0,256) width 24: "def"
                text run at (0,272) width 24: "ghi"
                text run at (0,288) width 24: "jkl"
                text run at (0,304) width 24: "mno"
                text run at (0,320) width 24: "pqr"
                text run at (0,336) width 24: "stu"
                text run at (0,352) width 8: "v"
        layer at (413,447) size 179x52 clip at (414,448) size 162x50 scrollHeight 82
          RenderTextControl {TEXTAREA} at (3,19) size 179x52 [bgcolor=#FFFFFF] [border: (1px solid #000000)]
            RenderBlock {DIV} at (3,3) size 160x80
              RenderText {#text} at (0,0) size 160x80
                text run at (0,0) width 144: "Lorem ipsum  dolor"
                text run at (144,0) width 8: " "
                text run at (0,16) width 160: "ABCDEFGHIJKLMNOPQRST"
                text run at (0,32) width 48: "UVWXYZ"
                text run at (48,32) width 8: " "
                text run at (0,48) width 160: "abcdefghijklmnopqrst"
                text run at (0,64) width 16: "uv"
        layer at (598,463) size 75x36 clip at (599,464) size 58x34 scrollHeight 178
          RenderTextControl {TEXTAREA} at (3,19) size 75x36 [bgcolor=#FFFFFF] [border: (1px solid #000000)]
            RenderBlock {DIV} at (3,3) size 56x176
              RenderText {#text} at (0,0) size 56x176
                text run at (0,0) width 40: "Lorem"
                text run at (40,0) width 8: " "
                text run at (0,16) width 40: "ipsum"
                text run at (40,16) width 16: "  "
                text run at (0,32) width 40: "dolor"
                text run at (40,32) width 8: " "
                text run at (0,48) width 56: "ABCDEFG"
                text run at (0,64) width 56: "HIJKLMN"
                text run at (0,80) width 56: "OPQRSTU"
                text run at (0,96) width 40: "VWXYZ"
                text run at (40,96) width 8: " "
                text run at (0,112) width 56: "abcdefg"
                text run at (0,128) width 56: "hijklmn"
                text run at (0,144) width 56: "opqrstu"
                text run at (0,160) width 8: "v"
        layer at (3,521) size 179x116 clip at (4,522) size 177x114
          RenderTextControl {TEXTAREA} at (3,19) size 179x116 [bgcolor=#FFFFFF] [border: (1px solid #000000)]
            RenderBlock {DIV} at (3,3) size 175x80
              RenderText {#text} at (0,0) size 168x80
                text run at (0,0) width 144: "Lorem ipsum  dolor"
                text run at (144,0) width 8: " "
                text run at (0,16) width 168: "ABCDEFGHIJKLMNOPQRSTU"
                text run at (0,32) width 40: "VWXYZ"
                text run at (40,32) width 8: " "
                text run at (0,48) width 168: "abcdefghijklmnopqrstu"
                text run at (0,64) width 8: "v"
        layer at (188,569) size 59x68 clip at (189,570) size 42x66 scrollHeight 242
          RenderTextControl {TEXTAREA} at (3,35) size 59x68 [bgcolor=#FFFFFF] [border: (1px solid #000000)]
            RenderBlock {DIV} at (3,3) size 40x240
              RenderText {#text} at (0,0) size 40x240
                text run at (0,0) width 40: "Lorem"
                text run at (40,0) width 0: " "
                text run at (0,16) width 40: "ipsum"
                text run at (0,32) width 16: "  "
                text run at (0,48) width 40: "dolor"
                text run at (40,48) width 0: " "
                text run at (0,64) width 40: "ABCDE"
                text run at (0,80) width 40: "FGHIJ"
                text run at (0,96) width 40: "KLMNO"
                text run at (0,112) width 40: "PQRST"
                text run at (0,128) width 40: "UVWXY"
                text run at (0,144) width 8: "Z"
                text run at (8,144) width 8: " "
                text run at (0,160) width 40: "abcde"
                text run at (0,176) width 40: "fghij"
                text run at (0,192) width 40: "klmno"
                text run at (0,208) width 40: "pqrst"
                text run at (0,224) width 16: "uv"
        layer at (270,586) size 179x51 clip at (271,587) size 177x34 scrollWidth 546
          RenderTextControl {TEXTAREA} at (3,19) size 179x51 [bgcolor=#FFFFFF] [border: (1px solid #000000)]
            RenderBlock {DIV} at (3,3) size 175x16
              RenderText {#text} at (0,0) size 544x16
                text run at (0,0) width 544: "Lorem ipsum  dolor ABCDEFGHIJKLMNOPQRSTUVWXYZ abcdefghijklmnopqrstuv"
        layer at (455,601) size 179x36 clip at (456,602) size 162x34 scrollHeight 82
          RenderTextControl {TEXTAREA} at (3,19) size 179x36 [bgcolor=#FFFFFF] [border: (1px solid #000000)]
            RenderBlock {DIV} at (3,3) size 160x80
              RenderText {#text} at (0,0) size 160x80
                text run at (0,0) width 144: "Lorem ipsum  dolor"
                text run at (144,0) width 8: " "
                text run at (0,16) width 160: "ABCDEFGHIJKLMNOPQRST"
                text run at (0,32) width 48: "UVWXYZ"
                text run at (48,32) width 8: " "
                text run at (0,48) width 160: "abcdefghijklmnopqrst"
                text run at (0,64) width 16: "uv"
        layer at (3,675) size 179x36 clip at (4,676) size 162x34 scrollHeight 82
          RenderTextControl {TEXTAREA} at (3,19) size 179x36 [bgcolor=#FFFFFF] [border: (1px solid #000000)]
            RenderBlock {DIV} at (3,3) size 160x80
              RenderText {#text} at (0,0) size 160x80
                text run at (0,0) width 144: "Lorem ipsum  dolor"
                text run at (144,0) width 8: " "
                text run at (0,16) width 160: "ABCDEFGHIJKLMNOPQRST"
                text run at (0,32) width 48: "UVWXYZ"
                text run at (48,32) width 8: " "
                text run at (0,48) width 160: "abcdefghijklmnopqrst"
                text run at (0,64) width 16: "uv"
        layer at (188,675) size 179x36 clip at (189,676) size 162x34 scrollHeight 82
          RenderTextControl {TEXTAREA} at (3,35) size 179x36 [bgcolor=#FFFFFF] [border: (1px solid #000000)]
            RenderBlock {DIV} at (3,3) size 160x80
              RenderText {#text} at (0,0) size 160x80
                text run at (0,0) width 96: "Lorem ipsum "
                text run at (96,0) width 40: "dolor"
                text run at (0,16) width 160: "ABCDEFGHIJKLMNOPQRST"
                text run at (0,32) width 48: "UVWXYZ"
                text run at (0,48) width 160: "abcdefghijklmnopqrst"
                text run at (0,64) width 16: "uv"
        layer at (373,675) size 179x36 clip at (374,676) size 162x34 scrollHeight 66
          RenderTextControl {TEXTAREA} at (3,35) size 179x36 [bgcolor=#FFFFFF] [border: (1px solid #000000)]
            RenderBlock {DIV} at (3,3) size 160x64
              RenderText {#text} at (0,0) size 160x64
                text run at (0,0) width 160: "Lorem ipsum  dolor A"
                text run at (0,16) width 160: "BCDEFGHIJKLMNOPQRSTU"
                text run at (0,32) width 160: "VWXYZ abcdefghijklmn"
                text run at (0,48) width 64: "opqrstuv"
        layer at (558,675) size 179x36 clip at (559,676) size 162x34 scrollHeight 82
          RenderTextControl {TEXTAREA} at (3,35) size 179x36 [bgcolor=#FFFFFF] [border: (1px solid #000000)]
            RenderBlock {DIV} at (3,3) size 160x80
              RenderText {#text} at (0,0) size 160x80
                text run at (0,0) width 144: "Lorem ipsum  dolor"
                text run at (144,0) width 8: " "
                text run at (0,16) width 160: "ABCDEFGHIJKLMNOPQRST"
                text run at (0,32) width 48: "UVWXYZ"
                text run at (48,32) width 8: " "
                text run at (0,48) width 160: "abcdefghijklmnopqrst"
                text run at (0,64) width 16: "uv"
        layer at (3,796) size 179x36 clip at (4,797) size 177x19 scrollWidth 538
          RenderTextControl {TEXTAREA} at (3,35) size 179x36 [bgcolor=#FFFFFF] [border: (1px solid #000000)]
            RenderBlock {DIV} at (3,3) size 175x16
              RenderText {#text} at (0,0) size 536x16
                text run at (0,0) width 96: "Lorem ipsum "
                text run at (96,0) width 440: "dolor ABCDEFGHIJKLMNOPQRSTUVWXYZ abcdefghijklmnopqrstuv"
        layer at (188,796) size 179x36 clip at (189,797) size 162x34 scrollHeight 82
          RenderTextControl {TEXTAREA} at (3,35) size 179x36 [bgcolor=#FFFFFF] [border: (1px solid #000000)]
            RenderBlock {DIV} at (3,3) size 160x80
              RenderText {#text} at (0,0) size 160x80
                text run at (0,0) width 96: "Lorem ipsum "
                text run at (96,0) width 40: "dolor"
                text run at (0,16) width 160: "ABCDEFGHIJKLMNOPQRST"
                text run at (0,32) width 48: "UVWXYZ"
                text run at (0,48) width 160: "abcdefghijklmnopqrst"
                text run at (0,64) width 16: "uv"
        layer at (373,781) size 179x51 clip at (374,782) size 162x34 scrollWidth 210 scrollHeight 66
          RenderTextControl {TEXTAREA} at (3,35) size 179x51 [bgcolor=#FFFFFF] [border: (1px solid #000000)]
            RenderBlock {DIV} at (3,3) size 160x64
              RenderText {#text} at (0,0) size 208x64
                text run at (0,0) width 144: "Lorem ipsum  dolor"
                text run at (144,0) width 8: " "
                text run at (0,16) width 208: "ABCDEFGHIJKLMNOPQRSTUVWXYZ"
                text run at (0,32) width 8: " "
                text run at (0,48) width 176: "abcdefghijklmnopqrstuv"
        layer at (558,781) size 179x51 clip at (559,782) size 162x34 scrollWidth 210 scrollHeight 66
          RenderTextControl {TEXTAREA} at (3,67) size 179x51 [bgcolor=#FFFFFF] [border: (1px solid #000000)]
            RenderBlock {DIV} at (3,3) size 160x64
              RenderText {#text} at (0,0) size 208x64
                text run at (0,0) width 144: "Lorem ipsum  dolor"
                text run at (144,0) width 8: " "
                text run at (0,16) width 208: "ABCDEFGHIJKLMNOPQRSTUVWXYZ"
                text run at (0,32) width 8: " "
                text run at (0,48) width 176: "abcdefghijklmnopqrstuv"
      RenderText {#text} at (0,0) size 0x0
