layer at (0,0) size 800x600
  RenderView at (0,0) size 800x600
layer at (0,0) size 800x600
  RenderSVGRoot {svg} at (40,73) size 201x125
    RenderSVGHiddenContainer {defs} at (0,0) size 0x0
      RenderSVGResourceClipper {clipPath} [id="clip"] [clipPathUnits=userSpaceOnUse]
        RenderSVGText {text} at (40,83) size 191x105 contains 1 chunk(s)
          RenderSVGInlineText {#text} at (0,0) size 191x105
            chunk 1 text run 1 at (40.00,160.00) startOffset 0 endOffset 4 width 191.00: "CLIP"
    RenderSVGPath {rect} at (40,73) size 201x125 [fill={[type=SOLID] [color=#008000]}] [x=40.00] [y=40.00] [width=300.00] [height=300.00]
      [clipPath="clip"] RenderSVGResourceClipper {clipPath} at (30,73) size 211x125
