layer at (0,0) size 784x635
  RenderView at (0,0) size 784x600
layer at (0,0) size 784x635
  RenderBlock {HTML} at (0,0) size 784x635
    RenderBody {BODY} at (8,8) size 768x619
      RenderBlock (anonymous) at (0,0) size 768x19
        RenderText {#text} at (0,0) size 277x19
          text run at (0,0) width 277: "These two tables should be the same height."
      RenderBlock {DIV} at (0,19) size 80x600
        RenderTable {TABLE} at (0,0) size 22x320
          RenderTableSection {TBODY} at (0,0) size 22x320
            RenderTableRow {TR} at (0,0) size 22x320
              RenderTableCell {TD} at (0,0) size 22x69 [border: (1px solid #008000)] [r=0 c=0 rs=1 cs=1]
                RenderText {#text} at (1,1) size 19x8
                  text run at (1,1) width 8: "1"
              RenderTableCell {TD} at (0,70) size 22x243 [border: (1px solid #008000)] [r=0 c=1 rs=1 cs=1]
                RenderText {#text} at (1,1) size 19x8
                  text run at (1,1) width 8: "2"
              RenderTableCell {TD} at (0,314) size 22x6 [border: (1px solid #008000)] [r=0 c=2 rs=1 cs=1]
                RenderImage {IMG} at (1,1) size 20x4 [bgcolor=#FFA500]
        RenderBlock {P} at (38,0) size 0x600
        RenderTable {TABLE} at (38,0) size 42x320
          RenderTableSection {TBODY} at (0,0) size 42x320
            RenderTableRow {TR} at (0,0) size 21x320
              RenderTableCell {TD} at (0,0) size 21x64 [border: (1px solid #008000)] [r=0 c=0 rs=1 cs=1]
                RenderText {#text} at (1,1) size 19x8
                  text run at (1,1) width 8: "1"
              RenderTableCell {TD} at (0,68) size 21x247 [border: (1px solid #008000)] [r=0 c=1 rs=1 cs=1]
                RenderImage {IMG} at (5,-3) size 10x254 [bgcolor=#FFA500]
            RenderTableRow {TR} at (0,21) size 21x320
              RenderTableCell {TD} at (21,0) size 21x320 [border: (1px solid #008000)] [r=1 c=0 rs=1 cs=3]
                RenderText {#text} at (1,1) size 19x8
                  text run at (1,1) width 8: "1"
