layer at (0,0) size 800x600
  RenderView at (0,0) size 800x600
layer at (0,0) size 800x600
  RenderSVGRoot {svg} at (0,0) size 800x600
    RenderSVGContainer {g} at (33,221) size 651x144
      RenderSVGText {text} at (73,133) size 314x22 contains 1 chunk(s)
        RenderSVGInlineText {#text} at (199,0) size 115x22
          chunk 1 (middle anchor) text run 1 at (272.00,150.00) startOffset 0 endOffset 14 width 114.00 RTL: "\x{646}\x{634}\x{627}\x{637} \x{627}\x{644}\x{62A}\x{62F}\x{648}\x{64A}\x{644} \""
        RenderSVGTSpan {tspan} at (0,0) size 187x22
          RenderSVGInlineText {#text} at (12,0) size 187x22
            chunk 1 (middle anchor) text run 1 at (85.40,150.00) startOffset 0 endOffset 8 width 49.20 RTL: ", \x{627}\x{62E}\x{62A}\x{628}\x{627}\x{631}"
            chunk 1 (middle anchor) text run 1 at (134.60,150.00) startOffset 0 endOffset 14 width 137.40: "dirRTL ubEmbed"
        RenderSVGInlineText {#text} at (0,0) size 13x22
          chunk 1 (middle anchor) text run 1 at (74.00,150.00) startOffset 0 endOffset 2 width 11.40 RTL: "\"!"
      RenderSVGText {text} at (20,170) size 86x13 contains 1 chunk(s)
        RenderSVGInlineText {#text} at (0,0) size 86x13
          chunk 1 text run 1 at (20.00,180.00) startOffset 0 endOffset 18 width 85.20: "Reference graphic:"
      RenderSVGImage {image} at (100,300) size 584x65
    RenderSVGContainer {g} at (16,556) size 76x14
      RenderSVGText {text} at (10,334) size 45x8 contains 1 chunk(s)
        RenderSVGInlineText {#text} at (0,0) size 45x8
          chunk 1 text run 1 at (10.00,340.00) startOffset 0 endOffset 16 width 45.00: "$Revision: 1.7 $"
    RenderSVGPath {rect} at (0,0) size 800x600 [stroke={[type=SOLID] [color=#000000]}] [x=1.00] [y=1.00] [width=478.00] [height=358.00]
    RenderSVGContainer {g} at (0,0) size 800x40
      RenderSVGPath {rect} at (0,0) size 800x37 [stroke={[type=SOLID] [color=#000000]}] [fill={[type=SOLID] [color=#FF0000]}] [x=1.00] [y=1.00] [width=478.00] [height=20.00]
      RenderSVGText {text} at (206,0) size 68x23 contains 1 chunk(s)
        RenderSVGInlineText {#text} at (0,0) size 68x23
          chunk 1 (middle anchor) text run 1 at (206.40,18.00) startOffset 0 endOffset 5 width 67.20: "DRAFT"
