layer at (0,0) size 480x360
  RenderView at (0,0) size 480x360
layer at (0,0) size 480x360
  RenderSVGRoot {svg} at (0,0) size 480x360
    RenderSVGContainer {g} at (55,22) size 374x275
      RenderSVGContainer {g} at (55,22) size 374x275 [transform={m=((1.10,0.00)(0.00,1.10)) t=(55.00,22.00)}]
        RenderSVGPath {rect} at (55,22) size 110x110 [fill={[type=SOLID] [color=#000000]}] [x=0.00] [y=0.00] [width=100.00] [height=100.00]
        RenderSVGPath {rect} at (55,187) size 110x110 [fill={[type=SOLID] [color=#000000]}] [x=0.00] [y=150.00] [width=100.00] [height=100.00]
        RenderSVGPath {rect} at (187,104) size 110x111 [fill={[type=SOLID] [color=#000000]}] [x=120.00] [y=75.00] [width=100.00] [height=100.00]
        RenderSVGContainer {g} at (319,22) size 110x110
          RenderSVGPath {rect} at (319,22) size 110x110 [fill={[type=SOLID] [color=#000000]}] [x=240.00] [y=0.00] [width=100.00] [height=100.00]
        RenderSVGContainer {g} at (319,187) size 110x110
          RenderSVGPath {rect} at (319,187) size 110x110 [fill={[type=SOLID] [color=#000000]}] [x=240.00] [y=150.00] [width=100.00] [height=100.00]
        RenderSVGContainer {g} at (70,68) size 325x102
          RenderSVGText {text} at (14,117) size 72x17 contains 1 chunk(s)
            RenderSVGInlineText {#text} at (0,0) size 72x17
              chunk 1 (middle anchor) text run 1 at (14.09,130.00) startOffset 0 endOffset 12 width 71.82: "currentColor"
          RenderSVGText {text} at (154,42) size 32x17 contains 1 chunk(s)
            RenderSVGInlineText {#text} at (0,0) size 32x17
              chunk 1 (middle anchor) text run 1 at (154.09,55.00) startOffset 0 endOffset 5 width 31.82: "green"
          RenderSVGText {text} at (271,117) size 38x17 contains 1 chunk(s)
            RenderSVGInlineText {#text} at (0,0) size 38x17
              chunk 1 (middle anchor) text run 1 at (271.82,130.00) startOffset 0 endOffset 7 width 36.36: "inherit"
    RenderSVGText {text} at (10,304) size 264x45 contains 1 chunk(s)
      RenderSVGInlineText {#text} at (0,0) size 264x45
        chunk 1 text run 1 at (10.00,340.00) startOffset 0 endOffset 16 width 264.00: "$Revision: 1.4 $"
    RenderSVGPath {rect} at (0,0) size 480x360 [stroke={[type=SOLID] [color=#000000]}] [x=1.00] [y=1.00] [width=478.00] [height=358.00]
