layer at (0,0) size 800x600
  RenderView at (0,0) size 800x600
layer at (0,0) size 450x500
  RenderSVGRoot {svg} at (49,25) size 329x440
    RenderSVGHiddenContainer {defs} at (0,0) size 0x0
      RenderSVGResourcePattern {pattern} [id="svgPattern"] [patternUnits=userSpaceOnUse] [patternContentUnits=userSpaceOnUse]
        RenderSVGContainer {g} at (0,0) size 10x10
          RenderSVGPath {rect} at (0,0) size 5x5 [fill={[type=SOLID] [color=#FF0000]}] [x=0.00] [y=0.00] [width=5.00] [height=5.00]
          RenderSVGPath {rect} at (5,5) size 5x5 [fill={[type=SOLID] [color=#FF0000]}] [x=5.00] [y=5.00] [width=5.00] [height=5.00]
        RenderSVGContainer {g} at (0,0) size 10x10
          RenderSVGPath {rect} at (0,5) size 5x5 [fill={[type=SOLID] [color=#000000]}] [x=0.00] [y=5.00] [width=5.00] [height=5.00]
          RenderSVGPath {rect} at (5,0) size 5x5 [fill={[type=SOLID] [color=#000000]}] [x=5.00] [y=0.00] [width=5.00] [height=5.00]
    RenderSVGContainer {g} at (49,25) size 329x440
      RenderSVGText {text} at (155,25) size 140x19 contains 1 chunk(s)
        RenderSVGInlineText {#text} at (0,0) size 140x19
          chunk 1 (middle anchor) text run 1 at (155.50,40.00) startOffset 0 endOffset 20 width 139.00: "Text decoration test"
      RenderSVGContainer {g} at (49,82) size 329x383
        RenderSVGContainer {g} at (50,82) size 327x23
          RenderSVGText {text} at (50,82) size 81x23 contains 1 chunk(s)
            RenderSVGInlineText {#text} at (0,0) size 81x23
              chunk 1 text run 1 at (50.00,100.00) startOffset 0 endOffset 9 width 81.00: "Underline"
          RenderSVGText {text} at (170,82) size 71x23 contains 1 chunk(s)
            RenderSVGInlineText {#text} at (0,0) size 71x23
              chunk 1 text run 1 at (170.00,100.00) startOffset 0 endOffset 8 width 71.00: "Overline"
          RenderSVGText {text} at (270,82) size 107x23 contains 1 chunk(s)
            RenderSVGInlineText {#text} at (0,0) size 107x23
              chunk 1 text run 1 at (270.00,100.00) startOffset 0 endOffset 12 width 107.00: "Line-through"
        RenderSVGContainer {g} at (49,121) size 329x25
          RenderSVGText {text} at (50,122) size 81x23 contains 1 chunk(s)
            RenderSVGInlineText {#text} at (0,0) size 81x23
              chunk 1 text run 1 at (50.00,140.00) startOffset 0 endOffset 9 width 81.00: "Underline"
          RenderSVGText {text} at (170,122) size 71x23 contains 1 chunk(s)
            RenderSVGInlineText {#text} at (0,0) size 71x23
              chunk 1 text run 1 at (170.00,140.00) startOffset 0 endOffset 8 width 71.00: "Overline"
          RenderSVGText {text} at (270,122) size 107x23 contains 1 chunk(s)
            RenderSVGInlineText {#text} at (0,0) size 107x23
              chunk 1 text run 1 at (270.00,140.00) startOffset 0 endOffset 12 width 107.00: "Line-through"
        RenderSVGContainer {g} at (50,162) size 327x23
          RenderSVGText {text} at (50,162) size 81x23 contains 1 chunk(s)
            RenderSVGInlineText {#text} at (0,0) size 81x23
              chunk 1 text run 1 at (50.00,180.00) startOffset 0 endOffset 9 width 81.00: "Underline"
          RenderSVGText {text} at (170,162) size 71x23 contains 1 chunk(s)
            RenderSVGInlineText {#text} at (0,0) size 71x23
              chunk 1 text run 1 at (170.00,180.00) startOffset 0 endOffset 8 width 71.00: "Overline"
          RenderSVGText {text} at (270,162) size 107x23 contains 1 chunk(s)
            RenderSVGInlineText {#text} at (0,0) size 107x23
              chunk 1 text run 1 at (270.00,180.00) startOffset 0 endOffset 12 width 107.00: "Line-through"
        RenderSVGText {text} at (50,202) size 187x23 contains 1 chunk(s)
          RenderSVGInlineText {#text} at (0,0) size 187x23
            chunk 1 text run 1 at (50.00,220.00) startOffset 0 endOffset 22 width 187.00: "Underline and overline"
        RenderSVGText {text} at (50,242) size 298x23 contains 1 chunk(s)
          RenderSVGInlineText {#text} at (0,0) size 298x23
            chunk 1 text run 1 at (50.00,260.00) startOffset 0 endOffset 36 width 298.00: "Underline, overline and line-through"
        RenderSVGText {text} at (50,272) size 187x33 contains 1 chunk(s)
          RenderSVGInlineText {#text} at (0,10) size 103x23
            chunk 1 text run 1 at (50.00,300.00) startOffset 0 endOffset 12 width 103.00: "Decorations "
          RenderSVGTSpan {tspan} at (0,0) size 36x23
            RenderSVGInlineText {#text} at (103,0) size 36x23
              chunk 1 text run 1 at (153.00,290.00) startOffset 0 endOffset 4 width 36.00: "with"
          RenderSVGTSpan {tspan} at (0,0) size 48x23
            RenderSVGInlineText {#text} at (139,10) size 48x23
              chunk 1 text run 1 at (189.00,300.00) startOffset 0 endOffset 6 width 48.00: " tspan"
        RenderSVGText {text} at (50,322) size 222x23 contains 1 chunk(s)
          RenderSVGInlineText {#text} at (0,0) size 138x23
            chunk 1 text run 1 at (50.00,340.00) startOffset 0 endOffset 17 width 138.00: "Transparent text "
          RenderSVGTSpan {tspan} at (0,0) size 36x23
            RenderSVGInlineText {#text} at (138,0) size 36x23
              chunk 1 text run 1 at (188.00,340.00) startOffset 0 endOffset 4 width 36.00: "with"
          RenderSVGInlineText {#text} at (174,0) size 48x23
            chunk 1 text run 1 at (224.00,340.00) startOffset 0 endOffset 6 width 48.00: " tspan"
        RenderSVGText {text} at (50,362) size 220x23 contains 1 chunk(s)
          RenderSVGInlineText {#text} at (0,0) size 54x23
            chunk 1 text run 1 at (50.00,380.00) startOffset 0 endOffset 6 width 54.00: "Tspan "
          RenderSVGTSpan {tspan} at (0,0) size 75x23
            RenderSVGInlineText {#text} at (54,0) size 75x23
              chunk 1 text run 1 at (104.00,380.00) startOffset 0 endOffset 8 width 75.00: "with own"
          RenderSVGInlineText {#text} at (129,0) size 91x23
            chunk 1 text run 1 at (179.00,380.00) startOffset 0 endOffset 11 width 91.00: " decoration"
        RenderSVGText {text} at (50,402) size 206x23 contains 1 chunk(s)
          RenderSVGInlineText {#text} at (0,0) size 54x23
            chunk 1 text run 1 at (50.00,420.00) startOffset 0 endOffset 6 width 54.00: "Tspan "
          RenderSVGTSpan {tspan} at (0,0) size 61x23
            RenderSVGInlineText {#text} at (54,0) size 61x23
              chunk 1 text run 1 at (104.00,420.00) startOffset 0 endOffset 7 width 61.00: "with no"
          RenderSVGInlineText {#text} at (115,0) size 91x23
            chunk 1 text run 1 at (165.00,420.00) startOffset 0 endOffset 11 width 91.00: " decoration"
        RenderSVGText {text} at (50,442) size 203x23 contains 1 chunk(s)
          RenderSVGInlineText {#text} at (0,0) size 61x23
            chunk 1 text run 1 at (50.00,460.00) startOffset 0 endOffset 7 width 61.00: "Nested "
          RenderSVGTSpan {tspan} at (0,0) size 142x23
            RenderSVGInlineText {#text} at (61,0) size 48x23
              chunk 1 text run 1 at (111.00,460.00) startOffset 0 endOffset 6 width 48.00: "tspan "
            RenderSVGTSpan {tspan} at (0,0) size 45x23
              RenderSVGInlineText {#text} at (109,0) size 45x23
                chunk 1 text run 1 at (159.00,460.00) startOffset 0 endOffset 5 width 45.00: "decor"
            RenderSVGInlineText {#text} at (154,0) size 49x23
              chunk 1 text run 1 at (204.00,460.00) startOffset 0 endOffset 6 width 49.00: "ations"
    RenderSVGContainer {use} at (0,0) size 0x0
      RenderSVGContainer {g} at (0,0) size 0x0
