layer at (0,0) size 800x600
  RenderView at (0,0) size 800x600
layer at (0,0) size 800x600
  RenderBlock {HTML} at (0,0) size 800x600
    RenderBody {BODY} at (8,8) size 784x584
      RenderBlock {DIV} at (0,0) size 784x44
        RenderText {#text} at (0,0) size 779x44
          text run at (0,0) width 779: "This is currently broken, and this text will have to be updated once it is fixed. There should be two boxes below, but"
          text run at (0,22) width 189: "right now, there is only one:"
      RenderBlock (anonymous) at (0,44) size 784x22
        RenderInline {A} at (0,0) size 0x0 [color=#0000EE] [border: (3px solid #0000EE)]
          RenderText {#text} at (0,0) size 0x0
        RenderText {#text} at (0,0) size 0x0
        RenderInline {A} at (0,0) size 27x28 [color=#0000EE] [border: (3px solid #0000EE)]
          RenderText {#text} at (8,0) size 12x22
            text run at (8,0) width 12: "A"
        RenderText {#text} at (0,0) size 0x0
