layer at (0,0) size 784x648
  RenderView at (0,0) size 784x600
layer at (0,0) size 784x648
  RenderBlock {HTML} at (0,0) size 784x648
    RenderBody {BODY} at (8,8) size 768x632
      RenderInline {SPAN} at (0,0) size 709x158
        RenderText {#text} at (0,0) size 709x158
          text run at (0,0) width 709: "fin LYAWA (No kerning or"
          text run at (0,79) width 244: "ligatures)"
      RenderText {#text} at (244,121) size 4x22
        text run at (244,121) width 4: " "
      RenderBR {BR} at (248,137) size 0x0
      RenderInline {SPAN} at (0,0) size 709x158
        RenderText {#text} at (0,158) size 709x158
          text run at (0,158) width 709: "fin LYAWA (No kerning or"
          text run at (0,237) width 244: "ligatures)"
      RenderText {#text} at (244,279) size 4x22
        text run at (244,279) width 4: " "
      RenderBR {BR} at (248,295) size 0x0
      RenderInline {SPAN} at (0,0) size 674x158
        RenderText {#text} at (0,316) size 674x158
          text run at (0,316) width 674: "fin LYAWA (Kerning and"
          text run at (0,395) width 244: "ligatures)"
      RenderText {#text} at (244,437) size 4x22
        text run at (244,437) width 4: " "
      RenderBR {BR} at (248,453) size 0x0
      RenderInline {SPAN} at (0,0) size 674x158
        RenderText {#text} at (0,474) size 674x158
          text run at (0,474) width 674: "fin LYAWA (Kerning and"
          text run at (0,553) width 244: "ligatures)"
      RenderText {#text} at (244,595) size 4x22
        text run at (244,595) width 4: " "
      RenderBR {BR} at (248,611) size 0x0
