layer at (0,0) size 480x360
  RenderView at (0,0) size 480x360
layer at (0,0) size 480x360
  RenderSVGRoot {svg} at (0,0) size 480x360
    RenderSVGHiddenContainer {defs} at (0,0) size 0x0
    RenderSVGContainer {g} at (10,28) size 297x126
      RenderSVGText {text} at (10,28) size 297x16 contains 1 chunk(s)
        RenderSVGInlineText {#text} at (0,0) size 297x16
          chunk 1 text run 1 at (10.00,40.00) startOffset 0 endOffset 56 width 297.00: "Test pointer-events=\"painted\" with paint server fallback"
      RenderSVGPath {rect} at (10,80) size 50x50 [fill={[type=SOLID] [color=#000000]}] [x=10.00] [y=80.00] [width=50.00] [height=50.00]
      RenderSVGPath {rect} at (10,80) size 50x50 [x=10.00] [y=80.00] [width=50.00] [height=50.00]
      RenderSVGContainer {g} at (10,137) size 257x17
        RenderSVGText {text} at (10,137) size 257x17 contains 1 chunk(s)
          RenderSVGInlineText {#text} at (0,0) size 257x17
            chunk 1 text run 1 at (10.00,150.00) startOffset 0 endOffset 44 width 257.00: "Move the pointing device over the rectangle."
    RenderSVGContainer {g} at (10,309) size 231x41
      RenderSVGText {text} at (10,309) size 231x41 contains 1 chunk(s)
        RenderSVGInlineText {#text} at (0,0) size 231x41
          chunk 1 text run 1 at (10.00,340.00) startOffset 0 endOffset 16 width 231.00: "$Revision: 1.4 $"
    RenderSVGPath {rect} at (0,0) size 480x360 [stroke={[type=SOLID] [color=#000000]}] [x=1.00] [y=1.00] [width=478.00] [height=358.00]
