layer at (0,0) size 480x360
  RenderView at (0,0) size 480x360
layer at (0,0) size 480x360
  RenderSVGRoot {svg} at (0,0) size 480x360
    RenderSVGHiddenContainer {defs} at (0,0) size 0x0
    RenderSVGContainer {g} at (10,7) size 365x297
      RenderSVGContainer {g} at (10,7) size 365x297
        RenderSVGContainer {g} at (16,7) size 359x159 [transform={m=((1.00,0.00)(0.00,1.00)) t=(70.00,-60.00)}]
          RenderSVGText {text} at (30,130) size 345x27 contains 1 chunk(s)
            RenderSVGInlineText {#text} at (0,0) size 345x27
              chunk 1 text run 1 at (30.00,150.00) startOffset 0 endOffset 37 width 345.00: "Rotated Text for testing SVGLocatable"
          RenderSVGText {text} at (100,110) size 309x26 contains 1 chunk(s)
            RenderSVGInlineText {#text} at (0,0) size 309x26
              chunk 1 text run 1 at (100.00,130.00) startOffset 0 endOffset 35 width 308.57: "Some other text with id 'otherText'"
          RenderSVGViewportContainer {svg} at (275,45) size 100x100
            RenderSVGPath {circle} at (275,45) size 100x100 [fill={[type=SOLID] [color=#0000FF]}] [cx=0.00] [cy=0.00] [r=50.00]
        RenderSVGText {text} at (10,188) size 280x16 contains 1 chunk(s)
          RenderSVGInlineText {#text} at (0,0) size 280x16
            chunk 1 text run 1 at (10.00,200.00) startOffset 0 endOffset 50 width 280.00: ".getScreenCTM(): 0.42,0.42,-0.42,0.42,70.00,-60.00"
        RenderSVGText {text} at (10,208) size 241x16 contains 1 chunk(s)
          RenderSVGInlineText {#text} at (0,0) size 241x16
            chunk 1 text run 1 at (10.00,220.00) startOffset 0 endOffset 44 width 241.00: ".getCTM(): 0.42,0.42,-0.42,0.42,70.00,-60.00"
        RenderSVGText {text} at (10,228) size 311x16 contains 1 chunk(s)
          RenderSVGInlineText {#text} at (0,0) size 311x16
            chunk 1 text run 1 at (10.00,240.00) startOffset 0 endOffset 56 width 311.00: ".getTransformToElement(): 0.42,0.42,-0.42,0.42,0.00,0.00"
        RenderSVGText {text} at (10,248) size 345x16 contains 1 chunk(s)
          RenderSVGInlineText {#text} at (0,0) size 345x16
            chunk 1 text run 1 at (10.00,260.00) startOffset 0 endOffset 65 width 345.00: ".getBBox() for 'blueCircle': .x=-50,.y=-50,.width=100,.height=100"
        RenderSVGText {text} at (10,268) size 259x16 contains 1 chunk(s)
          RenderSVGInlineText {#text} at (0,0) size 259x16
            chunk 1 text run 1 at (10.00,280.00) startOffset 0 endOffset 47 width 259.00: ".farthestViewportElement of blueCircle=svg-root"
        RenderSVGText {text} at (10,288) size 278x16 contains 1 chunk(s)
          RenderSVGInlineText {#text} at (0,0) size 278x16
            chunk 1 text run 1 at (10.00,300.00) startOffset 0 endOffset 47 width 278.00: ".nearestViewportElement of blueCircle=nestedSVG"
    RenderSVGContainer {g} at (10,309) size 231x41
      RenderSVGText {text} at (10,309) size 231x41 contains 1 chunk(s)
        RenderSVGInlineText {#text} at (0,0) size 231x41
          chunk 1 text run 1 at (10.00,340.00) startOffset 0 endOffset 16 width 231.00: "$Revision: 1.6 $"
    RenderSVGPath {rect} at (0,0) size 480x360 [stroke={[type=SOLID] [color=#000000]}] [x=1.00] [y=1.00] [width=478.00] [height=358.00]
