layer at (0,0) size 800x600
  RenderView at (0,0) size 800x600
layer at (0,0) size 800x51
  RenderBlock {html} at (0,0) size 800x51 [bgcolor=#008000]
    RenderBody {body} at (8,16) size 784x19
      RenderBlock {p} at (0,0) size 784x19
        RenderText {#text} at (0,0) size 170x19
          text run at (0,0) width 170: "This page should be green."
