layer at (0,0) size 800x600
  RenderView at (0,0) size 800x600
layer at (0,0) size 800x600
  RenderSVGRoot {svg} at (16,55) size 208x87
    RenderSVGContainer {g} at (16,55) size 208x87
      RenderSVGText {text} at (10,33) size 124x22 contains 1 chunk(s)
        RenderSVGTSpan {tspan} at (0,0) size 124x22
          RenderSVGInlineText {#text} at (0,0) size 124x22
            chunk 1 text run 1 at (10.00,50.00) startOffset 0 endOffset 17 width 123.60 LTR override: "\x{646}\x{634}\x{627}\x{637} \x{627}\x{644}\x{62A}\x{62F}\x{648}\x{64A}\x{644}\x{60C} W3C"
      RenderSVGText {text} at (10,63) size 124x22 contains 1 chunk(s)
        RenderSVGTSpan {tspan} at (0,0) size 124x22
          RenderSVGInlineText {#text} at (0,0) size 124x22
            chunk 1 text run 1 at (10.00,80.00) startOffset 0 endOffset 12 width 71.40 RTL: "\x{646}\x{634}\x{627}\x{637} \x{627}\x{644}\x{62A}\x{62F}\x{648}\x{64A}\x{644}"
            chunk 1 text run 1 at (81.40,80.00) startOffset 0 endOffset 5 width 52.20: "\x{60C} W3C"
      RenderSVGContainer {g} at (16,55) size 208x87
        RenderSVGPath {svg:rect} at (16,55) size 131x37 [fill={[type=SOLID] [color=#FF0000] [opacity=0.40]}] [x=10.00] [y=33.20] [width=77.40] [height=21.00]
        RenderSVGPath {svg:rect} at (153,55) size 71x37 [fill={[type=SOLID] [color=#008000] [opacity=0.40]}] [x=92.20] [y=33.20] [width=41.40] [height=21.00]
        RenderSVGPath {svg:rect} at (16,105) size 131x37 [fill={[type=SOLID] [color=#FF0000] [opacity=0.40]}] [x=10.00] [y=63.20] [width=77.40] [height=21.00]
        RenderSVGPath {svg:rect} at (153,105) size 71x37 [fill={[type=SOLID] [color=#008000] [opacity=0.40]}] [x=92.20] [y=63.20] [width=41.40] [height=21.00]
