layer at (0,0) size 800x600
  RenderView at (0,0) size 800x600
layer at (0,0) size 400x200
  RenderSVGRoot {svg} at (20,0) size 48x27
    RenderSVGText {text} at (20,0) size 48x27 contains 1 chunk(s)
      RenderSVGInlineText {#text} at (0,0) size 48x27
        chunk 1 text run 1 at (20.00,20.00) startOffset 0 endOffset 4 width 48.00: "PASS"
