layer at (0,0) size 800x600
  RenderView at (0,0) size 800x600
layer at (0,0) size 800x600
  RenderSVGRoot {svg} at (0,0) size 231x229
    RenderSVGHiddenContainer {defs} at (0,0) size 0x0
      RenderSVGResourceClipper {clipPath} [id="clip0"] [clipPathUnits=userSpaceOnUse]
        RenderSVGPath {circle} at (50,50) size 100x100 [fill={[type=SOLID] [color=#000000]}] [cx=100.00] [cy=100.00] [r=50.00]
      RenderSVGResourceClipper {clipPath} [id="clip1"] [clipPathUnits=objectBoundingBox]
        RenderSVGPath {circle} at (0,0) size 1x1 [fill={[type=SOLID] [color=#000000]}] [cx=0.00] [cy=0.00] [r=0.50]
        RenderSVGPath {circle} at (0,0) size 1x2 [fill={[type=SOLID] [color=#000000]}] [cx=0.00] [cy=1.00] [r=0.50]
      RenderSVGResourceClipper {clipPath} [id="clip2"] [clipPathUnits=userSpaceOnUse]
        RenderSVGPath {circle} at (0,0) size 2x1 [transform={m=((0.01,0.00)(0.00,0.01)) t=(0.00,0.00)}] [fill={[type=SOLID] [color=#000000]}] [cx=100.00] [cy=0.00] [r=50.00]
        RenderSVGPath {rect} at (0,0) size 2x2 [transform={m=((0.01,0.00)(0.00,0.01)) t=(0.00,0.00)}] [fill={[type=SOLID] [color=#000000]}] [x=0.00] [y=0.00] [width=100.00] [height=100.00]
          [clipPath="clip0"] RenderSVGResourceClipper {clipPath} at (50,50) size 100x100
      RenderSVGResourceClipper {clipPath} [id="clip"] [clipPathUnits=objectBoundingBox]
        RenderSVGPath {rect} at (0,0) size 1x1 [fill={[type=SOLID] [color=#000000]}] [x=0.00] [y=0.00] [width=1.00] [height=1.00]
          [clipPath="clip1"] RenderSVGResourceClipper {clipPath} at (-0.50,-0.50) size 1x2
        RenderSVGPath {rect} at (0,0) size 1x1 [fill={[type=SOLID] [color=#000000]}] [x=0.00] [y=0.00] [width=1.00] [height=1.00]
          [clipPath="clip2"] RenderSVGResourceClipper {clipPath} at (0.50,-0.50) size 1.00x1.50
      RenderSVGResourceMasker {mask} [id="mask1"] [maskUnits=objectBoundingBox] [maskContentUnits=objectBoundingBox]
        RenderSVGPath {rect} at (0,0) size 1x1 [fill={[type=SOLID] [color=#FFFFFF]}] [x=0.00] [y=0.00] [width=1.00] [height=1.00]
        RenderSVGPath {rect} at (0,0) size 1x1 [fill={[type=SOLID] [color=#000000]}] [x=0.00] [y=0.00] [width=1.00] [height=1.00]
          [clipPath="clip"] RenderSVGResourceClipper {clipPath} at (0,0) size 1x1
    RenderSVGText {text} at (19,211) size 212x18 contains 1 chunk(s)
      RenderSVGInlineText {#text} at (0,0) size 212x18
        chunk 1 (middle anchor) text run 1 at (19.00,225.00) startOffset 0 endOffset 33 width 212.00: "Both shapes should look identical"
    RenderSVGPath {circle} at (0,0) size 100x100 [fill={[type=SOLID] [color=#000000]}] [cx=50.00] [cy=50.00] [r=50.00]
      [masker="mask1"] RenderSVGResourceMasker {mask} at (0,0) size 100x100
    RenderSVGPath {circle} at (100,100) size 100x100 [fill={[type=SOLID] [color=#000000]}] [cx=150.00] [cy=150.00] [r=50.00]
      [masker="mask1"] RenderSVGResourceMasker {mask} at (100,100) size 100x100
