layer at (0,0) size 800x600
  RenderView at (0,0) size 800x600
layer at (0,0) size 450x500
  RenderSVGRoot {svg} at (14,34) size 417x367
    RenderSVGText {text} at (105,34) size 240x21 contains 1 chunk(s)
      RenderSVGInlineText {#text} at (0,0) size 240x21
        chunk 1 (middle anchor) text run 1 at (105.00,50.00) startOffset 0 endOffset 34 width 240.00: "patternUnits / patternContentUnits"
    RenderSVGText {text} at (168,59) size 114x21 contains 1 chunk(s)
      RenderSVGInlineText {#text} at (0,0) size 114x21
        chunk 1 (middle anchor) text run 1 at (168.00,75.00) startOffset 0 endOffset 15 width 114.00: "pattern viewBox"
    RenderSVGContainer {g} at (14,108) size 417x293
      RenderSVGHiddenContainer {defs} at (0,0) size 0x0
        RenderSVGResourcePattern {pattern} [id="pattern1"] [patternUnits=objectBoundingBox] [patternContentUnits=userSpaceOnUse]
          RenderSVGPath {circle} at (0,0) size 20x20 [fill={[type=SOLID] [color=#FF0000]}] [cx=10.00] [cy=10.00] [r=10.00]
          RenderSVGPath {rect} at (10,10) size 15x15 [fill={[type=SOLID] [color=#008000]}] [x=10.00] [y=10.00] [width=15.00] [height=15.00]
        RenderSVGResourcePattern {pattern} [id="pattern2"] [patternUnits=objectBoundingBox] [patternContentUnits=userSpaceOnUse]
          RenderSVGPath {circle} at (0,0) size 20x20 [fill={[type=SOLID] [color=#FF0000]}] [cx=10.00] [cy=10.00] [r=10.00]
          RenderSVGPath {rect} at (10,10) size 15x15 [fill={[type=SOLID] [color=#008000]}] [x=10.00] [y=10.00] [width=15.00] [height=15.00]
        RenderSVGResourcePattern {pattern} [id="pattern3"] [patternUnits=userSpaceOnUse] [patternContentUnits=userSpaceOnUse]
          RenderSVGPath {circle} at (0,0) size 20x20 [fill={[type=SOLID] [color=#FF0000]}] [cx=10.00] [cy=10.00] [r=10.00]
          RenderSVGPath {rect} at (10,10) size 15x15 [fill={[type=SOLID] [color=#008000]}] [x=10.00] [y=10.00] [width=15.00] [height=15.00]
        RenderSVGResourcePattern {pattern} [id="pattern4"] [patternUnits=objectBoundingBox] [patternContentUnits=objectBoundingBox]
          RenderSVGPath {circle} at (0,0) size 1x1 [fill={[type=SOLID] [color=#FF0000]}] [cx=0.25] [cy=0.33] [r=0.25]
          RenderSVGPath {rect} at (0,0) size 1x1 [fill={[type=SOLID] [color=#008000]}] [x=0.25] [y=0.33] [width=0.38] [height=0.50]
        RenderSVGResourcePattern {pattern} [id="pattern5"] [patternUnits=objectBoundingBox] [patternContentUnits=objectBoundingBox]
          RenderSVGPath {circle} at (0,0) size 1x1 [fill={[type=SOLID] [color=#FF0000]}] [cx=0.25] [cy=0.33] [r=0.25]
          RenderSVGPath {rect} at (0,0) size 1x1 [fill={[type=SOLID] [color=#008000]}] [x=0.25] [y=0.33] [width=0.38] [height=0.50]
        RenderSVGResourcePattern {pattern} [id="pattern6"] [patternUnits=userSpaceOnUse] [patternContentUnits=objectBoundingBox]
          RenderSVGPath {circle} at (0,0) size 1x1 [fill={[type=SOLID] [color=#FF0000]}] [cx=0.25] [cy=0.33] [r=0.25]
          RenderSVGPath {rect} at (0,0) size 1x1 [fill={[type=SOLID] [color=#008000]}] [x=0.25] [y=0.33] [width=0.38] [height=0.50]
        RenderSVGResourcePattern {pattern} [id="pattern7"] [patternUnits=userSpaceOnUse] [patternContentUnits=objectBoundingBox]
          RenderSVGPath {circle} at (0,0) size 40x40 [fill={[type=SOLID] [color=#FF0000]}] [cx=20.00] [cy=20.00] [r=20.00]
        RenderSVGResourcePattern {pattern} [id="pattern8"] [patternUnits=userSpaceOnUse] [patternContentUnits=objectBoundingBox]
          RenderSVGPath {circle} at (0,0) size 40x40 [fill={[type=SOLID] [color=#FF0000]}] [cx=20.00] [cy=20.00] [r=20.00]
        RenderSVGResourceRadialGradient {radialGradient} [id="redToYellow"] [gradientUnits=objectBoundingBox] [center=(0.50,0.50)] [focal=(0.50,0.50)] [radius=0.50]
          RenderSVGGradientStop {stop} [offset=0.00] [color=#FF0000]
          RenderSVGGradientStop {stop} [offset=1.00] [color=#FFFF00]
        RenderSVGResourcePattern {pattern} [id="pattern9"] [patternUnits=userSpaceOnUse] [patternContentUnits=objectBoundingBox]
          RenderSVGPath {circle} at (0,0) size 60x60 [fill={[type=RADIAL-GRADIENT] [id="redToYellow"]}] [cx=20.00] [cy=20.00] [r=40.00]
      RenderSVGContainer {g} at (14,108) size 417x293 [transform={m=((1.00,0.00)(0.00,1.00)) t=(-5.00,100.00)}]
        RenderSVGContainer {g} at (14,108) size 141x45
          RenderSVGPath {rect} at (14,119) size 42x32 [stroke={[type=SOLID] [color=#000000]}] [fill={[type=PATTERN] [id="pattern1"]}] [x=20.00] [y=20.00] [width=40.00] [height=30.00]
          RenderSVGContainer {g} at (15,108) size 140x45 [transform={m=((1.00,0.00)(0.00,1.00)) t=(20.00,20.00)}]
            RenderSVGText {text} at (0,-12) size 41x14 contains 1 chunk(s)
              RenderSVGInlineText {#text} at (0,0) size 41x14
                chunk 1 text run 1 at (0.00,-2.00) startOffset 0 endOffset 9 width 41.00: "#pattern1"
            RenderSVGContainer {g} at (65,119) size 90x34 [transform={m=((1.00,0.00)(0.00,1.00)) t=(50.00,9.00)}]
              RenderSVGText {text} at (0,-10) size 90x14 contains 1 chunk(s)
                RenderSVGInlineText {#text} at (0,0) size 90x14
                  chunk 1 text run 1 at (0.00,0.00) startOffset 0 endOffset 20 width 90.00: "patternUnits=default"
              RenderSVGText {text} at (0,0) size 90x14 contains 1 chunk(s)
                RenderSVGInlineText {#text} at (0,0) size 90x14
                  chunk 1 text run 1 at (0.00,10.00) startOffset 0 endOffset 20 width 90.00: "contentUnits=default"
              RenderSVGText {text} at (0,10) size 49x14 contains 1 chunk(s)
                RenderSVGInlineText {#text} at (0,0) size 49x14
                  chunk 1 text run 1 at (0.00,20.00) startOffset 0 endOffset 10 width 49.00: "no viewbox"
        RenderSVGContainer {g} at (14,158) size 197x43
          RenderSVGPath {rect} at (14,169) size 42x32 [stroke={[type=SOLID] [color=#000000]}] [fill={[type=PATTERN] [id="pattern2"]}] [x=20.00] [y=70.00] [width=40.00] [height=30.00]
          RenderSVGContainer {g} at (15,158) size 196x35 [transform={m=((1.00,0.00)(0.00,1.00)) t=(20.00,70.00)}]
            RenderSVGText {text} at (0,-12) size 41x14 contains 1 chunk(s)
              RenderSVGInlineText {#text} at (0,0) size 41x14
                chunk 1 text run 1 at (0.00,-2.00) startOffset 0 endOffset 9 width 41.00: "#pattern2"
            RenderSVGContainer {g} at (65,169) size 146x24 [transform={m=((1.00,0.00)(0.00,1.00)) t=(50.00,9.00)}]
              RenderSVGText {text} at (0,-10) size 146x14 contains 1 chunk(s)
                RenderSVGInlineText {#text} at (0,0) size 146x14
                  chunk 1 text run 1 at (0.00,0.00) startOffset 0 endOffset 30 width 146.00: "patternUnits=objectBoundingBox"
              RenderSVGText {text} at (0,0) size 90x14 contains 1 chunk(s)
                RenderSVGInlineText {#text} at (0,0) size 90x14
                  chunk 1 text run 1 at (0.00,10.00) startOffset 0 endOffset 20 width 90.00: "contentUnits=default"
        RenderSVGContainer {g} at (14,208) size 183x45
          RenderSVGPath {rect} at (14,219) size 42x32 [stroke={[type=SOLID] [color=#000000]}] [fill={[type=PATTERN] [id="pattern3"]}] [x=20.00] [y=120.00] [width=40.00] [height=30.00]
          RenderSVGContainer {g} at (15,208) size 182x45 [transform={m=((1.00,0.00)(0.00,1.00)) t=(20.00,120.00)}]
            RenderSVGText {text} at (0,-12) size 41x14 contains 1 chunk(s)
              RenderSVGInlineText {#text} at (0,0) size 41x14
                chunk 1 text run 1 at (0.00,-2.00) startOffset 0 endOffset 9 width 41.00: "#pattern3"
            RenderSVGContainer {g} at (65,219) size 132x34 [transform={m=((1.00,0.00)(0.00,1.00)) t=(50.00,9.00)}]
              RenderSVGText {text} at (0,-10) size 132x14 contains 1 chunk(s)
                RenderSVGInlineText {#text} at (0,0) size 132x14
                  chunk 1 text run 1 at (0.00,0.00) startOffset 0 endOffset 27 width 132.00: "patternUnits=userSpaceOnUse"
              RenderSVGText {text} at (0,0) size 90x14 contains 1 chunk(s)
                RenderSVGInlineText {#text} at (0,0) size 90x14
                  chunk 1 text run 1 at (0.00,10.00) startOffset 0 endOffset 20 width 90.00: "contentUnits=default"
              RenderSVGText {text} at (0,10) size 70x14 contains 1 chunk(s)
                RenderSVGInlineText {#text} at (0,0) size 70x14
                  chunk 1 text run 1 at (0.00,20.00) startOffset 0 endOffset 16 width 70.00: "overflow=visible"
        RenderSVGContainer {g} at (14,258) size 197x45
          RenderSVGPath {rect} at (14,269) size 42x32 [stroke={[type=SOLID] [color=#000000]}] [fill={[type=PATTERN] [id="pattern4"]}] [x=20.00] [y=170.00] [width=40.00] [height=30.00]
          RenderSVGContainer {g} at (15,258) size 196x45 [transform={m=((1.00,0.00)(0.00,1.00)) t=(20.00,170.00)}]
            RenderSVGText {text} at (0,-12) size 41x14 contains 1 chunk(s)
              RenderSVGInlineText {#text} at (0,0) size 41x14
                chunk 1 text run 1 at (0.00,-2.00) startOffset 0 endOffset 9 width 41.00: "#pattern4"
            RenderSVGContainer {g} at (65,269) size 146x34 [transform={m=((1.00,0.00)(0.00,1.00)) t=(50.00,9.00)}]
              RenderSVGText {text} at (0,-10) size 90x14 contains 1 chunk(s)
                RenderSVGInlineText {#text} at (0,0) size 90x14
                  chunk 1 text run 1 at (0.00,0.00) startOffset 0 endOffset 20 width 90.00: "patternUnits=default"
              RenderSVGText {text} at (0,0) size 146x14 contains 1 chunk(s)
                RenderSVGInlineText {#text} at (0,0) size 146x14
                  chunk 1 text run 1 at (0.00,10.00) startOffset 0 endOffset 30 width 146.00: "contentUnits=objectBoundingBox"
              RenderSVGText {text} at (0,10) size 70x14 contains 1 chunk(s)
                RenderSVGInlineText {#text} at (0,0) size 70x14
                  chunk 1 text run 1 at (0.00,20.00) startOffset 0 endOffset 16 width 70.00: "overflow=visible"
        RenderSVGContainer {g} at (14,308) size 197x43
          RenderSVGPath {rect} at (14,319) size 42x32 [stroke={[type=SOLID] [color=#000000]}] [fill={[type=PATTERN] [id="pattern5"]}] [x=20.00] [y=220.00] [width=40.00] [height=30.00]
          RenderSVGContainer {g} at (15,308) size 196x35 [transform={m=((1.00,0.00)(0.00,1.00)) t=(20.00,220.00)}]
            RenderSVGText {text} at (0,-12) size 41x14 contains 1 chunk(s)
              RenderSVGInlineText {#text} at (0,0) size 41x14
                chunk 1 text run 1 at (0.00,-2.00) startOffset 0 endOffset 9 width 41.00: "#pattern5"
            RenderSVGContainer {g} at (65,319) size 146x24 [transform={m=((1.00,0.00)(0.00,1.00)) t=(50.00,9.00)}]
              RenderSVGText {text} at (0,-10) size 146x14 contains 1 chunk(s)
                RenderSVGInlineText {#text} at (0,0) size 146x14
                  chunk 1 text run 1 at (0.00,0.00) startOffset 0 endOffset 30 width 146.00: "patternUnits=objectBoundingBox"
              RenderSVGText {text} at (0,0) size 146x14 contains 1 chunk(s)
                RenderSVGInlineText {#text} at (0,0) size 146x14
                  chunk 1 text run 1 at (0.00,10.00) startOffset 0 endOffset 30 width 146.00: "contentUnits=objectBoundingBox"
        RenderSVGContainer {g} at (14,358) size 197x43
          RenderSVGPath {rect} at (14,369) size 42x32 [stroke={[type=SOLID] [color=#000000]}] [fill={[type=PATTERN] [id="pattern6"]}] [x=20.00] [y=270.00] [width=40.00] [height=30.00]
          RenderSVGContainer {g} at (15,358) size 196x35 [transform={m=((1.00,0.00)(0.00,1.00)) t=(20.00,270.00)}]
            RenderSVGText {text} at (0,-12) size 41x14 contains 1 chunk(s)
              RenderSVGInlineText {#text} at (0,0) size 41x14
                chunk 1 text run 1 at (0.00,-2.00) startOffset 0 endOffset 9 width 41.00: "#pattern6"
            RenderSVGContainer {g} at (65,369) size 146x24 [transform={m=((1.00,0.00)(0.00,1.00)) t=(50.00,9.00)}]
              RenderSVGText {text} at (0,-10) size 132x14 contains 1 chunk(s)
                RenderSVGInlineText {#text} at (0,0) size 132x14
                  chunk 1 text run 1 at (0.00,0.00) startOffset 0 endOffset 27 width 132.00: "patternUnits=userSpaceOnUse"
              RenderSVGText {text} at (0,0) size 146x14 contains 1 chunk(s)
                RenderSVGInlineText {#text} at (0,0) size 146x14
                  chunk 1 text run 1 at (0.00,10.00) startOffset 0 endOffset 30 width 146.00: "contentUnits=objectBoundingBox"
        RenderSVGContainer {g} at (219,108) size 203x45
          RenderSVGPath {rect} at (219,119) size 42x32 [stroke={[type=SOLID] [color=#000000]}] [fill={[type=PATTERN] [id="pattern7"]}] [x=225.00] [y=20.00] [width=40.00] [height=30.00]
          RenderSVGContainer {g} at (220,108) size 202x45 [transform={m=((1.00,0.00)(0.00,1.00)) t=(225.00,20.00)}]
            RenderSVGText {text} at (0,-12) size 41x14 contains 1 chunk(s)
              RenderSVGInlineText {#text} at (0,0) size 41x14
                chunk 1 text run 1 at (0.00,-2.00) startOffset 0 endOffset 9 width 41.00: "#pattern7"
            RenderSVGContainer {g} at (270,119) size 152x34 [transform={m=((1.00,0.00)(0.00,1.00)) t=(50.00,9.00)}]
              RenderSVGText {text} at (0,-10) size 132x14 contains 1 chunk(s)
                RenderSVGInlineText {#text} at (0,0) size 132x14
                  chunk 1 text run 1 at (0.00,0.00) startOffset 0 endOffset 27 width 132.00: "patternUnits=userSpaceOnUse"
              RenderSVGText {text} at (0,0) size 146x14 contains 1 chunk(s)
                RenderSVGInlineText {#text} at (0,0) size 146x14
                  chunk 1 text run 1 at (0.00,10.00) startOffset 0 endOffset 30 width 146.00: "contentUnits=objectBoundingBox"
              RenderSVGText {text} at (0,10) size 152x14 contains 1 chunk(s)
                RenderSVGInlineText {#text} at (0,0) size 152x14
                  chunk 1 text run 1 at (0.00,20.00) startOffset 0 endOffset 32 width 152.00: "viewBox preserveAspectRatio=none"
        RenderSVGContainer {g} at (219,158) size 212x43
          RenderSVGPath {rect} at (219,169) size 42x32 [stroke={[type=SOLID] [color=#000000]}] [fill={[type=PATTERN] [id="pattern8"]}] [x=225.00] [y=70.00] [width=40.00] [height=30.00]
          RenderSVGContainer {g} at (220,158) size 211x35 [transform={m=((1.00,0.00)(0.00,1.00)) t=(225.00,70.00)}]
            RenderSVGText {text} at (0,-12) size 41x14 contains 1 chunk(s)
              RenderSVGInlineText {#text} at (0,0) size 41x14
                chunk 1 text run 1 at (0.00,-2.00) startOffset 0 endOffset 9 width 41.00: "#pattern8"
            RenderSVGContainer {g} at (270,169) size 161x24 [transform={m=((1.00,0.00)(0.00,1.00)) t=(50.00,9.00)}]
              RenderSVGText {text} at (0,-10) size 99x14 contains 1 chunk(s)
                RenderSVGInlineText {#text} at (0,0) size 99x14
                  chunk 1 text run 1 at (0.00,0.00) startOffset 0 endOffset 22 width 99.00: "same as pattern#7 with"
              RenderSVGText {text} at (0,0) size 161x14 contains 1 chunk(s)
                RenderSVGInlineText {#text} at (0,0) size 161x14
                  chunk 1 text run 1 at (0.00,10.00) startOffset 0 endOffset 33 width 161.00: "preserveAspectRatio=xMinYmin meet"
        RenderSVGContainer {g} at (219,208) size 211x43
          RenderSVGPath {rect} at (219,219) size 42x32 [stroke={[type=SOLID] [color=#000000]}] [fill={[type=PATTERN] [id="pattern9"]}] [x=225.00] [y=120.00] [width=40.00] [height=30.00]
          RenderSVGContainer {g} at (220,208) size 210x35 [transform={m=((1.00,0.00)(0.00,1.00)) t=(225.00,120.00)}]
            RenderSVGText {text} at (0,-12) size 41x14 contains 1 chunk(s)
              RenderSVGInlineText {#text} at (0,0) size 41x14
                chunk 1 text run 1 at (0.00,-2.00) startOffset 0 endOffset 9 width 41.00: "#pattern9"
            RenderSVGContainer {g} at (270,219) size 160x24 [transform={m=((1.00,0.00)(0.00,1.00)) t=(50.00,9.00)}]
              RenderSVGText {text} at (0,-10) size 160x14 contains 1 chunk(s)
                RenderSVGInlineText {#text} at (0,0) size 160x14
                  chunk 1 text run 1 at (0.00,0.00) startOffset 0 endOffset 34 width 160.00: "preserveAspectRatio=xMinYmin slice"
              RenderSVGText {text} at (0,0) size 70x14 contains 1 chunk(s)
                RenderSVGInlineText {#text} at (0,0) size 70x14
                  chunk 1 text run 1 at (0.00,10.00) startOffset 0 endOffset 16 width 70.00: "overflow=visible"
    RenderSVGContainer {use} at (0,0) size 0x0
      RenderSVGContainer {g} at (0,0) size 0x0
