layer at (0,0) size 800x600
  RenderView at (0,0) size 800x600
layer at (0,0) size 800x600
  RenderSVGRoot {svg} at (44,40) size 332x112
    RenderSVGHiddenContainer {defs} at (0,0) size 0x0
      RenderSVGContainer {g} at (0,0) size 126x30
        RenderSVGPath {rect} at (0,0) size 126x26 [stroke={[type=SOLID] [color=#000080] [stroke width=5.00]}] [fill={[type=SOLID] [color=#008000]}] [x=0.00] [y=0.00] [width=60.00] [height=10.00]
        RenderSVGPath {circle} at (40,0) size 40x30 [opacity=0.80] [fill={[type=SOLID] [color=#008000]}] [cx=30.00] [cy=5.00] [r=10.00]
    RenderSVGContainer {use} at (44,40) size 132x40
      RenderSVGContainer {g} at (44,40) size 132x40 [transform={m=((1.00,0.00)(0.00,1.00)) t=(25.00,25.00)}]
        RenderSVGContainer {g} at (44,40) size 132x40
          RenderSVGPath {rect} at (44,44) size 132x32 [stroke={[type=SOLID] [color=#000080] [stroke width=5.00]}] [fill={[type=SOLID] [color=#008000]}] [x=0.00] [y=0.00] [width=60.00] [height=10.00]
          RenderSVGPath {circle} at (90,40) size 40x40 [opacity=0.80] [fill={[type=SOLID] [color=#008000]}] [cx=30.00] [cy=5.00] [r=10.00]
    RenderSVGContainer {use} at (244,40) size 132x40
      RenderSVGContainer {g} at (244,40) size 132x40 [transform={m=((1.00,0.00)(0.00,1.00)) t=(125.00,25.00)}]
        RenderSVGContainer {g} at (244,40) size 132x40
          RenderSVGPath {rect} at (244,44) size 132x32 [stroke={[type=SOLID] [color=#000080] [stroke width=5.00]}] [fill={[type=SOLID] [color=#008000]}] [x=0.00] [y=0.00] [width=60.00] [height=10.00]
          RenderSVGPath {circle} at (290,40) size 40x40 [opacity=0.80] [fill={[type=SOLID] [color=#008000]}] [cx=30.00] [cy=5.00] [r=10.00]
    RenderSVGText {text} at (70,54) size 82x22 contains 1 chunk(s)
      RenderSVGInlineText {#text} at (0,0) size 82x22
        chunk 1 text run 1 at (70.00,70.00) startOffset 0 endOffset 12 width 82.00: "Test passed."
