layer at (0,0) size 800x600
  RenderView at (0,0) size 800x600
layer at (0,0) size 800x400
  RenderSVGRoot {svg} at (10,108) size 488x261
    RenderSVGText {text} at (10,108) size 488x261 contains 1 chunk(s)
      RenderSVGInlineText {#text} at (0,0) size 488x261
        chunk 1 text run 1 at (10.00,300.00) startOffset 0 endOffset 4 width 488.00: "PASS"
