layer at (0,0) size 800x600
  RenderView at (0,0) size 800x600
layer at (0,0) size 800x600
  RenderBlock {HTML} at (0,0) size 800x600
    RenderBody {BODY} at (8,8) size 784x584
      RenderBlock (anonymous) at (0,0) size 784x44
        RenderText {#text} at (0,0) size 784x44
          text run at (0,0) width 487: "You should see a green cross below (300 pixels wide and 300 pixels tall). "
          text run at (487,0) width 297: "This is a test to ensure that boxes don't obey"
          text run at (0,22) width 698: "the overconstraint correction (margin-right/left should not be corrected when a box is overconstrained)."
      RenderBlock {DIV} at (0,44) size 784x500
        RenderDeprecatedFlexibleBox {DIV} at (100,100) size 100x300 [bgcolor=#008000]
          RenderBlock {DIV} at (-100,100) size 300x100
