layer at (0,0) size 800x600
  RenderView at (0,0) size 800x600
layer at (0,0) size 800x128
  RenderBlock {HTML} at (0,0) size 800x128
    RenderBody {BODY} at (8,16) size 784x92
      RenderBlock {P} at (0,0) size 784x22
        RenderText {#text} at (0,0) size 188x22
          text run at (0,0) width 188: "If you see red, the test failed"
layer at (28,58) size 250x50
  RenderBlock {DIV} at (20,42) size 250x50 [bgcolor=#008000]
