layer at (0,0) size 800x600
  RenderView at (0,0) size 800x600
layer at (0,0) size 800x600
  RenderBlock {HTML} at (0,0) size 800x600
    RenderBody {BODY} at (8,8) size 784x584
      RenderText {#text} at (0,0) size 368x19
        text run at (0,0) width 368: "This tests that aqua-style search fields do not honor height."
      RenderBR {BR} at (368,15) size 0x0
      RenderTextControl {INPUT} at (0,122) size 71x6 [bgcolor=#FFFFFF] [border: (2px inset #000000)]
        RenderDeprecatedFlexibleBox {DIV} at (3,0) size 65x6
          RenderBlock {DIV} at (0,3) size 0x0
          RenderBlock {DIV} at (0,3) size 59x0
          RenderBlock {DIV} at (59,0) size 6x6
      RenderText {#text} at (71,113) size 4x19
        text run at (71,113) width 4: " "
      RenderTextControl {INPUT} at (77,103) size 174x40 [bgcolor=#FFFFFF] [border: (2px inset #000000)]
        RenderDeprecatedFlexibleBox {DIV} at (3,3) size 168x34
          RenderBlock {DIV} at (0,17) size 0x0
          RenderBlock {DIV} at (0,8) size 153x18
          RenderBlock {DIV} at (153,9) size 15x15
      RenderText {#text} at (253,113) size 4x19
        text run at (253,113) width 4: " "
      RenderTextControl {INPUT} at (259,19) size 318x200 [bgcolor=#FFFFFF] [border: (2px inset #000000)]
        RenderDeprecatedFlexibleBox {DIV} at (3,3) size 312x194
          RenderBlock {DIV} at (0,97) size 0x0
          RenderBlock {DIV} at (0,81) size 288x31
          RenderBlock {DIV} at (288,85) size 24x24
      RenderText {#text} at (0,0) size 0x0
layer at (88,122) size 153x18
  RenderBlock {DIV} at (0,0) size 153x18
    RenderText {#text} at (1,0) size 35x18
      text run at (1,0) width 35: "small"
layer at (270,111) size 288x31
  RenderBlock {DIV} at (0,0) size 288x31
    RenderText {#text} at (1,0) size 84x31
      text run at (1,0) width 84: "regular"
