layer at (0,0) size 800x600
  RenderView at (0,0) size 800x600
layer at (0,0) size 800x70
  RenderBlock {HTML} at (0,0) size 800x70
    RenderBody {BODY} at (8,16) size 784x38
      RenderBlock {P} at (0,0) size 784x38
        RenderText {#text} at (0,0) size 779x38
          text run at (0,0) width 779: "Test passes if there is space between the blue and orange lines below and there is a marker bullet on the left-hand side of the"
          text run at (0,19) width 75: "orange box."
layer at (8,70) size 340x340
  RenderBlock (positioned) {DIV} at (8,70) size 340x340 [border: (10px solid #0000FF)]
    RenderListItem {DIV} at (60,60) size 220x220 [border: (10px solid #FFA500)]
      RenderListMarker at (-18,10) size 7x19: bullet
