layer at (0,0) size 480x360
  RenderView at (0,0) size 480x360
layer at (0,0) size 480x360
  RenderSVGRoot {svg} at (0,0) size 480x360
    RenderSVGContainer {g} at (18,52) size 442x196
      RenderSVGText {text} at (89,52) size 371x36 contains 1 chunk(s)
        RenderSVGInlineText {#text} at (0,0) size 371x36
          chunk 1 (end anchor) text run 1 at (89.77,80.00) startOffset 0 endOffset 37 width 370.23 RTL: "\x{644}\x{645}\x{627}\x{630}\x{627} \x{644}\x{627} \x{64A}\x{62A}\x{643}\x{644}\x{645}\x{648}\x{646} \x{627}\x{644}\x{644}\x{651}\x{63A}\x{629} \x{627}\x{644}\x{639}\x{631}\x{628}\x{64A}\x{629} \x{641}\x{62D}\x{633}\x{628}\x{61F}"
      RenderSVGText {text} at (18,128) size 442x41 contains 1 chunk(s)
        RenderSVGInlineText {#text} at (0,0) size 442x41
          chunk 1 (end anchor) text run 1 at (18.72,160.00) startOffset 0 endOffset 37 width 441.28 RTL: "\x{644}\x{645}\x{627}\x{630}\x{627} \x{644}\x{627} \x{64A}\x{62A}\x{643}\x{644}\x{645}\x{648}\x{646} \x{627}\x{644}\x{644}\x{651}\x{63A}\x{629} \x{627}\x{644}\x{639}\x{631}\x{628}\x{64A}\x{629} \x{641}\x{62D}\x{633}\x{628}\x{61F}"
      RenderSVGText {text} at (89,212) size 371x36 contains 1 chunk(s)
        RenderSVGInlineText {#text} at (0,0) size 371x36
          chunk 1 (end anchor) text run 1 at (89.77,240.00) startOffset 0 endOffset 37 width 370.23 RTL: "\x{644}\x{645}\x{627}\x{630}\x{627} \x{644}\x{627} \x{64A}\x{62A}\x{643}\x{644}\x{645}\x{648}\x{646} \x{627}\x{644}\x{644}\x{651}\x{63A}\x{629} \x{627}\x{644}\x{639}\x{631}\x{628}\x{64A}\x{629} \x{641}\x{62D}\x{633}\x{628}\x{61F}"
    RenderSVGText {text} at (10,304) size 264x46 contains 1 chunk(s)
      RenderSVGInlineText {#text} at (0,0) size 264x46
        chunk 1 text run 1 at (10.00,340.00) startOffset 0 endOffset 16 width 264.00: "$Revision: 1.4 $"
    RenderSVGPath {rect} at (0,0) size 480x360 [stroke={[type=SOLID] [color=#000000]}] [x=1.00] [y=1.00] [width=478.00] [height=358.00]
