layer at (0,0) size 480x360
  RenderView at (0,0) size 480x360
layer at (0,0) size 480x360
  RenderSVGRoot {svg} at (0,0) size 480x360
    RenderSVGHiddenContainer {defs} at (0,0) size 0x0
    RenderSVGContainer {g} at (2,2) size 384x296
      RenderSVGHiddenContainer {defs} at (0,0) size 0x0
        RenderSVGPath {circle} at (2,2) size 96x96 [fill={[type=SOLID] [color=#0000FF]}] [cx=50.00] [cy=50.00] [r=48.00]
        RenderSVGPath {circle} at (2,2) size 96x96 [fill={[type=SOLID] [color=#0000FF]}] [cx=50.00] [cy=50.00] [r=48.00]
        RenderSVGPath {circle} at (2,2) size 96x96 [fill={[type=SOLID] [color=#0000FF]}] [cx=50.00] [cy=50.00] [r=48.00]
        RenderSVGContainer {g} at (2,2) size 96x96
          RenderSVGPath {circle} at (2,2) size 96x96 [fill={[type=SOLID] [color=#0000FF]}] [cx=50.00] [cy=50.00] [r=48.00]
        RenderSVGContainer {g} at (2,2) size 96x96
          RenderSVGPath {circle} at (2,2) size 96x96 [fill={[type=SOLID] [color=#0000FF]}] [cx=50.00] [cy=50.00] [r=48.00]
        RenderSVGContainer {g} at (2,2) size 96x96
          RenderSVGPath {circle} at (2,2) size 96x96 [fill={[type=SOLID] [color=#0000FF]}] [cx=50.00] [cy=50.00] [r=48.00]
        RenderSVGContainer {g} at (0,0) size 0x0
        RenderSVGPath {circle} at (2,2) size 96x96 [fill={[type=SOLID] [color=#0000FF]}] [cx=50.00] [cy=50.00] [r=48.00]
        RenderSVGPath {circle} at (2,2) size 96x96 [fill={[type=SOLID] [color=#0000FF]}] [cx=50.00] [cy=50.00] [r=48.00]
        RenderSVGPath {circle} at (2,2) size 96x96 [fill={[type=SOLID] [color=#0000FF]}] [cx=50.00] [cy=50.00] [r=48.00]
        RenderSVGPath {circle} at (2,2) size 96x96 [fill={[type=SOLID] [color=#0000FF]}] [cx=50.00] [cy=50.00] [r=48.00]
        RenderSVGPath {circle} at (2,2) size 96x96 [fill={[type=SOLID] [color=#0000FF]}] [cx=50.00] [cy=50.00] [r=48.00]
        RenderSVGContainer {g} at (2,2) size 96x96
          RenderSVGPath {circle} at (2,2) size 96x96 [fill={[type=SOLID] [color=#0000FF]}] [cx=50.00] [cy=50.00] [r=48.00]
      RenderSVGContainer {use} at (2,2) size 96x96
        RenderSVGContainer {g} at (2,2) size 96x96
          RenderSVGPath {circle} at (2,2) size 96x96 [fill={[type=SOLID] [color=#0000FF]}] [cx=50.00] [cy=50.00] [r=48.00]
      RenderSVGContainer {use} at (98,2) size 96x96
        RenderSVGContainer {g} at (98,2) size 96x96 [transform={m=((1.00,0.00)(0.00,1.00)) t=(96.00,0.00)}]
          RenderSVGPath {circle} at (98,2) size 96x96 [fill={[type=SOLID] [color=#0000FF]}] [cx=50.00] [cy=50.00] [r=48.00]
      RenderSVGContainer {use} at (194,2) size 96x96
        RenderSVGContainer {g} at (194,2) size 96x96 [transform={m=((1.00,0.00)(0.00,1.00)) t=(192.00,0.00)}]
          RenderSVGPath {circle} at (194,2) size 96x96 [fill={[type=SOLID] [color=#0000FF]}] [cx=50.00] [cy=50.00] [r=48.00]
      RenderSVGContainer {use} at (290,2) size 96x96
        RenderSVGContainer {g} at (290,2) size 96x96 [transform={m=((1.00,0.00)(0.00,1.00)) t=(288.00,0.00)}]
          RenderSVGPath {circle} at (290,2) size 96x96 [fill={[type=SOLID] [color=#0000FF]}] [cx=50.00] [cy=50.00] [r=48.00]
      RenderSVGContainer {use} at (2,102) size 96x96
        RenderSVGContainer {g} at (2,102) size 96x96 [transform={m=((1.00,0.00)(0.00,1.00)) t=(0.00,100.00)}]
          RenderSVGPath {circle} at (2,102) size 96x96 [fill={[type=SOLID] [color=#0000FF]}] [cx=50.00] [cy=50.00] [r=48.00]
      RenderSVGContainer {use} at (98,102) size 96x96
        RenderSVGContainer {g} at (98,102) size 96x96 [transform={m=((1.00,0.00)(0.00,1.00)) t=(96.00,100.00)}]
          RenderSVGPath {circle} at (98,102) size 96x96 [fill={[type=SOLID] [color=#0000FF]}] [cx=50.00] [cy=50.00] [r=48.00]
      RenderSVGContainer {use} at (194,102) size 96x96
        RenderSVGContainer {g} at (194,102) size 96x96 [transform={m=((1.00,0.00)(0.00,1.00)) t=(192.00,100.00)}]
          RenderSVGPath {circle} at (194,102) size 96x96 [fill={[type=SOLID] [color=#0000FF]}] [cx=50.00] [cy=50.00] [r=48.00]
      RenderSVGContainer {use} at (290,102) size 96x96
        RenderSVGContainer {g} at (290,102) size 96x96 [transform={m=((1.00,0.00)(0.00,1.00)) t=(288.00,100.00)}]
          RenderSVGPath {circle} at (290,102) size 96x96 [fill={[type=SOLID] [color=#0000FF]}] [cx=50.00] [cy=50.00] [r=48.00]
      RenderSVGContainer {use} at (2,202) size 96x96
        RenderSVGContainer {g} at (2,202) size 96x96 [transform={m=((1.00,0.00)(0.00,1.00)) t=(0.00,200.00)}]
          RenderSVGPath {circle} at (2,202) size 96x96 [fill={[type=SOLID] [color=#0000FF]}] [cx=50.00] [cy=50.00] [r=48.00]
      RenderSVGContainer {use} at (98,202) size 96x96
        RenderSVGContainer {g} at (98,202) size 96x96 [transform={m=((1.00,0.00)(0.00,1.00)) t=(96.00,200.00)}]
          RenderSVGPath {circle} at (98,202) size 96x96 [fill={[type=SOLID] [color=#0000FF]}] [cx=50.00] [cy=50.00] [r=48.00]
      RenderSVGContainer {use} at (194,202) size 96x96
        RenderSVGContainer {g} at (194,202) size 96x96 [transform={m=((1.00,0.00)(0.00,1.00)) t=(192.00,200.00)}]
          RenderSVGPath {circle} at (194,202) size 96x96 [fill={[type=SOLID] [color=#0000FF]}] [cx=50.00] [cy=50.00] [r=48.00]
      RenderSVGContainer {use} at (290,202) size 96x96
        RenderSVGContainer {g} at (290,202) size 96x96 [transform={m=((1.00,0.00)(0.00,1.00)) t=(288.00,200.00)}]
          RenderSVGPath {circle} at (290,202) size 96x96 [fill={[type=SOLID] [color=#0000FF]}] [cx=50.00] [cy=50.00] [r=48.00]
    RenderSVGContainer {g} at (10,311) size 228x36
      RenderSVGText {text} at (10,311) size 228x36 contains 1 chunk(s)
        RenderSVGInlineText {#text} at (0,0) size 228x36
          chunk 1 text run 1 at (10.00,340.00) startOffset 0 endOffset 16 width 228.00: "$Revision: 1.2 $"
    RenderSVGPath {rect} at (0,0) size 480x360 [stroke={[type=SOLID] [color=#000000]}] [x=1.00] [y=1.00] [width=478.00] [height=358.00]
