layer at (0,0) size 480x360
  RenderView at (0,0) size 480x360
layer at (0,0) size 480x360
  RenderSVGRoot {svg} at (0,0) size 480x360
    RenderSVGHiddenContainer {defs} at (0,0) size 0x0
    RenderSVGContainer {g} at (45,47) size 415x200
      RenderSVGText {text} at (119,47) size 341x46 contains 1 chunk(s)
        RenderSVGInlineText {#text} at (0,0) size 341x46
          chunk 1 text run 1 at (119.00,80.00) startOffset 0 endOffset 37 width 341.00 RTL: "\x{644}\x{645}\x{627}\x{630}\x{627} \x{644}\x{627} \x{64A}\x{62A}\x{643}\x{644}\x{645}\x{648}\x{646} \x{627}\x{644}\x{644}\x{651}\x{63A}\x{629} \x{627}\x{644}\x{639}\x{631}\x{628}\x{64A}\x{629} \x{641}\x{62D}\x{633}\x{628}\x{61F}"
      RenderSVGText {text} at (45,128) size 415x41 contains 1 chunk(s)
        RenderSVGInlineText {#text} at (0,0) size 415x41
          chunk 1 text run 1 at (45.00,160.00) startOffset 0 endOffset 37 width 415.00 RTL: "\x{644}\x{645}\x{627}\x{630}\x{627} \x{644}\x{627} \x{64A}\x{62A}\x{643}\x{644}\x{645}\x{648}\x{646} \x{627}\x{644}\x{644}\x{651}\x{63A}\x{629} \x{627}\x{644}\x{639}\x{631}\x{628}\x{64A}\x{629} \x{641}\x{62D}\x{633}\x{628}\x{61F}"
      RenderSVGText {text} at (113,213) size 347x34 contains 1 chunk(s)
        RenderSVGInlineText {#text} at (0,0) size 347x34
          chunk 1 text run 1 at (113.00,240.00) startOffset 0 endOffset 37 width 347.00 RTL: "\x{644}\x{645}\x{627}\x{630}\x{627} \x{644}\x{627} \x{64A}\x{62A}\x{643}\x{644}\x{645}\x{648}\x{646} \x{627}\x{644}\x{644}\x{651}\x{63A}\x{629} \x{627}\x{644}\x{639}\x{631}\x{628}\x{64A}\x{629} \x{641}\x{62D}\x{633}\x{628}\x{61F}"
    RenderSVGContainer {g} at (10,314) size 227x33
      RenderSVGText {text} at (10,314) size 227x33 contains 1 chunk(s)
        RenderSVGInlineText {#text} at (0,0) size 227x33
          chunk 1 text run 1 at (10.00,340.00) startOffset 0 endOffset 2 width 40.90: "$R"
          chunk 1 text run 2 at (50.51,340.00) startOffset 2 endOffset 3 width 17.79: "e"
          chunk 1 text run 3 at (67.82,340.00) startOffset 3 endOffset 12 width 117.38: "vision: 1"
          chunk 1 text run 4 at (182.83,340.00) startOffset 12 endOffset 16 width 53.38: ".7 $"
    RenderSVGPath {rect} at (0,0) size 480x360 [stroke={[type=SOLID] [color=#000000]}] [x=1.00] [y=1.00] [width=478.00] [height=358.00]
