layer at (0,0) size 800x600
  RenderView at (0,0) size 800x600
layer at (0,0) size 800x600
  RenderBlock {HTML} at (0,0) size 800x600
    RenderBody {BODY} at (8,8) size 784x584
      RenderBlock (anonymous) at (0,0) size 784x44
        RenderText {#text} at (0,0) size 731x44
          text run at (0,0) width 731: "The TD cell (The EggPlant Exchange) should not wrap when window is resized. However, the cell below the"
          text run at (0,22) width 221: "heading will wrap atuomatically."
        RenderBR {BR} at (221,38) size 0x0
      RenderTable {TABLE} at (0,44) size 258x60 [border: (1px outset #808080)]
        RenderTableSection {TBODY} at (1,1) size 256x58
          RenderTableRow {TR} at (0,2) size 256x26
            RenderTableCell {TD} at (2,2) size 252x26 [border: (1px inset #808080)] [r=0 c=0 rs=1 cs=1]
              RenderText {#text} at (2,2) size 164x22
                text run at (2,2) width 164: "The Eggplant Exchange"
          RenderTableRow {TR} at (0,30) size 256x26
            RenderTableCell {TD} at (2,30) size 252x26 [border: (1px inset #808080)] [r=1 c=0 rs=1 cs=1]
              RenderText {#text} at (2,2) size 248x22
                text run at (2,2) width 248: "Lots of Recipies for Eggplant Lovers"
