layer at (0,0) size 800x600
  RenderView at (0,0) size 800x600
layer at (0,0) size 800x540
  RenderBlock {html} at (0,0) size 800x540
    RenderBody {body} at (8,16) size 784x474 [bgcolor=#FFFFFF]
      RenderBlock {p} at (0,0) size 784x22
        RenderText {#text} at (0,0) size 586x22
          text run at (0,0) width 337: "CSS Transformed HTML div with SVG inside it. "
          text run at (337,0) width 249: "objectBoundingBox patterns on text."
layer at (58,88) size 402x402
  RenderBlock {div} at (50,72) size 402x402 [border: (1px solid #000000)]
    RenderSVGRoot {svg} at (49,109) size 480x420
      RenderSVGResourcePattern {pattern} [id="pat1"] [patternUnits=objectBoundingBox] [patternContentUnits=userSpaceOnUse]
        RenderSVGPath {rect} at (151,114) size 13x13 [fill={[type=SOLID] [color=#FF0000]}] [x=5.00] [y=5.00] [width=10.00] [height=10.00]
        RenderSVGPath {rect} at (154,119) size 12x13 [fill={[type=SOLID] [color=#008000]}] [x=10.00] [y=10.00] [width=10.00] [height=10.00]
      RenderSVGPath {rect} at (150,123) size 358x173 [stroke={[type=SOLID] [color=#000000]}] [fill={[type=PATTERN] [id="pat1"]}] [x=25.00] [y=10.00] [width=430.00] [height=60.00]
      RenderSVGText {text} at (25,73) size 420x16 contains 1 chunk(s)
        RenderSVGInlineText {#text} at (0,0) size 420x16
          chunk 1 text run 1 at (25.00,85.00) startOffset 0 endOffset 75 width 420.00: "Pattern created using red and green rectangles applied to fill of rectangle"
      RenderSVGResourcePattern {pattern} [id="pat2"] [patternUnits=objectBoundingBox] [patternContentUnits=userSpaceOnUse]
        RenderSVGPath {rect} at (149,109) size 12x13 [fill={[type=SOLID] [color=#FF0000]}] [x=0.00] [y=0.00] [width=10.00] [height=10.00]
        RenderSVGPath {rect} at (156,112) size 13x12 [fill={[type=SOLID] [color=#008000]}] [x=10.00] [y=0.00] [width=10.00] [height=10.00]
        RenderSVGPath {rect} at (146,117) size 13x12 [fill={[type=SOLID] [color=#0000FF]}] [x=0.00] [y=10.00] [width=10.00] [height=10.00]
        RenderSVGPath {rect} at (154,119) size 12x13 [fill={[type=SOLID] [color=#FFFF00]}] [x=10.00] [y=10.00] [width=10.00] [height=10.00]
      RenderSVGPath {rect} at (125,194) size 357x172 [stroke={[type=PATTERN] [id="pat2"] [stroke width=20.00]}] [x=35.00] [y=110.00] [width=410.00] [height=40.00]
      RenderSVGText {text} at (25,163) size 328x16 contains 1 chunk(s)
        RenderSVGInlineText {#text} at (0,0) size 328x16
          chunk 1 text run 1 at (25.00,175.00) startOffset 0 endOffset 59 width 327.60: "Pattern of 4 rectangles applied to a stroke of a rectangle."
      RenderSVGResourcePattern {pattern} [id="pat3"] [patternUnits=objectBoundingBox] [patternContentUnits=userSpaceOnUse]
        RenderSVGPath {rect} at (149,109) size 12x13 [fill={[type=SOLID] [color=#FF0000]}] [x=0.00] [y=0.00] [width=10.00] [height=10.00]
        RenderSVGPath {rect} at (146,117) size 13x12 [fill={[type=SOLID] [color=#008000]}] [x=0.00] [y=10.00] [width=10.00] [height=10.00]
      RenderSVGText {text} at (25,172) size 336x63 contains 1 chunk(s)
        RenderSVGInlineText {#text} at (0,0) size 336x63
          chunk 1 text run 1 at (25.00,220.00) startOffset 0 endOffset 15 width 336.00: "Pattern on fill"
      RenderSVGText {text} at (25,223) size 224x16 contains 1 chunk(s)
        RenderSVGInlineText {#text} at (0,0) size 224x16
          chunk 1 text run 1 at (25.00,235.00) startOffset 0 endOffset 38 width 223.20: "Pattern consists of red and green rows"
      RenderSVGResourcePattern {pattern} [id="pat4"] [patternUnits=objectBoundingBox] [patternContentUnits=userSpaceOnUse]
        RenderSVGPath {rect} at (149,109) size 12x13 [fill={[type=SOLID] [color=#FF0000]}] [x=0.00] [y=0.00] [width=10.00] [height=10.00]
        RenderSVGPath {rect} at (156,112) size 13x12 [fill={[type=SOLID] [color=#0000FF]}] [x=10.00] [y=0.00] [width=10.00] [height=10.00]
      RenderSVGText {text} at (25,236) size 338x50 contains 1 chunk(s)
        RenderSVGInlineText {#text} at (0,0) size 338x50
          chunk 1 text run 1 at (25.00,275.00) startOffset 0 endOffset 17 width 337.20: "Pattern on stroke"
      RenderSVGText {text} at (25,278) size 240x16 contains 1 chunk(s)
        RenderSVGInlineText {#text} at (0,0) size 240x16
          chunk 1 text run 1 at (25.00,290.00) startOffset 0 endOffset 40 width 240.00: "Pattern consists of red and blue columns"
      RenderSVGText {text} at (10,301) size 270x54 contains 1 chunk(s)
        RenderSVGInlineText {#text} at (0,0) size 270x54
          chunk 1 text run 1 at (10.00,340.00) startOffset 0 endOffset 16 width 270.00: "$Revision: 1.6 $"
      RenderSVGPath {rect} at (49,109) size 480x420 [stroke={[type=SOLID] [color=#000000]}] [x=1.00] [y=1.00] [width=478.00] [height=358.00]
    RenderText {#text} at (0,0) size 0x0
