layer at (0,0) size 1131x843
  RenderView at (0,0) size 785x585
layer at (0,0) size 1131x843
  RenderSVGRoot {svg} at (3,0) size 1125x843
    RenderSVGContainer {g} at (26,119) size 985x572 [transform={m=((1.00,0.00)(0.00,1.00)) t=(0.00,30.00)}]
      RenderSVGContainer {g} at (26,119) size 985x572
        RenderSVGText {text} at (10,21) size 38x12 contains 1 chunk(s)
          RenderSVGInlineText {#text} at (0,0) size 38x12
            chunk 1 text run 1 at (10.00,30.00) startOffset 0 endOffset 10 width 37.58: "SVG to fit"
        RenderSVGContainer {g} at (50,163) size 71x95 [transform={m=((1.00,0.00)(0.00,1.00)) t=(20.00,40.00)}]
          RenderSVGPath {rect} at (50,163) size 71x95 [stroke={[type=SOLID] [color=#FF0000]}] [fill={[type=SOLID] [color=#000000]}] [x=0.50] [y=0.50] [width=29.00] [height=39.00]
          RenderSVGContainer {g} at (62,187) size 47x48 [transform={m=((1.00,0.00)(0.00,1.00)) t=(0.00,5.00)}]
            RenderSVGPath {circle} at (62,187) size 47x48 [fill={[type=SOLID] [color=#FFFF00]}] [cx=15.00] [cy=15.00] [r=10.00]
            RenderSVGPath {circle} at (73,199) size 11x10 [fill={[type=SOLID] [color=#000000]}] [cx=12.00] [cy=12.00] [r=1.50]
            RenderSVGPath {circle} at (85,199) size 10x10 [fill={[type=SOLID] [color=#000000]}] [cx=17.00] [cy=12.00] [r=1.50]
            RenderSVGPath {path} at (71,217) size 29x18 [stroke={[type=SOLID] [color=#000000] [stroke width=2.00]}] [fill={[type=SOLID] [color=#000000]}] [data="M 10 19 L 15 23 L 20 19"]
        RenderSVGText {text} at (10,101) size 41x12 contains 1 chunk(s)
          RenderSVGInlineText {#text} at (0,0) size 41x12
            chunk 1 text run 1 at (10.00,110.00) startOffset 0 endOffset 10 width 41.00: "Viewport 1"
        RenderSVGContainer {g} at (26,351) size 119x71 [transform={m=((1.00,0.00)(0.00,1.00)) t=(10.00,120.00)}]
          RenderSVGPath {rect} at (26,351) size 119x71 [stroke={[type=SOLID] [color=#0000FF]}] [x=0.50] [y=0.50] [width=49.00] [height=29.00]
        RenderSVGText {text} at (10,171) size 41x12 contains 1 chunk(s)
          RenderSVGInlineText {#text} at (0,0) size 41x12
            chunk 1 text run 1 at (10.00,180.00) startOffset 0 endOffset 10 width 41.00: "Viewport 2"
        RenderSVGContainer {g} at (50,515) size 71x141 [transform={m=((1.00,0.00)(0.00,1.00)) t=(20.00,190.00)}]
          RenderSVGPath {rect} at (50,515) size 71x141 [stroke={[type=SOLID] [color=#0000FF]}] [x=0.50] [y=0.50] [width=29.00] [height=59.00]
        RenderSVGContainer {g} at (284,119) size 282x256 [transform={m=((1.00,0.00)(0.00,1.00)) t=(120.00,50.00)}]
          RenderSVGText {text} at (0,-29) size 112x12 contains 1 chunk(s)
            RenderSVGInlineText {#text} at (0,0) size 112x12
              chunk 1 text run 1 at (0.00,-20.00) startOffset 0 endOffset 36 width 111.03: "---------- meet --------------------"
          RenderSVGContainer {g} at (284,154) size 118x104
            RenderSVGText {text} at (0,-14) size 25x12 contains 1 chunk(s)
              RenderSVGInlineText {#text} at (0,0) size 25x12
                chunk 1 text run 1 at (0.00,-5.00) startOffset 0 endOffset 5 width 24.77: "xMin*"
            RenderSVGPath {rect} at (284,187) size 118x71 [stroke={[type=SOLID] [color=#0000FF]}] [x=0.50] [y=0.50] [width=49.00] [height=29.00]
            RenderSVGViewportContainer {svg} at (284,187) size 55x71
              RenderSVGPath {rect} at (284,187) size 55x71 [stroke={[type=SOLID] [color=#FF0000]}] [fill={[type=SOLID] [color=#000000]}] [x=0.50] [y=0.50] [width=29.00] [height=39.00]
              RenderSVGContainer {g} at (291,203) size 38x39 [transform={m=((1.00,0.00)(0.00,1.00)) t=(0.00,5.00)}]
                RenderSVGPath {circle} at (291,203) size 38x39 [fill={[type=SOLID] [color=#FFFF00]}] [cx=15.00] [cy=15.00] [r=10.00]
                RenderSVGPath {circle} at (300,213) size 11x10 [fill={[type=SOLID] [color=#000000]}] [cx=12.00] [cy=12.00] [r=1.50]
                RenderSVGPath {circle} at (310,213) size 10x10 [fill={[type=SOLID] [color=#000000]}] [cx=17.00] [cy=12.00] [r=1.50]
                RenderSVGPath {path} at (298,227) size 24x15 [stroke={[type=SOLID] [color=#000000] [stroke width=2.00]}] [fill={[type=SOLID] [color=#000000]}] [data="M 10 19 L 15 23 L 20 19"]
          RenderSVGContainer {g} at (448,154) size 118x104 [transform={m=((1.00,0.00)(0.00,1.00)) t=(70.00,0.00)}]
            RenderSVGText {text} at (0,-14) size 25x12 contains 1 chunk(s)
              RenderSVGInlineText {#text} at (0,0) size 25x12
                chunk 1 text run 1 at (0.00,-5.00) startOffset 0 endOffset 5 width 24.77: "xMid*"
            RenderSVGPath {rect} at (448,187) size 118x71 [stroke={[type=SOLID] [color=#0000FF]}] [x=0.50] [y=0.50] [width=49.00] [height=29.00]
            RenderSVGViewportContainer {svg} at (478,187) size 58x71
              RenderSVGPath {rect} at (478,187) size 58x71 [stroke={[type=SOLID] [color=#FF0000]}] [fill={[type=SOLID] [color=#000000]}] [x=0.50] [y=0.50] [width=29.00] [height=39.00]
              RenderSVGContainer {g} at (488,203) size 38x39 [transform={m=((1.00,0.00)(0.00,1.00)) t=(0.00,5.00)}]
                RenderSVGPath {circle} at (488,203) size 38x39 [fill={[type=SOLID] [color=#FFFF00]}] [cx=15.00] [cy=15.00] [r=10.00]
                RenderSVGPath {circle} at (497,213) size 10x10 [fill={[type=SOLID] [color=#000000]}] [cx=12.00] [cy=12.00] [r=1.50]
                RenderSVGPath {circle} at (506,213) size 8x10 [fill={[type=SOLID] [color=#000000]}] [cx=17.00] [cy=12.00] [r=1.50]
                RenderSVGPath {path} at (495,227) size 24x15 [stroke={[type=SOLID] [color=#000000] [stroke width=2.00]}] [fill={[type=SOLID] [color=#000000]}] [data="M 10 19 L 15 23 L 20 19"]
          RenderSVGContainer {g} at (284,271) size 118x104 [transform={m=((1.00,0.00)(0.00,1.00)) t=(0.00,50.00)}]
            RenderSVGText {text} at (0,-14) size 27x12 contains 1 chunk(s)
              RenderSVGInlineText {#text} at (0,0) size 27x12
                chunk 1 text run 1 at (0.00,-5.00) startOffset 0 endOffset 5 width 26.05: "xMax*"
            RenderSVGPath {rect} at (284,304) size 118x71 [stroke={[type=SOLID] [color=#0000FF]}] [x=0.50] [y=0.50] [width=49.00] [height=29.00]
            RenderSVGViewportContainer {svg} at (347,304) size 55x71
              RenderSVGPath {rect} at (347,304) size 55x71 [stroke={[type=SOLID] [color=#FF0000]}] [fill={[type=SOLID] [color=#000000]}] [x=0.50] [y=0.50] [width=29.00] [height=39.00]
              RenderSVGContainer {g} at (357,320) size 38x39 [transform={m=((1.00,0.00)(0.00,1.00)) t=(0.00,5.00)}]
                RenderSVGPath {circle} at (357,320) size 38x39 [fill={[type=SOLID] [color=#FFFF00]}] [cx=15.00] [cy=15.00] [r=10.00]
                RenderSVGPath {circle} at (366,330) size 8x10 [fill={[type=SOLID] [color=#000000]}] [cx=12.00] [cy=12.00] [r=1.50]
                RenderSVGPath {circle} at (373,330) size 10x10 [fill={[type=SOLID] [color=#000000]}] [cx=17.00] [cy=12.00] [r=1.50]
                RenderSVGPath {path} at (364,344) size 24x15 [stroke={[type=SOLID] [color=#000000] [stroke width=2.00]}] [fill={[type=SOLID] [color=#000000]}] [data="M 10 19 L 15 23 L 20 19"]
        RenderSVGContainer {g} at (706,119) size 305x209 [transform={m=((1.00,0.00)(0.00,1.00)) t=(300.00,50.00)}]
          RenderSVGText {text} at (0,-29) size 123x12 contains 1 chunk(s)
            RenderSVGInlineText {#text} at (0,0) size 123x12
              chunk 1 text run 1 at (0.00,-20.00) startOffset 0 endOffset 40 width 122.99: "---------- meet ------------------------"
          RenderSVGContainer {g} at (706,154) size 71x174
            RenderSVGText {text} at (0,-14) size 27x12 contains 1 chunk(s)
              RenderSVGInlineText {#text} at (0,0) size 27x12
                chunk 1 text run 1 at (0.00,-5.00) startOffset 0 endOffset 5 width 26.48: "*YMin"
            RenderSVGPath {rect} at (706,187) size 71x141 [stroke={[type=SOLID] [color=#0000FF]}] [x=0.50] [y=0.50] [width=29.00] [height=59.00]
            RenderSVGViewportContainer {svg} at (706,187) size 71x94
              RenderSVGPath {rect} at (706,187) size 71x94 [stroke={[type=SOLID] [color=#FF0000]}] [fill={[type=SOLID] [color=#000000]}] [x=0.50] [y=0.50] [width=29.00] [height=39.00]
              RenderSVGContainer {g} at (717,210) size 48x48 [transform={m=((1.00,0.00)(0.00,1.00)) t=(0.00,5.00)}]
                RenderSVGPath {circle} at (717,210) size 48x48 [fill={[type=SOLID] [color=#FFFF00]}] [cx=15.00] [cy=15.00] [r=10.00]
                RenderSVGPath {circle} at (729,222) size 10x10 [fill={[type=SOLID] [color=#000000]}] [cx=12.00] [cy=12.00] [r=1.50]
                RenderSVGPath {circle} at (741,222) size 10x10 [fill={[type=SOLID] [color=#000000]}] [cx=17.00] [cy=12.00] [r=1.50]
                RenderSVGPath {path} at (727,241) size 29x17 [stroke={[type=SOLID] [color=#000000] [stroke width=2.00]}] [fill={[type=SOLID] [color=#000000]}] [data="M 10 19 L 15 23 L 20 19"]
          RenderSVGContainer {g} at (823,154) size 71x174 [transform={m=((1.00,0.00)(0.00,1.00)) t=(50.00,0.00)}]
            RenderSVGText {text} at (0,-14) size 27x12 contains 1 chunk(s)
              RenderSVGInlineText {#text} at (0,0) size 27x12
                chunk 1 text run 1 at (0.00,-5.00) startOffset 0 endOffset 5 width 26.48: "*YMid"
            RenderSVGPath {rect} at (823,187) size 71x141 [stroke={[type=SOLID] [color=#0000FF]}] [x=0.50] [y=0.50] [width=29.00] [height=59.00]
            RenderSVGViewportContainer {svg} at (823,210) size 71x95
              RenderSVGPath {rect} at (823,210) size 71x95 [stroke={[type=SOLID] [color=#FF0000]}] [fill={[type=SOLID] [color=#000000]}] [x=0.50] [y=0.50] [width=29.00] [height=39.00]
              RenderSVGContainer {g} at (834,234) size 48x47 [transform={m=((1.00,0.00)(0.00,1.00)) t=(0.00,5.00)}]
                RenderSVGPath {circle} at (834,234) size 48x47 [fill={[type=SOLID] [color=#FFFF00]}] [cx=15.00] [cy=15.00] [r=10.00]
                RenderSVGPath {circle} at (846,245) size 10x11 [fill={[type=SOLID] [color=#000000]}] [cx=12.00] [cy=12.00] [r=1.50]
                RenderSVGPath {circle} at (858,245) size 10x11 [fill={[type=SOLID] [color=#000000]}] [cx=17.00] [cy=12.00] [r=1.50]
                RenderSVGPath {path} at (844,264) size 29x17 [stroke={[type=SOLID] [color=#000000] [stroke width=2.00]}] [fill={[type=SOLID] [color=#000000]}] [data="M 10 19 L 15 23 L 20 19"]
          RenderSVGContainer {g} at (940,154) size 71x174 [transform={m=((1.00,0.00)(0.00,1.00)) t=(100.00,0.00)}]
            RenderSVGText {text} at (0,-14) size 28x12 contains 1 chunk(s)
              RenderSVGInlineText {#text} at (0,0) size 28x12
                chunk 1 text run 1 at (0.00,-5.00) startOffset 0 endOffset 5 width 27.76: "*YMax"
            RenderSVGPath {rect} at (940,187) size 71x141 [stroke={[type=SOLID] [color=#0000FF]}] [x=0.50] [y=0.50] [width=29.00] [height=59.00]
            RenderSVGViewportContainer {svg} at (940,234) size 71x94
              RenderSVGPath {rect} at (940,234) size 71x94 [stroke={[type=SOLID] [color=#FF0000]}] [fill={[type=SOLID] [color=#000000]}] [x=0.50] [y=0.50] [width=29.00] [height=39.00]
              RenderSVGContainer {g} at (951,257) size 48x48 [transform={m=((1.00,0.00)(0.00,1.00)) t=(0.00,5.00)}]
                RenderSVGPath {circle} at (951,257) size 48x48 [fill={[type=SOLID] [color=#FFFF00]}] [cx=15.00] [cy=15.00] [r=10.00]
                RenderSVGPath {circle} at (963,269) size 10x10 [fill={[type=SOLID] [color=#000000]}] [cx=12.00] [cy=12.00] [r=1.50]
                RenderSVGPath {circle} at (975,269) size 10x10 [fill={[type=SOLID] [color=#000000]}] [cx=17.00] [cy=12.00] [r=1.50]
                RenderSVGPath {path} at (961,288) size 29x17 [stroke={[type=SOLID] [color=#000000] [stroke width=2.00]}] [fill={[type=SOLID] [color=#000000]}] [data="M 10 19 L 15 23 L 20 19"]
        RenderSVGContainer {g} at (284,435) size 305x209 [transform={m=((1.00,0.00)(0.00,1.00)) t=(120.00,185.00)}]
          RenderSVGText {text} at (0,-29) size 126x12 contains 1 chunk(s)
            RenderSVGInlineText {#text} at (0,0) size 126x12
              chunk 1 text run 1 at (0.00,-20.00) startOffset 0 endOffset 42 width 125.12: "---------- slice -------------------------"
          RenderSVGContainer {g} at (284,470) size 106x174
            RenderSVGText {text} at (0,-14) size 25x12 contains 1 chunk(s)
              RenderSVGInlineText {#text} at (0,0) size 25x12
                chunk 1 text run 1 at (0.00,-5.00) startOffset 0 endOffset 5 width 24.77: "xMin*"
            RenderSVGPath {rect} at (284,503) size 71x141 [stroke={[type=SOLID] [color=#0000FF]}] [x=0.50] [y=0.50] [width=29.00] [height=59.00]
            RenderSVGViewportContainer {svg} at (284,503) size 106x141
              RenderSVGPath {rect} at (284,503) size 106x141 [stroke={[type=SOLID] [color=#FF0000]}] [fill={[type=SOLID] [color=#000000]}] [x=0.50] [y=0.50] [width=29.00] [height=39.00]
              RenderSVGContainer {g} at (300,538) size 74x71 [transform={m=((1.00,0.00)(0.00,1.00)) t=(0.00,5.00)}]
                RenderSVGPath {circle} at (300,538) size 74x71 [fill={[type=SOLID] [color=#FFFF00]}] [cx=15.00] [cy=15.00] [r=10.00]
                RenderSVGPath {circle} at (319,554) size 15x18 [fill={[type=SOLID] [color=#000000]}] [cx=12.00] [cy=12.00] [r=1.50]
                RenderSVGPath {circle} at (336,554) size 17x18 [fill={[type=SOLID] [color=#000000]}] [cx=17.00] [cy=12.00] [r=1.50]
                RenderSVGPath {path} at (314,583) size 46x26 [stroke={[type=SOLID] [color=#000000] [stroke width=2.00]}] [fill={[type=SOLID] [color=#000000]}] [data="M 10 19 L 15 23 L 20 19"]
          RenderSVGContainer {g} at (382,470) size 109x174 [transform={m=((1.00,0.00)(0.00,1.00)) t=(50.00,0.00)}]
            RenderSVGText {text} at (0,-14) size 25x12 contains 1 chunk(s)
              RenderSVGInlineText {#text} at (0,0) size 25x12
                chunk 1 text run 1 at (0.00,-5.00) startOffset 0 endOffset 5 width 24.77: "xMid*"
            RenderSVGPath {rect} at (401,503) size 71x141 [stroke={[type=SOLID] [color=#0000FF]}] [x=0.50] [y=0.50] [width=29.00] [height=59.00]
            RenderSVGViewportContainer {svg} at (382,503) size 109x141
              RenderSVGPath {rect} at (382,503) size 109x141 [stroke={[type=SOLID] [color=#FF0000]}] [fill={[type=SOLID] [color=#000000]}] [x=0.50] [y=0.50] [width=29.00] [height=39.00]
              RenderSVGContainer {g} at (401,538) size 71x71 [transform={m=((1.00,0.00)(0.00,1.00)) t=(0.00,5.00)}]
                RenderSVGPath {circle} at (401,538) size 71x71 [fill={[type=SOLID] [color=#FFFF00]}] [cx=15.00] [cy=15.00] [r=10.00]
                RenderSVGPath {circle} at (417,554) size 18x18 [fill={[type=SOLID] [color=#000000]}] [cx=12.00] [cy=12.00] [r=1.50]
                RenderSVGPath {circle} at (436,554) size 15x18 [fill={[type=SOLID] [color=#000000]}] [cx=17.00] [cy=12.00] [r=1.50]
                RenderSVGPath {path} at (415,583) size 43x26 [stroke={[type=SOLID] [color=#000000] [stroke width=2.00]}] [fill={[type=SOLID] [color=#000000]}] [data="M 10 19 L 15 23 L 20 19"]
          RenderSVGContainer {g} at (483,470) size 106x174 [transform={m=((1.00,0.00)(0.00,1.00)) t=(100.00,0.00)}]
            RenderSVGText {text} at (0,-14) size 27x12 contains 1 chunk(s)
              RenderSVGInlineText {#text} at (0,0) size 27x12
                chunk 1 text run 1 at (0.00,-5.00) startOffset 0 endOffset 5 width 26.05: "xMax*"
            RenderSVGPath {rect} at (518,503) size 71x141 [stroke={[type=SOLID] [color=#0000FF]}] [x=0.50] [y=0.50] [width=29.00] [height=59.00]
            RenderSVGViewportContainer {svg} at (483,503) size 106x141
              RenderSVGPath {rect} at (483,503) size 106x141 [stroke={[type=SOLID] [color=#FF0000]}] [fill={[type=SOLID] [color=#000000]}] [x=0.50] [y=0.50] [width=29.00] [height=39.00]
              RenderSVGContainer {g} at (499,538) size 74x71 [transform={m=((1.00,0.00)(0.00,1.00)) t=(0.00,5.00)}]
                RenderSVGPath {circle} at (499,538) size 74x71 [fill={[type=SOLID] [color=#FFFF00]}] [cx=15.00] [cy=15.00] [r=10.00]
                RenderSVGPath {circle} at (518,554) size 15x18 [fill={[type=SOLID] [color=#000000]}] [cx=12.00] [cy=12.00] [r=1.50]
                RenderSVGPath {circle} at (535,554) size 17x18 [fill={[type=SOLID] [color=#000000]}] [cx=17.00] [cy=12.00] [r=1.50]
                RenderSVGPath {path} at (513,583) size 46x26 [stroke={[type=SOLID] [color=#000000] [stroke width=2.00]}] [fill={[type=SOLID] [color=#000000]}] [data="M 10 19 L 15 23 L 20 19"]
        RenderSVGContainer {g} at (706,435) size 281x256 [transform={m=((1.00,0.00)(0.00,1.00)) t=(300.00,185.00)}]
          RenderSVGText {text} at (0,-29) size 114x12 contains 1 chunk(s)
            RenderSVGInlineText {#text} at (0,0) size 114x12
              chunk 1 text run 1 at (0.00,-20.00) startOffset 0 endOffset 38 width 113.17: "---------- slice ---------------------"
          RenderSVGContainer {g} at (706,470) size 118x191
            RenderSVGText {text} at (0,-14) size 27x12 contains 1 chunk(s)
              RenderSVGInlineText {#text} at (0,0) size 27x12
                chunk 1 text run 1 at (0.00,-5.00) startOffset 0 endOffset 5 width 26.48: "*YMin"
            RenderSVGPath {rect} at (706,503) size 118x71 [stroke={[type=SOLID] [color=#0000FF]}] [x=0.50] [y=0.50] [width=49.00] [height=29.00]
            RenderSVGViewportContainer {svg} at (706,503) size 118x158
              RenderSVGPath {rect} at (706,503) size 118x158 [stroke={[type=SOLID] [color=#FF0000]}] [fill={[type=SOLID] [color=#000000]}] [x=0.50] [y=0.50] [width=29.00] [height=39.00]
              RenderSVGContainer {g} at (724,540) size 81x81 [transform={m=((1.00,0.00)(0.00,1.00)) t=(0.00,5.00)}]
                RenderSVGPath {circle} at (724,540) size 81x81 [fill={[type=SOLID] [color=#FFFF00]}] [cx=15.00] [cy=15.00] [r=10.00]
                RenderSVGPath {circle} at (743,562) size 20x17 [fill={[type=SOLID] [color=#000000]}] [cx=12.00] [cy=12.00] [r=1.50]
                RenderSVGPath {circle} at (764,562) size 17x17 [fill={[type=SOLID] [color=#000000]}] [cx=17.00] [cy=12.00] [r=1.50]
                RenderSVGPath {path} at (741,592) size 47x29 [stroke={[type=SOLID] [color=#000000] [stroke width=2.00]}] [fill={[type=SOLID] [color=#000000]}] [data="M 10 19 L 15 23 L 20 19"]
          RenderSVGContainer {g} at (869,458) size 118x161 [transform={m=((1.00,0.00)(0.00,1.00)) t=(70.00,0.00)}]
            RenderSVGText {text} at (0,-14) size 27x12 contains 1 chunk(s)
              RenderSVGInlineText {#text} at (0,0) size 27x12
                chunk 1 text run 1 at (0.00,-5.00) startOffset 0 endOffset 5 width 26.48: "*YMid"
            RenderSVGPath {rect} at (869,503) size 118x71 [stroke={[type=SOLID] [color=#0000FF]}] [x=0.50] [y=0.50] [width=49.00] [height=29.00]
            RenderSVGViewportContainer {svg} at (869,458) size 118x161
              RenderSVGPath {rect} at (869,458) size 118x161 [stroke={[type=SOLID] [color=#FF0000]}] [fill={[type=SOLID] [color=#000000]}] [x=0.50] [y=0.50] [width=29.00] [height=39.00]
              RenderSVGContainer {g} at (888,498) size 81x81 [transform={m=((1.00,0.00)(0.00,1.00)) t=(0.00,5.00)}]
                RenderSVGPath {circle} at (888,498) size 81x81 [fill={[type=SOLID] [color=#FFFF00]}] [cx=15.00] [cy=15.00] [r=10.00]
                RenderSVGPath {circle} at (907,517) size 20x20 [fill={[type=SOLID] [color=#000000]}] [cx=12.00] [cy=12.00] [r=1.50]
                RenderSVGPath {circle} at (928,517) size 17x20 [fill={[type=SOLID] [color=#000000]}] [cx=17.00] [cy=12.00] [r=1.50]
                RenderSVGPath {path} at (905,550) size 47x29 [stroke={[type=SOLID] [color=#000000] [stroke width=2.00]}] [fill={[type=SOLID] [color=#000000]}] [data="M 10 19 L 15 23 L 20 19"]
          RenderSVGContainer {g} at (706,533) size 118x158 [transform={m=((1.00,0.00)(0.00,1.00)) t=(0.00,50.00)}]
            RenderSVGText {text} at (0,-14) size 28x12 contains 1 chunk(s)
              RenderSVGInlineText {#text} at (0,0) size 28x12
                chunk 1 text run 1 at (0.00,-5.00) startOffset 0 endOffset 5 width 27.76: "*YMax"
            RenderSVGPath {rect} at (706,620) size 118x71 [stroke={[type=SOLID] [color=#0000FF]}] [x=0.50] [y=0.50] [width=49.00] [height=29.00]
            RenderSVGViewportContainer {svg} at (706,533) size 118x158
              RenderSVGPath {rect} at (706,533) size 118x158 [stroke={[type=SOLID] [color=#FF0000]}] [fill={[type=SOLID] [color=#000000]}] [x=0.50] [y=0.50] [width=29.00] [height=39.00]
              RenderSVGContainer {g} at (724,573) size 81x81 [transform={m=((1.00,0.00)(0.00,1.00)) t=(0.00,5.00)}]
                RenderSVGPath {circle} at (724,573) size 81x81 [fill={[type=SOLID] [color=#FFFF00]}] [cx=15.00] [cy=15.00] [r=10.00]
                RenderSVGPath {circle} at (743,592) size 20x17 [fill={[type=SOLID] [color=#000000]}] [cx=12.00] [cy=12.00] [r=1.50]
                RenderSVGPath {circle} at (764,592) size 17x17 [fill={[type=SOLID] [color=#000000]}] [cx=17.00] [cy=12.00] [r=1.50]
                RenderSVGPath {path} at (741,622) size 47x32 [stroke={[type=SOLID] [color=#000000] [stroke width=2.00]}] [fill={[type=SOLID] [color=#000000]}] [data="M 10 19 L 15 23 L 20 19"]
    RenderSVGText {text} at (10,303) size 266x48 contains 1 chunk(s)
      RenderSVGInlineText {#text} at (0,0) size 266x48
        chunk 1 text run 1 at (10.00,340.00) startOffset 0 endOffset 16 width 265.20: "$Revision: 1.6 $"
    RenderSVGPath {rect} at (3,0) size 1125x843 [stroke={[type=SOLID] [color=#000000]}] [x=1.00] [y=1.00] [width=478.00] [height=358.00]
    RenderSVGHiddenContainer {defs} at (0,0) size 0x0
