layer at (0,0) size 800x600
  RenderView at (0,0) size 800x600
layer at (0,0) size 800x38
  RenderBlock {test} at (0,0) size 800x38
    RenderBlock {tests} at (0,0) size 800x38 [color=#FF0000]
      RenderBlock {testA} at (0,0) size 800x19 [color=#008000]
        RenderText {#text} at (0,0) size 136x19
          text run at (0,0) width 136: "This should be green."
      RenderBlock {testB} at (0,19) size 800x19 [color=#008000]
        RenderText {#text} at (0,0) size 136x19
          text run at (0,0) width 136: "This should be green."
