layer at (0,0) size 800x600
  RenderView at (0,0) size 800x600
layer at (0,0) size 800x121
  RenderBlock {test} at (0,0) size 800x121
    RenderBlock {div} at (0,16) size 800x89
      RenderBlock {p} at (0,0) size 800x19 [bgcolor=#00FF00]
        RenderText {#text} at (0,0) size 297x19
          text run at (0,0) width 297: "This paragraph should have green background."
      RenderBlock {address} at (0,35) size 800x19
        RenderText {#text} at (0,0) size 226x19
          text run at (0,0) width 226: "But this address should be unstyled."
      RenderBlock {p} at (0,70) size 800x19 [bgcolor=#00FF00]
        RenderText {#text} at (0,0) size 297x19
          text run at (0,0) width 297: "This paragraph should have green background."
