layer at (0,0) size 800x600
  RenderView at (0,0) size 800x600
layer at (0,0) size 800x600
  RenderSVGRoot {svg} at (0,83) size 430x461
    RenderSVGContainer {g} at (0,83) size 430x461 [transform={m=((0.43,0.25)(-0.25,0.43)) t=(50.00,50.00)}]
      RenderSVGHiddenContainer {defs} at (0,0) size 0x0
      RenderSVGText {text} at (10,5) size 140x20 contains 1 chunk(s)
        RenderSVGInlineText {#text} at (0,0) size 140x20
          chunk 1 text run 1 at (10.00,20.00) startOffset 0 endOffset 21 width 139.20: "Test for mask support"
      RenderSVGPath {rect} at (0,108) size 152x232 [fill={[type=SOLID] [color=#FF0000]}] [x=10.00] [y=30.00] [width=100.00] [height=260.00]
      RenderSVGResourceMasker {mask} [id="mask1"] [maskUnits=userSpaceOnUse] [maskContentUnits=userSpaceOnUse]
        RenderSVGHiddenContainer {defs} at (0,0) size 0x0
          RenderSVGResourceLinearGradient {linearGradient} [id="Grad1"] [gradientUnits=userSpaceOnUse] [start=(60,50)] [end=(60,120)]
            RenderSVGGradientStop {stop} [offset=0.00] [color=#FFFFFF]
            RenderSVGGradientStop {stop} [offset=1.00] [color=#FFFFFF80]
        RenderSVGPath {rect} at (80,143) size 99x87 [fill={[type=LINEAR-GRADIENT] [id="Grad1"]}] [x=60.00] [y=50.00] [width=100.00] [height=60.00]
      RenderSVGPath {rect} at (80,143) size 99x87 [fill={[type=SOLID] [color=#00FF00]}] [x=60.00] [y=50.00] [width=100.00] [height=60.00]
        [masker="mask1"] RenderSVGResourceMasker {mask} at (60,50) size 100x60
      RenderSVGText {text} at (200,53) size 165x16 contains 1 chunk(s)
        RenderSVGInlineText {#text} at (0,0) size 165x16
          chunk 1 text run 1 at (200.00,65.00) startOffset 0 endOffset 30 width 164.40: "Mask with linear gradient from"
      RenderSVGText {text} at (200,68) size 141x16 contains 1 chunk(s)
        RenderSVGInlineText {#text} at (0,0) size 141x16
          chunk 1 text run 1 at (200.00,80.00) startOffset 0 endOffset 25 width 140.40: "opacity=1 to opactity=0.5"
      RenderSVGResourceMasker {mask} [id="mask2"] [maskUnits=userSpaceOnUse] [maskContentUnits=userSpaceOnUse]
        RenderSVGPath {rect} at (63,193) size 87x66 [fill={[type=SOLID] [color=#FFFFFF] [opacity=0.50]}] [x=60.00] [y=120.00] [width=100.00] [height=30.00]
      RenderSVGPath {rect} at (63,193) size 87x66 [fill={[type=SOLID] [color=#00FF00]}] [x=60.00] [y=120.00] [width=100.00] [height=30.00]
        [masker="mask2"] RenderSVGResourceMasker {mask} at (60,120) size 100x30
      RenderSVGText {text} at (200,123) size 178x16 contains 1 chunk(s)
        RenderSVGInlineText {#text} at (0,0) size 178x16
          chunk 1 text run 1 at (200.00,135.00) startOffset 0 endOffset 32 width 177.60: "Mask with uniform opacity of 0.5"
      RenderSVGPath {rect} at (46,223) size 88x66 [fill={[type=SOLID] [color=#00FF00] [opacity=0.50]}] [x=60.00] [y=160.00] [width=100.00] [height=30.00]
      RenderSVGText {text} at (200,163) size 206x16 contains 1 chunk(s)
        RenderSVGInlineText {#text} at (0,0) size 206x16
          chunk 1 text run 1 at (200.00,175.00) startOffset 0 endOffset 37 width 205.20: "Rectangle with uniform opacity of 0.5"
      RenderSVGResourceMasker {mask} [id="mask3"] [maskUnits=userSpaceOnUse] [maskContentUnits=userSpaceOnUse]
        RenderSVGPath {rect} at (31,251) size 158x104 [fill={[type=SOLID] [color=#FFFFFF] [opacity=0.50]}] [x=60.00] [y=200.00] [width=200.00] [height=25.00]
        RenderSVGPath {rect} at (21,270) size 158x104 [fill={[type=SOLID] [color=#FFFFFF] [opacity=0.20]}] [x=60.00] [y=225.00] [width=200.00] [height=25.00]
        RenderSVGPath {rect} at (11,288) size 158x104 [fill={[type=SOLID] [color=#FFFFFF]}] [x=60.00] [y=250.00] [width=200.00] [height=25.00]
        RenderSVGPath {rect} at (0,306) size 157x103 [fill={[type=SOLID] [color=#FFFFFF] [opacity=0.70]}] [x=60.00] [y=275.00] [width=200.00] [height=25.00]
      RenderSVGText {text} at (60,174) size 233x139 contains 1 chunk(s)
        [masker="mask3"] RenderSVGResourceMasker {mask} at (60,200) size 200x100
        RenderSVGInlineText {#text} at (0,0) size 233x139
          [masker="mask3"] RenderSVGResourceMasker {mask} at (60,200) size 200x100
          chunk 1 text run 1 at (60.00,280.00) startOffset 0 endOffset 3 width 232.80: "SVG"
      RenderSVGText {text} at (200,213) size 204x16 contains 1 chunk(s)
        RenderSVGInlineText {#text} at (0,0) size 204x16
          chunk 1 text run 1 at (200.00,225.00) startOffset 0 endOffset 36 width 204.00: "Text with mask containing rectangles"
      RenderSVGText {text} at (200,228) size 107x16 contains 1 chunk(s)
        RenderSVGInlineText {#text} at (0,0) size 107x16
          chunk 1 text run 1 at (200.00,240.00) startOffset 0 endOffset 20 width 106.80: "of various opacities"
      RenderSVGText {text} at (10,301) size 270x54 contains 1 chunk(s)
        RenderSVGInlineText {#text} at (0,0) size 270x54
          chunk 1 text run 1 at (10.00,340.00) startOffset 0 endOffset 16 width 270.00: "$Revision: 1.7 $"
      RenderSVGPath {rect} at (0,83) size 430x461 [stroke={[type=SOLID] [color=#000000]}] [x=1.00] [y=1.00] [width=478.00] [height=358.00]
