layer at (0,0) size 800x600
  RenderView at (0,0) size 800x600
layer at (0,0) size 800x156
  RenderBlock {HTML} at (0,0) size 800x156
    RenderBody {BODY} at (8,16) size 784x124 [color=#008000]
      RenderBlock {P} at (0,0) size 784x19
        RenderText {#text} at (0,0) size 194x19
          text run at (0,0) width 194: "This sentence should be green."
      RenderBlock {P} at (0,35) size 784x19 [color=#FFFFFF] [bgcolor=#008000]
        RenderText {#text} at (0,0) size 90x19
          text run at (0,0) width 90: "This sentence "
        RenderInline {SPAN} at (0,0) size 61x19
          RenderText {#text} at (90,0) size 61x19
            text run at (90,0) width 61: "should be"
        RenderText {#text} at (151,0) size 102x19
          text run at (151,0) width 102: " white on green."
      RenderBlock {P} at (0,70) size 784x19 [color=#FFFFFF]
        RenderInline {EM} at (0,0) size 36x19 [color=#008000]
          RenderText {#text} at (0,0) size 36x19
            text run at (0,0) width 36: "PASS"
        RenderText {#text} at (36,0) size 4x19
          text run at (36,0) width 4: " "
        RenderInline {STRONG} at (0,0) size 39x19
          RenderText {#text} at (40,0) size 39x19
            text run at (40,0) width 39: "FAIL"
        RenderText {#text} at (0,0) size 0x0
      RenderBlock {P} at (0,105) size 784x19
        RenderText {#text} at (0,0) size 43x19
          text run at (0,0) width 43: "PASS "
        RenderInline {DFN} at (0,0) size 34x19 [color=#FFFFFF]
          RenderText {#text} at (43,0) size 34x19
            text run at (43,0) width 34: "FAIL"
        RenderText {#text} at (0,0) size 0x0
