layer at (0,0) size 800x600
  RenderView at (0,0) size 800x600
layer at (0,0) size 450x500
  RenderSVGRoot {svg} at (20,25) size 407x450
    RenderSVGContainer {g} at (20,25) size 407x450
      RenderSVGText {text} at (98,25) size 254x19 contains 1 chunk(s)
        RenderSVGInlineText {#text} at (0,0) size 254x19
          chunk 1 (middle anchor) text run 1 at (98.00,40.00) startOffset 0 endOffset 38 width 254.00: "Long text on a path test for selection"
      RenderSVGHiddenContainer {defs} at (0,0) size 0x0
        RenderSVGPath {path} at (25,149) size 400x301 [stroke={[type=SOLID] [color=#0000FF]}] [data="M 25 150 L 425 150 M 25 170 L 425 170 M 25 190 L 425 190 M 25 210 L 425 210 M 25 230 L 425 230 M 25 250 L 425 250 M 25 270 L 425 270 M 25 290 L 425 290 M 25 310 L 425 310 M 25 330 L 425 330 M 25 350 L 425 350 M 25 370 L 425 370 M 25 390 L 425 390 M 25 410 L 425 410 M 25 430 L 425 430 M 25 450"]
      RenderSVGContainer {use} at (25,149) size 400x301
        RenderSVGContainer {g} at (25,149) size 400x301
          RenderSVGPath {path} at (25,149) size 400x301 [stroke={[type=SOLID] [color=#0000FF]}] [data="M 25 150 L 425 150 M 25 170 L 425 170 M 25 190 L 425 190 M 25 210 L 425 210 M 25 230 L 425 230 M 25 250 L 425 250 M 25 270 L 425 270 M 25 290 L 425 290 M 25 310 L 425 310 M 25 330 L 425 330 M 25 350 L 425 350 M 25 370 L 425 370 M 25 390 L 425 390 M 25 410 L 425 410 M 25 430 L 425 430 M 25 450"]
      RenderSVGPath {rect} at (20,100) size 205x375 [fill={[type=SOLID] [color=#C8C8FF]}] [x=20.00] [y=100.00] [width=205.00] [height=375.00]
      RenderSVGText {text} at (21,132) size 406x263 contains 1 chunk(s)
        RenderSVGTextPath {textPath} at (0,0) size 406x263
          RenderSVGInlineText {#text} at (0,0) size 406x263
            chunk 1 text run 1 at (31.00,150.00) startOffset 0 endOffset 1 width 12.00: "T"
            chunk 1 text run 2 at (42.00,150.00) startOffset 1 endOffset 2 width 10.00: "h"
            chunk 1 text run 3 at (50.00,150.00) startOffset 2 endOffset 3 width 6.00: "i"
            chunk 1 text run 4 at (57.00,150.00) startOffset 3 endOffset 4 width 8.00: "s"
            chunk 1 text run 5 at (63.50,150.00) startOffset 4 endOffset 5 width 5.00: " "
            chunk 1 text run 6 at (69.00,150.00) startOffset 5 endOffset 6 width 6.00: "i"
            chunk 1 text run 7 at (76.00,150.00) startOffset 6 endOffset 7 width 8.00: "s"
            chunk 1 text run 8 at (82.50,150.00) startOffset 7 endOffset 8 width 5.00: " "
            chunk 1 text run 9 at (89.50,150.00) startOffset 8 endOffset 9 width 9.00: "a"
            chunk 1 text run 10 at (99.00,150.00) startOffset 9 endOffset 10 width 10.00: "n"
            chunk 1 text run 11 at (106.50,150.00) startOffset 10 endOffset 11 width 5.00: " "
            chunk 1 text run 12 at (113.50,150.00) startOffset 11 endOffset 12 width 9.00: "e"
            chunk 1 text run 13 at (123.00,150.00) startOffset 12 endOffset 13 width 10.00: "x"
            chunk 1 text run 14 at (132.50,150.00) startOffset 13 endOffset 14 width 9.00: "a"
            chunk 1 text run 15 at (145.00,150.00) startOffset 14 endOffset 15 width 16.00: "m"
            chunk 1 text run 16 at (158.00,150.00) startOffset 15 endOffset 16 width 10.00: "p"
            chunk 1 text run 17 at (166.00,150.00) startOffset 16 endOffset 17 width 6.00: "l"
            chunk 1 text run 18 at (173.50,150.00) startOffset 17 endOffset 18 width 9.00: "e"
            chunk 1 text run 19 at (180.50,150.00) startOffset 18 endOffset 19 width 5.00: " "
            chunk 1 text run 20 at (188.00,150.00) startOffset 19 endOffset 20 width 10.00: "o"
            chunk 1 text run 21 at (196.50,150.00) startOffset 20 endOffset 21 width 7.00: "f"
            chunk 1 text run 22 at (202.50,150.00) startOffset 21 endOffset 22 width 5.00: " "
            chunk 1 text run 23 at (209.50,150.00) startOffset 22 endOffset 23 width 9.00: "a"
            chunk 1 text run 24 at (216.50,150.00) startOffset 23 endOffset 24 width 5.00: " "
            chunk 1 text run 25 at (224.00,150.00) startOffset 24 endOffset 25 width 10.00: "v"
            chunk 1 text run 26 at (233.50,150.00) startOffset 25 endOffset 26 width 9.00: "e"
            chunk 1 text run 27 at (241.50,150.00) startOffset 26 endOffset 27 width 7.00: "r"
            chunk 1 text run 28 at (250.00,150.00) startOffset 27 endOffset 28 width 10.00: "y"
            chunk 1 text run 29 at (257.50,150.00) startOffset 28 endOffset 29 width 5.00: " "
            chunk 1 text run 30 at (263.00,150.00) startOffset 29 endOffset 30 width 6.00: "l"
            chunk 1 text run 31 at (271.00,150.00) startOffset 30 endOffset 31 width 10.00: "o"
            chunk 1 text run 32 at (281.00,150.00) startOffset 31 endOffset 32 width 10.00: "n"
            chunk 1 text run 33 at (291.00,150.00) startOffset 32 endOffset 33 width 10.00: "g"
            chunk 1 text run 34 at (298.50,150.00) startOffset 33 endOffset 34 width 5.00: " "
            chunk 1 text run 35 at (305.00,150.00) startOffset 34 endOffset 35 width 8.00: "s"
            chunk 1 text run 36 at (312.00,150.00) startOffset 35 endOffset 36 width 6.00: "t"
            chunk 1 text run 37 at (318.50,150.00) startOffset 36 endOffset 37 width 7.00: "r"
            chunk 1 text run 38 at (325.00,150.00) startOffset 37 endOffset 38 width 6.00: "i"
            chunk 1 text run 39 at (333.00,150.00) startOffset 38 endOffset 39 width 10.00: "n"
            chunk 1 text run 40 at (343.00,150.00) startOffset 39 endOffset 40 width 10.00: "g"
            chunk 1 text run 41 at (350.50,150.00) startOffset 40 endOffset 41 width 5.00: " "
            chunk 1 text run 42 at (356.00,150.00) startOffset 41 endOffset 42 width 6.00: "t"
            chunk 1 text run 43 at (364.00,150.00) startOffset 42 endOffset 43 width 10.00: "h"
            chunk 1 text run 44 at (373.50,150.00) startOffset 43 endOffset 44 width 9.00: "a"
            chunk 1 text run 45 at (381.00,150.00) startOffset 44 endOffset 45 width 6.00: "t"
            chunk 1 text run 46 at (386.50,150.00) startOffset 45 endOffset 46 width 5.00: " "
            chunk 1 text run 47 at (392.00,150.00) startOffset 46 endOffset 47 width 6.00: "i"
            chunk 1 text run 48 at (399.00,150.00) startOffset 47 endOffset 48 width 8.00: "s"
            chunk 1 text run 49 at (405.50,150.00) startOffset 48 endOffset 49 width 5.00: " "
            chunk 1 text run 50 at (412.00,150.00) startOffset 49 endOffset 50 width 8.00: "s"
            chunk 1 text run 51 at (421.00,150.00) startOffset 50 endOffset 51 width 10.00: "p"
            chunk 1 text run 52 at (29.00,170.00) startOffset 51 endOffset 52 width 6.00: "l"
            chunk 1 text run 53 at (35.00,170.00) startOffset 52 endOffset 53 width 6.00: "i"
            chunk 1 text run 54 at (41.00,170.00) startOffset 53 endOffset 54 width 6.00: "t"
            chunk 1 text run 55 at (46.50,170.00) startOffset 54 endOffset 55 width 5.00: " "
            chunk 1 text run 56 at (53.50,170.00) startOffset 55 endOffset 56 width 9.00: "a"
            chunk 1 text run 57 at (62.50,170.00) startOffset 56 endOffset 57 width 9.00: "c"
            chunk 1 text run 58 at (70.50,170.00) startOffset 57 endOffset 58 width 7.00: "r"
            chunk 1 text run 59 at (79.00,170.00) startOffset 58 endOffset 59 width 10.00: "o"
            chunk 1 text run 60 at (88.00,170.00) startOffset 59 endOffset 60 width 8.00: "s"
            chunk 1 text run 61 at (96.00,170.00) startOffset 60 endOffset 61 width 8.00: "s"
            chunk 1 text run 62 at (102.50,170.00) startOffset 61 endOffset 62 width 5.00: " "
            chunk 1 text run 63 at (113.00,170.00) startOffset 62 endOffset 63 width 16.00: "m"
            chunk 1 text run 64 at (126.00,170.00) startOffset 63 endOffset 64 width 10.00: "u"
            chunk 1 text run 65 at (134.00,170.00) startOffset 64 endOffset 65 width 6.00: "l"
            chunk 1 text run 66 at (140.00,170.00) startOffset 65 endOffset 66 width 6.00: "t"
            chunk 1 text run 67 at (146.00,170.00) startOffset 66 endOffset 67 width 6.00: "i"
            chunk 1 text run 68 at (154.00,170.00) startOffset 67 endOffset 68 width 10.00: "p"
            chunk 1 text run 69 at (162.00,170.00) startOffset 68 endOffset 69 width 6.00: "l"
            chunk 1 text run 70 at (169.50,170.00) startOffset 69 endOffset 70 width 9.00: "e"
            chunk 1 text run 71 at (176.50,170.00) startOffset 70 endOffset 71 width 5.00: " "
            chunk 1 text run 72 at (182.00,170.00) startOffset 71 endOffset 72 width 6.00: "l"
            chunk 1 text run 73 at (188.00,170.00) startOffset 72 endOffset 73 width 6.00: "i"
            chunk 1 text run 74 at (196.00,170.00) startOffset 73 endOffset 74 width 10.00: "n"
            chunk 1 text run 75 at (205.50,170.00) startOffset 74 endOffset 75 width 9.00: "e"
            chunk 1 text run 76 at (214.00,170.00) startOffset 75 endOffset 76 width 8.00: "s"
            chunk 1 text run 77 at (220.50,170.00) startOffset 76 endOffset 77 width 5.00: " "
            chunk 1 text run 78 at (228.00,170.00) startOffset 77 endOffset 78 width 10.00: "v"
            chunk 1 text run 79 at (236.00,170.00) startOffset 78 endOffset 79 width 6.00: "i"
            chunk 1 text run 80 at (243.50,170.00) startOffset 79 endOffset 80 width 9.00: "a"
            chunk 1 text run 81 at (250.50,170.00) startOffset 80 endOffset 81 width 5.00: " "
            chunk 1 text run 82 at (256.00,170.00) startOffset 81 endOffset 82 width 6.00: "t"
            chunk 1 text run 83 at (264.00,170.00) startOffset 82 endOffset 83 width 10.00: "h"
            chunk 1 text run 84 at (273.50,170.00) startOffset 83 endOffset 84 width 9.00: "e"
            chunk 1 text run 85 at (280.50,170.00) startOffset 84 endOffset 85 width 5.00: " "
            chunk 1 text run 86 at (286.00,170.00) startOffset 85 endOffset 86 width 6.00: "t"
            chunk 1 text run 87 at (293.50,170.00) startOffset 86 endOffset 87 width 9.00: "e"
            chunk 1 text run 88 at (303.00,170.00) startOffset 87 endOffset 88 width 10.00: "x"
            chunk 1 text run 89 at (311.00,170.00) startOffset 88 endOffset 89 width 6.00: "t"
            chunk 1 text run 90 at (319.50,170.00) startOffset 89 endOffset 90 width 11.00: "P"
            chunk 1 text run 91 at (329.50,170.00) startOffset 90 endOffset 91 width 9.00: "a"
            chunk 1 text run 92 at (337.00,170.00) startOffset 91 endOffset 92 width 6.00: "t"
            chunk 1 text run 93 at (345.00,170.00) startOffset 92 endOffset 93 width 10.00: "h"
            chunk 1 text run 94 at (352.50,170.00) startOffset 93 endOffset 94 width 5.00: " "
            chunk 1 text run 95 at (358.00,170.00) startOffset 94 endOffset 95 width 6.00: "t"
            chunk 1 text run 96 at (365.50,170.00) startOffset 95 endOffset 96 width 9.00: "a"
            chunk 1 text run 97 at (375.00,170.00) startOffset 96 endOffset 97 width 10.00: "g"
            chunk 1 text run 98 at (382.50,170.00) startOffset 97 endOffset 98 width 5.00: "."
            chunk 1 text run 99 at (387.50,170.00) startOffset 98 endOffset 99 width 5.00: " "
            chunk 1 text run 100 at (396.00,170.00) startOffset 99 endOffset 100 width 12.00: "T"
            chunk 1 text run 101 at (407.00,170.00) startOffset 100 endOffset 101 width 10.00: "h"
            chunk 1 text run 102 at (416.50,170.00) startOffset 101 endOffset 102 width 9.00: "e"
            chunk 1 text run 103 at (423.50,170.00) startOffset 102 endOffset 103 width 5.00: " "
            chunk 1 text run 104 at (31.00,190.00) startOffset 103 endOffset 104 width 10.00: "p"
            chunk 1 text run 105 at (41.00,190.00) startOffset 104 endOffset 105 width 10.00: "u"
            chunk 1 text run 106 at (49.50,190.00) startOffset 105 endOffset 106 width 7.00: "r"
            chunk 1 text run 107 at (58.00,190.00) startOffset 106 endOffset 107 width 10.00: "p"
            chunk 1 text run 108 at (68.00,190.00) startOffset 107 endOffset 108 width 10.00: "o"
            chunk 1 text run 109 at (77.00,190.00) startOffset 108 endOffset 109 width 8.00: "s"
            chunk 1 text run 110 at (85.50,190.00) startOffset 109 endOffset 110 width 9.00: "e"
            chunk 1 text run 111 at (92.50,190.00) startOffset 110 endOffset 111 width 5.00: " "
            chunk 1 text run 112 at (100.00,190.00) startOffset 111 endOffset 112 width 10.00: "o"
            chunk 1 text run 113 at (108.50,190.00) startOffset 112 endOffset 113 width 7.00: "f"
            chunk 1 text run 114 at (114.50,190.00) startOffset 113 endOffset 114 width 5.00: " "
            chunk 1 text run 115 at (120.00,190.00) startOffset 114 endOffset 115 width 6.00: "t"
            chunk 1 text run 116 at (128.00,190.00) startOffset 115 endOffset 116 width 10.00: "h"
            chunk 1 text run 117 at (136.00,190.00) startOffset 116 endOffset 117 width 6.00: "i"
            chunk 1 text run 118 at (143.00,190.00) startOffset 117 endOffset 118 width 8.00: "s"
            chunk 1 text run 119 at (149.50,190.00) startOffset 118 endOffset 119 width 5.00: " "
            chunk 1 text run 120 at (155.00,190.00) startOffset 119 endOffset 120 width 6.00: "t"
            chunk 1 text run 121 at (162.50,190.00) startOffset 120 endOffset 121 width 9.00: "e"
            chunk 1 text run 122 at (171.00,190.00) startOffset 121 endOffset 122 width 8.00: "s"
            chunk 1 text run 123 at (178.00,190.00) startOffset 122 endOffset 123 width 6.00: "t"
            chunk 1 text run 124 at (183.50,190.00) startOffset 123 endOffset 124 width 5.00: " "
            chunk 1 text run 125 at (189.00,190.00) startOffset 124 endOffset 125 width 6.00: "i"
            chunk 1 text run 126 at (196.00,190.00) startOffset 125 endOffset 126 width 8.00: "s"
            chunk 1 text run 127 at (202.50,190.00) startOffset 126 endOffset 127 width 5.00: " "
            chunk 1 text run 128 at (208.00,190.00) startOffset 127 endOffset 128 width 6.00: "t"
            chunk 1 text run 129 at (216.00,190.00) startOffset 128 endOffset 129 width 10.00: "o"
            chunk 1 text run 130 at (223.50,190.00) startOffset 129 endOffset 130 width 5.00: " "
            chunk 1 text run 131 at (230.50,190.00) startOffset 130 endOffset 131 width 9.00: "e"
            chunk 1 text run 132 at (240.00,190.00) startOffset 131 endOffset 132 width 10.00: "n"
            chunk 1 text run 133 at (249.00,190.00) startOffset 132 endOffset 133 width 8.00: "s"
            chunk 1 text run 134 at (258.00,190.00) startOffset 133 endOffset 134 width 10.00: "u"
            chunk 1 text run 135 at (266.50,190.00) startOffset 134 endOffset 135 width 7.00: "r"
            chunk 1 text run 136 at (274.50,190.00) startOffset 135 endOffset 136 width 9.00: "e"
            chunk 1 text run 137 at (281.50,190.00) startOffset 136 endOffset 137 width 5.00: " "
            chunk 1 text run 138 at (287.00,190.00) startOffset 137 endOffset 138 width 6.00: "t"
            chunk 1 text run 139 at (295.00,190.00) startOffset 138 endOffset 139 width 10.00: "h"
            chunk 1 text run 140 at (304.50,190.00) startOffset 139 endOffset 140 width 9.00: "a"
            chunk 1 text run 141 at (312.00,190.00) startOffset 140 endOffset 141 width 6.00: "t"
            chunk 1 text run 142 at (317.50,190.00) startOffset 141 endOffset 142 width 5.00: " "
            chunk 1 text run 143 at (323.00,190.00) startOffset 142 endOffset 143 width 6.00: "t"
            chunk 1 text run 144 at (330.50,190.00) startOffset 143 endOffset 144 width 9.00: "e"
            chunk 1 text run 145 at (340.00,190.00) startOffset 144 endOffset 145 width 10.00: "x"
            chunk 1 text run 146 at (348.00,190.00) startOffset 145 endOffset 146 width 6.00: "t"
            chunk 1 text run 147 at (354.50,190.00) startOffset 146 endOffset 147 width 7.00: "-"
            chunk 1 text run 148 at (362.00,190.00) startOffset 147 endOffset 148 width 8.00: "s"
            chunk 1 text run 149 at (370.50,190.00) startOffset 148 endOffset 149 width 9.00: "e"
            chunk 1 text run 150 at (378.00,190.00) startOffset 149 endOffset 150 width 6.00: "l"
            chunk 1 text run 151 at (385.50,190.00) startOffset 150 endOffset 151 width 9.00: "e"
            chunk 1 text run 152 at (394.50,190.00) startOffset 151 endOffset 152 width 9.00: "c"
            chunk 1 text run 153 at (402.00,190.00) startOffset 152 endOffset 153 width 6.00: "t"
            chunk 1 text run 154 at (408.00,190.00) startOffset 153 endOffset 154 width 6.00: "i"
            chunk 1 text run 155 at (416.00,190.00) startOffset 154 endOffset 155 width 10.00: "o"
            chunk 1 text run 156 at (26.00,210.00) startOffset 155 endOffset 156 width 10.00: "n"
            chunk 1 text run 157 at (33.50,210.00) startOffset 156 endOffset 157 width 5.00: " "
            chunk 1 text run 158 at (40.50,210.00) startOffset 157 endOffset 158 width 9.00: "c"
            chunk 1 text run 159 at (49.50,210.00) startOffset 158 endOffset 159 width 9.00: "a"
            chunk 1 text run 160 at (59.00,210.00) startOffset 159 endOffset 160 width 10.00: "n"
            chunk 1 text run 161 at (66.50,210.00) startOffset 160 endOffset 161 width 5.00: " "
            chunk 1 text run 162 at (74.00,210.00) startOffset 161 endOffset 162 width 10.00: "k"
            chunk 1 text run 163 at (83.50,210.00) startOffset 162 endOffset 163 width 9.00: "e"
            chunk 1 text run 164 at (92.50,210.00) startOffset 163 endOffset 164 width 9.00: "e"
            chunk 1 text run 165 at (102.00,210.00) startOffset 164 endOffset 165 width 10.00: "p"
            chunk 1 text run 166 at (109.50,210.00) startOffset 165 endOffset 166 width 5.00: " "
            chunk 1 text run 167 at (117.00,210.00) startOffset 166 endOffset 167 width 10.00: "u"
            chunk 1 text run 168 at (127.00,210.00) startOffset 167 endOffset 168 width 10.00: "p"
            chunk 1 text run 169 at (134.50,210.00) startOffset 168 endOffset 169 width 5.00: " "
            chunk 1 text run 170 at (141.50,210.00) startOffset 169 endOffset 170 width 9.00: "e"
            chunk 1 text run 171 at (151.00,210.00) startOffset 170 endOffset 171 width 10.00: "v"
            chunk 1 text run 172 at (160.50,210.00) startOffset 171 endOffset 172 width 9.00: "e"
            chunk 1 text run 173 at (170.00,210.00) startOffset 172 endOffset 173 width 10.00: "n"
            chunk 1 text run 174 at (177.50,210.00) startOffset 173 endOffset 174 width 5.00: " "
            chunk 1 text run 175 at (187.00,210.00) startOffset 174 endOffset 175 width 14.00: "w"
            chunk 1 text run 176 at (199.00,210.00) startOffset 175 endOffset 176 width 10.00: "h"
            chunk 1 text run 177 at (208.50,210.00) startOffset 176 endOffset 177 width 9.00: "e"
            chunk 1 text run 178 at (218.00,210.00) startOffset 177 endOffset 178 width 10.00: "n"
            chunk 1 text run 179 at (225.50,210.00) startOffset 178 endOffset 179 width 5.00: " "
            chunk 1 text run 180 at (231.50,210.00) startOffset 179 endOffset 180 width 7.00: "r"
            chunk 1 text run 181 at (239.50,210.00) startOffset 180 endOffset 181 width 9.00: "e"
            chunk 1 text run 182 at (247.00,210.00) startOffset 181 endOffset 182 width 6.00: "l"
            chunk 1 text run 183 at (254.50,210.00) startOffset 182 endOffset 183 width 9.00: "a"
            chunk 1 text run 184 at (262.00,210.00) startOffset 183 endOffset 184 width 6.00: "t"
            chunk 1 text run 185 at (268.00,210.00) startOffset 184 endOffset 185 width 6.00: "i"
            chunk 1 text run 186 at (276.00,210.00) startOffset 185 endOffset 186 width 10.00: "v"
            chunk 1 text run 187 at (285.50,210.00) startOffset 186 endOffset 187 width 9.00: "e"
            chunk 1 text run 188 at (293.00,210.00) startOffset 187 endOffset 188 width 6.00: "l"
            chunk 1 text run 189 at (301.00,210.00) startOffset 188 endOffset 189 width 10.00: "y"
            chunk 1 text run 190 at (308.50,210.00) startOffset 189 endOffset 190 width 5.00: " "
            chunk 1 text run 191 at (314.00,210.00) startOffset 190 endOffset 191 width 6.00: "l"
            chunk 1 text run 192 at (321.50,210.00) startOffset 191 endOffset 192 width 9.00: "a"
            chunk 1 text run 193 at (329.50,210.00) startOffset 192 endOffset 193 width 7.00: "r"
            chunk 1 text run 194 at (338.00,210.00) startOffset 193 endOffset 194 width 10.00: "g"
            chunk 1 text run 195 at (347.50,210.00) startOffset 194 endOffset 195 width 9.00: "e"
            chunk 1 text run 196 at (354.50,210.00) startOffset 195 endOffset 196 width 5.00: " "
            chunk 1 text run 197 at (362.00,210.00) startOffset 196 endOffset 197 width 10.00: "n"
            chunk 1 text run 198 at (372.00,210.00) startOffset 197 endOffset 198 width 10.00: "u"
            chunk 1 text run 199 at (385.00,210.00) startOffset 198 endOffset 199 width 16.00: "m"
            chunk 1 text run 200 at (398.00,210.00) startOffset 199 endOffset 200 width 10.00: "b"
            chunk 1 text run 201 at (407.50,210.00) startOffset 200 endOffset 201 width 9.00: "e"
            chunk 1 text run 202 at (415.50,210.00) startOffset 201 endOffset 202 width 7.00: "r"
            chunk 1 text run 203 at (423.00,210.00) startOffset 202 endOffset 203 width 8.00: "s"
            chunk 1 text run 204 at (29.50,230.00) startOffset 203 endOffset 204 width 5.00: " "
            chunk 1 text run 205 at (37.00,230.00) startOffset 204 endOffset 205 width 10.00: "o"
            chunk 1 text run 206 at (45.50,230.00) startOffset 205 endOffset 206 width 7.00: "f"
            chunk 1 text run 207 at (51.50,230.00) startOffset 206 endOffset 207 width 5.00: " "
            chunk 1 text run 208 at (58.50,230.00) startOffset 207 endOffset 208 width 9.00: "c"
            chunk 1 text run 209 at (68.00,230.00) startOffset 208 endOffset 209 width 10.00: "h"
            chunk 1 text run 210 at (77.50,230.00) startOffset 209 endOffset 210 width 9.00: "a"
            chunk 1 text run 211 at (85.50,230.00) startOffset 210 endOffset 211 width 7.00: "r"
            chunk 1 text run 212 at (93.50,230.00) startOffset 211 endOffset 212 width 9.00: "a"
            chunk 1 text run 213 at (102.50,230.00) startOffset 212 endOffset 213 width 9.00: "c"
            chunk 1 text run 214 at (110.00,230.00) startOffset 213 endOffset 214 width 6.00: "t"
            chunk 1 text run 215 at (117.50,230.00) startOffset 214 endOffset 215 width 9.00: "e"
            chunk 1 text run 216 at (125.50,230.00) startOffset 215 endOffset 216 width 7.00: "r"
            chunk 1 text run 217 at (133.00,230.00) startOffset 216 endOffset 217 width 8.00: "s"
            chunk 1 text run 218 at (139.50,230.00) startOffset 217 endOffset 218 width 5.00: " "
            chunk 1 text run 219 at (146.50,230.00) startOffset 218 endOffset 219 width 9.00: "a"
            chunk 1 text run 220 at (154.50,230.00) startOffset 219 endOffset 220 width 7.00: "r"
            chunk 1 text run 221 at (162.50,230.00) startOffset 220 endOffset 221 width 9.00: "e"
            chunk 1 text run 222 at (169.50,230.00) startOffset 221 endOffset 222 width 5.00: " "
            chunk 1 text run 223 at (177.00,230.00) startOffset 222 endOffset 223 width 10.00: "p"
            chunk 1 text run 224 at (186.50,230.00) startOffset 223 endOffset 224 width 9.00: "a"
            chunk 1 text run 225 at (194.50,230.00) startOffset 224 endOffset 225 width 7.00: "r"
            chunk 1 text run 226 at (201.00,230.00) startOffset 225 endOffset 226 width 6.00: "t"
            chunk 1 text run 227 at (206.50,230.00) startOffset 226 endOffset 227 width 5.00: " "
            chunk 1 text run 228 at (214.00,230.00) startOffset 227 endOffset 228 width 10.00: "o"
            chunk 1 text run 229 at (222.50,230.00) startOffset 228 endOffset 229 width 7.00: "f"
            chunk 1 text run 230 at (228.50,230.00) startOffset 229 endOffset 230 width 5.00: " "
            chunk 1 text run 231 at (234.00,230.00) startOffset 230 endOffset 231 width 6.00: "t"
            chunk 1 text run 232 at (242.00,230.00) startOffset 231 endOffset 232 width 10.00: "h"
            chunk 1 text run 233 at (251.50,230.00) startOffset 232 endOffset 233 width 9.00: "e"
            chunk 1 text run 234 at (258.50,230.00) startOffset 233 endOffset 234 width 5.00: " "
            chunk 1 text run 235 at (265.00,230.00) startOffset 234 endOffset 235 width 8.00: "s"
            chunk 1 text run 236 at (273.50,230.00) startOffset 235 endOffset 236 width 9.00: "e"
            chunk 1 text run 237 at (281.00,230.00) startOffset 236 endOffset 237 width 6.00: "l"
            chunk 1 text run 238 at (288.50,230.00) startOffset 237 endOffset 238 width 9.00: "e"
            chunk 1 text run 239 at (297.50,230.00) startOffset 238 endOffset 239 width 9.00: "c"
            chunk 1 text run 240 at (305.00,230.00) startOffset 239 endOffset 240 width 6.00: "t"
            chunk 1 text run 241 at (311.00,230.00) startOffset 240 endOffset 241 width 6.00: "i"
            chunk 1 text run 242 at (319.00,230.00) startOffset 241 endOffset 242 width 10.00: "o"
            chunk 1 text run 243 at (329.00,230.00) startOffset 242 endOffset 243 width 10.00: "n"
            chunk 1 text run 244 at (336.50,230.00) startOffset 243 endOffset 244 width 5.00: "."
            chunk 1 text run 245 at (341.50,230.00) startOffset 244 endOffset 245 width 5.00: " "
            chunk 1 text run 246 at (349.50,230.00) startOffset 245 endOffset 246 width 11.00: "S"
            chunk 1 text run 247 at (358.00,230.00) startOffset 246 endOffset 247 width 6.00: "i"
            chunk 1 text run 248 at (366.00,230.00) startOffset 247 endOffset 248 width 10.00: "n"
            chunk 1 text run 249 at (375.50,230.00) startOffset 248 endOffset 249 width 9.00: "c"
            chunk 1 text run 250 at (384.50,230.00) startOffset 249 endOffset 250 width 9.00: "e"
            chunk 1 text run 251 at (391.50,230.00) startOffset 250 endOffset 251 width 5.00: " "
            chunk 1 text run 252 at (397.50,230.00) startOffset 251 endOffset 252 width 7.00: "I"
            chunk 1 text run 253 at (403.50,230.00) startOffset 252 endOffset 253 width 5.00: " "
            chunk 1 text run 254 at (411.00,230.00) startOffset 253 endOffset 254 width 10.00: "h"
            chunk 1 text run 255 at (420.50,230.00) startOffset 254 endOffset 255 width 9.00: "a"
            chunk 1 text run 256 at (30.00,250.00) startOffset 255 endOffset 256 width 10.00: "v"
            chunk 1 text run 257 at (39.50,250.00) startOffset 256 endOffset 257 width 9.00: "e"
            chunk 1 text run 258 at (49.00,250.00) startOffset 257 endOffset 258 width 10.00: "n"
            chunk 1 text run 259 at (56.00,250.00) startOffset 258 endOffset 259 width 4.00: "'"
            chunk 1 text run 260 at (61.00,250.00) startOffset 259 endOffset 260 width 6.00: "t"
            chunk 1 text run 261 at (66.50,250.00) startOffset 260 endOffset 261 width 5.00: " "
            chunk 1 text run 262 at (72.50,250.00) startOffset 261 endOffset 262 width 7.00: "r"
            chunk 1 text run 263 at (80.50,250.00) startOffset 262 endOffset 263 width 9.00: "e"
            chunk 1 text run 264 at (89.50,250.00) startOffset 263 endOffset 264 width 9.00: "a"
            chunk 1 text run 265 at (98.50,250.00) startOffset 264 endOffset 265 width 9.00: "c"
            chunk 1 text run 266 at (108.00,250.00) startOffset 265 endOffset 266 width 10.00: "h"
            chunk 1 text run 267 at (117.50,250.00) startOffset 266 endOffset 267 width 9.00: "e"
            chunk 1 text run 268 at (127.00,250.00) startOffset 267 endOffset 268 width 10.00: "d"
            chunk 1 text run 269 at (134.50,250.00) startOffset 268 endOffset 269 width 5.00: " "
            chunk 1 text run 270 at (140.00,250.00) startOffset 269 endOffset 270 width 6.00: "t"
            chunk 1 text run 271 at (148.00,250.00) startOffset 270 endOffset 271 width 10.00: "h"
            chunk 1 text run 272 at (157.50,250.00) startOffset 271 endOffset 272 width 9.00: "e"
            chunk 1 text run 273 at (164.50,250.00) startOffset 272 endOffset 273 width 5.00: " "
            chunk 1 text run 274 at (171.50,250.00) startOffset 273 endOffset 274 width 9.00: "e"
            chunk 1 text run 275 at (181.00,250.00) startOffset 274 endOffset 275 width 10.00: "n"
            chunk 1 text run 276 at (191.00,250.00) startOffset 275 endOffset 276 width 10.00: "d"
            chunk 1 text run 277 at (198.50,250.00) startOffset 276 endOffset 277 width 5.00: " "
            chunk 1 text run 278 at (206.00,250.00) startOffset 277 endOffset 278 width 10.00: "y"
            chunk 1 text run 279 at (215.50,250.00) startOffset 278 endOffset 279 width 9.00: "e"
            chunk 1 text run 280 at (223.00,250.00) startOffset 279 endOffset 280 width 6.00: "t"
            chunk 1 text run 281 at (228.50,250.00) startOffset 280 endOffset 281 width 5.00: ","
            chunk 1 text run 282 at (233.50,250.00) startOffset 281 endOffset 282 width 5.00: " "
            chunk 1 text run 283 at (239.00,250.00) startOffset 282 endOffset 283 width 6.00: "l"
            chunk 1 text run 284 at (246.50,250.00) startOffset 283 endOffset 284 width 9.00: "e"
            chunk 1 text run 285 at (254.00,250.00) startOffset 284 endOffset 285 width 6.00: "t"
            chunk 1 text run 286 at (259.50,250.00) startOffset 285 endOffset 286 width 5.00: " "
            chunk 1 text run 287 at (270.00,250.00) startOffset 286 endOffset 287 width 16.00: "m"
            chunk 1 text run 288 at (282.50,250.00) startOffset 287 endOffset 288 width 9.00: "e"
            chunk 1 text run 289 at (289.50,250.00) startOffset 288 endOffset 289 width 5.00: " "
            chunk 1 text run 290 at (297.00,250.00) startOffset 289 endOffset 290 width 10.00: "k"
            chunk 1 text run 291 at (306.50,250.00) startOffset 290 endOffset 291 width 9.00: "e"
            chunk 1 text run 292 at (315.50,250.00) startOffset 291 endOffset 292 width 9.00: "e"
            chunk 1 text run 293 at (325.00,250.00) startOffset 292 endOffset 293 width 10.00: "p"
            chunk 1 text run 294 at (332.50,250.00) startOffset 293 endOffset 294 width 5.00: " "
            chunk 1 text run 295 at (340.00,250.00) startOffset 294 endOffset 295 width 10.00: "g"
            chunk 1 text run 296 at (350.00,250.00) startOffset 295 endOffset 296 width 10.00: "o"
            chunk 1 text run 297 at (358.00,250.00) startOffset 296 endOffset 297 width 6.00: "i"
            chunk 1 text run 298 at (366.00,250.00) startOffset 297 endOffset 298 width 10.00: "n"
            chunk 1 text run 299 at (376.00,250.00) startOffset 298 endOffset 299 width 10.00: "g"
            chunk 1 text run 300 at (383.50,250.00) startOffset 299 endOffset 300 width 5.00: " "
            chunk 1 text run 301 at (393.00,250.00) startOffset 300 endOffset 301 width 14.00: "w"
            chunk 1 text run 302 at (403.00,250.00) startOffset 301 endOffset 302 width 6.00: "i"
            chunk 1 text run 303 at (409.00,250.00) startOffset 302 endOffset 303 width 6.00: "t"
            chunk 1 text run 304 at (417.00,250.00) startOffset 303 endOffset 304 width 10.00: "h"
            chunk 1 text run 305 at (424.50,250.00) startOffset 304 endOffset 305 width 5.00: " "
            chunk 1 text run 306 at (35.00,270.00) startOffset 305 endOffset 306 width 16.00: "m"
            chunk 1 text run 307 at (48.00,270.00) startOffset 306 endOffset 307 width 10.00: "o"
            chunk 1 text run 308 at (56.50,270.00) startOffset 307 endOffset 308 width 7.00: "r"
            chunk 1 text run 309 at (64.50,270.00) startOffset 308 endOffset 309 width 9.00: "e"
            chunk 1 text run 310 at (71.50,270.00) startOffset 309 endOffset 310 width 5.00: " "
            chunk 1 text run 311 at (77.50,270.00) startOffset 310 endOffset 311 width 7.00: "r"
            chunk 1 text run 312 at (85.50,270.00) startOffset 311 endOffset 312 width 9.00: "e"
            chunk 1 text run 313 at (94.50,270.00) startOffset 312 endOffset 313 width 9.00: "a"
            chunk 1 text run 314 at (102.00,270.00) startOffset 313 endOffset 314 width 6.00: "l"
            chunk 1 text run 315 at (108.00,270.00) startOffset 314 endOffset 315 width 6.00: "l"
            chunk 1 text run 316 at (116.00,270.00) startOffset 315 endOffset 316 width 10.00: "y"
            chunk 1 text run 317 at (123.50,270.00) startOffset 316 endOffset 317 width 5.00: " "
            chunk 1 text run 318 at (131.00,270.00) startOffset 317 endOffset 318 width 10.00: "q"
            chunk 1 text run 319 at (141.00,270.00) startOffset 318 endOffset 319 width 10.00: "u"
            chunk 1 text run 320 at (149.00,270.00) startOffset 319 endOffset 320 width 6.00: "i"
            chunk 1 text run 321 at (155.00,270.00) startOffset 320 endOffset 321 width 6.00: "t"
            chunk 1 text run 322 at (162.50,270.00) startOffset 321 endOffset 322 width 9.00: "e"
            chunk 1 text run 323 at (169.50,270.00) startOffset 322 endOffset 323 width 5.00: " "
            chunk 1 text run 324 at (177.00,270.00) startOffset 323 endOffset 324 width 10.00: "u"
            chunk 1 text run 325 at (186.00,270.00) startOffset 324 endOffset 325 width 8.00: "s"
            chunk 1 text run 326 at (194.50,270.00) startOffset 325 endOffset 326 width 9.00: "e"
            chunk 1 text run 327 at (202.00,270.00) startOffset 326 endOffset 327 width 6.00: "l"
            chunk 1 text run 328 at (209.50,270.00) startOffset 327 endOffset 328 width 9.00: "e"
            chunk 1 text run 329 at (218.00,270.00) startOffset 328 endOffset 329 width 8.00: "s"
            chunk 1 text run 330 at (226.00,270.00) startOffset 329 endOffset 330 width 8.00: "s"
            chunk 1 text run 331 at (232.50,270.00) startOffset 330 endOffset 331 width 5.00: " "
            chunk 1 text run 332 at (238.00,270.00) startOffset 331 endOffset 332 width 6.00: "t"
            chunk 1 text run 333 at (245.50,270.00) startOffset 332 endOffset 333 width 9.00: "e"
            chunk 1 text run 334 at (255.00,270.00) startOffset 333 endOffset 334 width 10.00: "x"
            chunk 1 text run 335 at (263.00,270.00) startOffset 334 endOffset 335 width 6.00: "t"
            chunk 1 text run 336 at (268.50,270.00) startOffset 335 endOffset 336 width 5.00: " "
            chunk 1 text run 337 at (274.00,270.00) startOffset 336 endOffset 337 width 6.00: "j"
            chunk 1 text run 338 at (282.00,270.00) startOffset 337 endOffset 338 width 10.00: "u"
            chunk 1 text run 339 at (291.00,270.00) startOffset 338 endOffset 339 width 8.00: "s"
            chunk 1 text run 340 at (298.00,270.00) startOffset 339 endOffset 340 width 6.00: "t"
            chunk 1 text run 341 at (303.50,270.00) startOffset 340 endOffset 341 width 5.00: " "
            chunk 1 text run 342 at (309.00,270.00) startOffset 341 endOffset 342 width 6.00: "t"
            chunk 1 text run 343 at (317.00,270.00) startOffset 342 endOffset 343 width 10.00: "o"
            chunk 1 text run 344 at (324.50,270.00) startOffset 343 endOffset 344 width 5.00: " "
            chunk 1 text run 345 at (331.00,270.00) startOffset 344 endOffset 345 width 8.00: "s"
            chunk 1 text run 346 at (339.50,270.00) startOffset 345 endOffset 346 width 9.00: "e"
            chunk 1 text run 347 at (348.50,270.00) startOffset 346 endOffset 347 width 9.00: "e"
            chunk 1 text run 348 at (355.50,270.00) startOffset 347 endOffset 348 width 5.00: " "
            chunk 1 text run 349 at (361.00,270.00) startOffset 348 endOffset 349 width 6.00: "i"
            chunk 1 text run 350 at (367.50,270.00) startOffset 349 endOffset 350 width 7.00: "f"
            chunk 1 text run 351 at (373.50,270.00) startOffset 350 endOffset 351 width 5.00: " "
            chunk 1 text run 352 at (383.00,270.00) startOffset 351 endOffset 352 width 14.00: "w"
            chunk 1 text run 353 at (394.50,270.00) startOffset 352 endOffset 353 width 9.00: "e"
            chunk 1 text run 354 at (401.50,270.00) startOffset 353 endOffset 354 width 5.00: " "
            chunk 1 text run 355 at (409.00,270.00) startOffset 354 endOffset 355 width 10.00: "h"
            chunk 1 text run 356 at (417.00,270.00) startOffset 355 endOffset 356 width 6.00: "i"
            chunk 1 text run 357 at (423.00,270.00) startOffset 356 endOffset 357 width 6.00: "t"
            chunk 1 text run 358 at (28.50,290.00) startOffset 357 endOffset 358 width 5.00: " "
            chunk 1 text run 359 at (35.50,290.00) startOffset 358 endOffset 359 width 9.00: "a"
            chunk 1 text run 360 at (42.50,290.00) startOffset 359 endOffset 360 width 5.00: " "
            chunk 1 text run 361 at (48.00,290.00) startOffset 360 endOffset 361 width 6.00: "l"
            chunk 1 text run 362 at (54.00,290.00) startOffset 361 endOffset 362 width 6.00: "i"
            chunk 1 text run 363 at (65.00,290.00) startOffset 362 endOffset 363 width 16.00: "m"
            chunk 1 text run 364 at (76.00,290.00) startOffset 363 endOffset 364 width 6.00: "i"
            chunk 1 text run 365 at (82.00,290.00) startOffset 364 endOffset 365 width 6.00: "t"
            chunk 1 text run 366 at (87.50,290.00) startOffset 365 endOffset 366 width 5.00: " "
            chunk 1 text run 367 at (97.00,290.00) startOffset 366 endOffset 367 width 14.00: "w"
            chunk 1 text run 368 at (109.00,290.00) startOffset 367 endOffset 368 width 10.00: "h"
            chunk 1 text run 369 at (118.50,290.00) startOffset 368 endOffset 369 width 9.00: "e"
            chunk 1 text run 370 at (126.50,290.00) startOffset 369 endOffset 370 width 7.00: "r"
            chunk 1 text run 371 at (134.50,290.00) startOffset 370 endOffset 371 width 9.00: "e"
            chunk 1 text run 372 at (141.50,290.00) startOffset 371 endOffset 372 width 5.00: " "
            chunk 1 text run 373 at (147.00,290.00) startOffset 372 endOffset 373 width 6.00: "i"
            chunk 1 text run 374 at (153.00,290.00) startOffset 373 endOffset 374 width 6.00: "t"
            chunk 1 text run 375 at (158.50,290.00) startOffset 374 endOffset 375 width 5.00: " "
            chunk 1 text run 376 at (164.50,290.00) startOffset 375 endOffset 376 width 7.00: "r"
            chunk 1 text run 377 at (172.50,290.00) startOffset 376 endOffset 377 width 9.00: "e"
            chunk 1 text run 378 at (181.50,290.00) startOffset 377 endOffset 378 width 9.00: "a"
            chunk 1 text run 379 at (189.00,290.00) startOffset 378 endOffset 379 width 6.00: "l"
            chunk 1 text run 380 at (195.00,290.00) startOffset 379 endOffset 380 width 6.00: "l"
            chunk 1 text run 381 at (203.00,290.00) startOffset 380 endOffset 381 width 10.00: "y"
            chunk 1 text run 382 at (210.50,290.00) startOffset 381 endOffset 382 width 5.00: " "
            chunk 1 text run 383 at (217.00,290.00) startOffset 382 endOffset 383 width 8.00: "s"
            chunk 1 text run 384 at (224.00,290.00) startOffset 383 endOffset 384 width 6.00: "t"
            chunk 1 text run 385 at (231.50,290.00) startOffset 384 endOffset 385 width 9.00: "a"
            chunk 1 text run 386 at (239.50,290.00) startOffset 385 endOffset 386 width 7.00: "r"
            chunk 1 text run 387 at (246.00,290.00) startOffset 386 endOffset 387 width 6.00: "t"
            chunk 1 text run 388 at (253.00,290.00) startOffset 387 endOffset 388 width 8.00: "s"
            chunk 1 text run 389 at (259.50,290.00) startOffset 388 endOffset 389 width 5.00: " "
            chunk 1 text run 390 at (265.00,290.00) startOffset 389 endOffset 390 width 6.00: "t"
            chunk 1 text run 391 at (273.00,290.00) startOffset 390 endOffset 391 width 10.00: "o"
            chunk 1 text run 392 at (280.50,290.00) startOffset 391 endOffset 392 width 5.00: " "
            chunk 1 text run 393 at (287.00,290.00) startOffset 392 endOffset 393 width 8.00: "s"
            chunk 1 text run 394 at (294.00,290.00) startOffset 393 endOffset 394 width 6.00: "l"
            chunk 1 text run 395 at (302.00,290.00) startOffset 394 endOffset 395 width 10.00: "o"
            chunk 1 text run 396 at (314.00,290.00) startOffset 395 endOffset 396 width 14.00: "w"
            chunk 1 text run 397 at (323.50,290.00) startOffset 396 endOffset 397 width 5.00: " "
            chunk 1 text run 398 at (329.00,290.00) startOffset 397 endOffset 398 width 6.00: "t"
            chunk 1 text run 399 at (337.00,290.00) startOffset 398 endOffset 399 width 10.00: "h"
            chunk 1 text run 400 at (345.00,290.00) startOffset 399 endOffset 400 width 6.00: "i"
            chunk 1 text run 401 at (353.00,290.00) startOffset 400 endOffset 401 width 10.00: "n"
            chunk 1 text run 402 at (363.00,290.00) startOffset 401 endOffset 402 width 10.00: "g"
            chunk 1 text run 403 at (372.00,290.00) startOffset 402 endOffset 403 width 8.00: "s"
            chunk 1 text run 404 at (378.50,290.00) startOffset 403 endOffset 404 width 5.00: " "
            chunk 1 text run 405 at (386.00,290.00) startOffset 404 endOffset 405 width 10.00: "d"
            chunk 1 text run 406 at (396.00,290.00) startOffset 405 endOffset 406 width 10.00: "o"
            chunk 1 text run 407 at (408.00,290.00) startOffset 406 endOffset 407 width 14.00: "w"
            chunk 1 text run 408 at (420.00,290.00) startOffset 407 endOffset 408 width 10.00: "n"
            chunk 1 text run 409 at (27.50,310.00) startOffset 408 endOffset 409 width 5.00: "."
            chunk 1 text run 410 at (32.50,310.00) startOffset 409 endOffset 410 width 5.00: " "
            chunk 1 text run 1 at (42.00,310.00) startOffset 0 endOffset 1 width 14.00: "H"
            chunk 1 text run 2 at (54.00,310.00) startOffset 1 endOffset 2 width 10.00: "o"
            chunk 1 text run 3 at (66.00,310.00) startOffset 2 endOffset 3 width 14.00: "w"
            chunk 1 text run 4 at (77.50,310.00) startOffset 3 endOffset 4 width 9.00: "e"
            chunk 1 text run 5 at (87.00,310.00) startOffset 4 endOffset 5 width 10.00: "v"
            chunk 1 text run 6 at (96.50,310.00) startOffset 5 endOffset 6 width 9.00: "e"
            chunk 1 text run 7 at (104.50,310.00) startOffset 6 endOffset 7 width 7.00: "r"
            chunk 1 text run 8 at (110.50,310.00) startOffset 7 endOffset 8 width 5.00: " "
            chunk 1 text run 9 at (116.00,310.00) startOffset 8 endOffset 9 width 6.00: "i"
            chunk 1 text run 10 at (122.50,310.00) startOffset 9 endOffset 10 width 7.00: "f"
            chunk 1 text run 11 at (128.50,310.00) startOffset 10 endOffset 11 width 5.00: " "
            chunk 1 text run 12 at (134.00,310.00) startOffset 11 endOffset 12 width 6.00: "i"
            chunk 1 text run 13 at (140.00,310.00) startOffset 12 endOffset 13 width 6.00: "t"
            chunk 1 text run 14 at (145.50,310.00) startOffset 13 endOffset 14 width 5.00: " "
            chunk 1 text run 15 at (153.00,310.00) startOffset 14 endOffset 15 width 10.00: "h"
            chunk 1 text run 16 at (162.50,310.00) startOffset 15 endOffset 16 width 9.00: "a"
            chunk 1 text run 17 at (171.00,310.00) startOffset 16 endOffset 17 width 8.00: "s"
            chunk 1 text run 18 at (180.00,310.00) startOffset 17 endOffset 18 width 10.00: "n"
            chunk 1 text run 19 at (187.00,310.00) startOffset 18 endOffset 19 width 4.00: "'"
            chunk 1 text run 20 at (192.00,310.00) startOffset 19 endOffset 20 width 6.00: "t"
            chunk 1 text run 21 at (197.50,310.00) startOffset 20 endOffset 21 width 5.00: " "
            chunk 1 text run 22 at (204.00,310.00) startOffset 21 endOffset 22 width 8.00: "s"
            chunk 1 text run 23 at (211.00,310.00) startOffset 22 endOffset 23 width 6.00: "l"
            chunk 1 text run 24 at (219.00,310.00) startOffset 23 endOffset 24 width 10.00: "o"
            chunk 1 text run 25 at (231.00,310.00) startOffset 24 endOffset 25 width 14.00: "w"
            chunk 1 text run 26 at (242.50,310.00) startOffset 25 endOffset 26 width 9.00: "e"
            chunk 1 text run 27 at (252.00,310.00) startOffset 26 endOffset 27 width 10.00: "d"
            chunk 1 text run 28 at (259.50,310.00) startOffset 27 endOffset 28 width 5.00: " "
            chunk 1 text run 29 at (267.00,310.00) startOffset 28 endOffset 29 width 10.00: "d"
            chunk 1 text run 30 at (277.00,310.00) startOffset 29 endOffset 30 width 10.00: "o"
            chunk 1 text run 31 at (289.00,310.00) startOffset 30 endOffset 31 width 14.00: "w"
            chunk 1 text run 32 at (301.00,310.00) startOffset 31 endOffset 32 width 10.00: "n"
            chunk 1 text run 33 at (308.50,310.00) startOffset 32 endOffset 33 width 5.00: " "
            chunk 1 text run 34 at (316.00,310.00) startOffset 33 endOffset 34 width 10.00: "b"
            chunk 1 text run 35 at (326.00,310.00) startOffset 34 endOffset 35 width 10.00: "y"
            chunk 1 text run 36 at (333.50,310.00) startOffset 35 endOffset 36 width 5.00: " "
            chunk 1 text run 37 at (341.00,310.00) startOffset 36 endOffset 37 width 10.00: "n"
            chunk 1 text run 38 at (351.00,310.00) startOffset 37 endOffset 38 width 10.00: "o"
            chunk 1 text run 39 at (363.00,310.00) startOffset 38 endOffset 39 width 14.00: "w"
            chunk 1 text run 40 at (372.50,310.00) startOffset 39 endOffset 40 width 5.00: " "
            chunk 1 text run 41 at (378.50,310.00) startOffset 40 endOffset 41 width 7.00: "I"
            chunk 1 text run 42 at (384.00,310.00) startOffset 41 endOffset 42 width 4.00: "'"
            chunk 1 text run 43 at (394.00,310.00) startOffset 42 endOffset 43 width 16.00: "m"
            chunk 1 text run 44 at (404.50,310.00) startOffset 43 endOffset 44 width 5.00: " "
            chunk 1 text run 45 at (412.00,310.00) startOffset 44 endOffset 45 width 10.00: "g"
            chunk 1 text run 46 at (422.00,310.00) startOffset 45 endOffset 46 width 10.00: "u"
            chunk 1 text run 47 at (31.50,330.00) startOffset 46 endOffset 47 width 9.00: "e"
            chunk 1 text run 48 at (40.00,330.00) startOffset 47 endOffset 48 width 8.00: "s"
            chunk 1 text run 49 at (48.00,330.00) startOffset 48 endOffset 49 width 8.00: "s"
            chunk 1 text run 50 at (55.00,330.00) startOffset 49 endOffset 50 width 6.00: "i"
            chunk 1 text run 51 at (63.00,330.00) startOffset 50 endOffset 51 width 10.00: "n"
            chunk 1 text run 52 at (73.00,330.00) startOffset 51 endOffset 52 width 10.00: "g"
            chunk 1 text run 53 at (80.50,330.00) startOffset 52 endOffset 53 width 5.00: " "
            chunk 1 text run 54 at (86.00,330.00) startOffset 53 endOffset 54 width 6.00: "t"
            chunk 1 text run 55 at (94.00,330.00) startOffset 54 endOffset 55 width 10.00: "h"
            chunk 1 text run 56 at (103.50,330.00) startOffset 55 endOffset 56 width 9.00: "a"
            chunk 1 text run 57 at (111.00,330.00) startOffset 56 endOffset 57 width 6.00: "t"
            chunk 1 text run 58 at (116.50,330.00) startOffset 57 endOffset 58 width 5.00: " "
            chunk 1 text run 59 at (122.00,330.00) startOffset 58 endOffset 59 width 6.00: "i"
            chunk 1 text run 60 at (128.00,330.00) startOffset 59 endOffset 60 width 6.00: "t"
            chunk 1 text run 61 at (133.50,330.00) startOffset 60 endOffset 61 width 5.00: " "
            chunk 1 text run 62 at (143.00,330.00) startOffset 61 endOffset 62 width 14.00: "w"
            chunk 1 text run 63 at (155.00,330.00) startOffset 62 endOffset 63 width 10.00: "o"
            chunk 1 text run 64 at (165.00,330.00) startOffset 63 endOffset 64 width 10.00: "n"
            chunk 1 text run 65 at (172.00,330.00) startOffset 64 endOffset 65 width 4.00: "'"
            chunk 1 text run 66 at (177.00,330.00) startOffset 65 endOffset 66 width 6.00: "t"
            chunk 1 text run 67 at (182.50,330.00) startOffset 66 endOffset 67 width 5.00: " "
            chunk 1 text run 68 at (189.00,330.00) startOffset 67 endOffset 68 width 8.00: "s"
            chunk 1 text run 69 at (196.00,330.00) startOffset 68 endOffset 69 width 6.00: "l"
            chunk 1 text run 70 at (204.00,330.00) startOffset 69 endOffset 70 width 10.00: "o"
            chunk 1 text run 71 at (216.00,330.00) startOffset 70 endOffset 71 width 14.00: "w"
            chunk 1 text run 72 at (225.50,330.00) startOffset 71 endOffset 72 width 5.00: " "
            chunk 1 text run 73 at (233.00,330.00) startOffset 72 endOffset 73 width 10.00: "d"
            chunk 1 text run 74 at (243.00,330.00) startOffset 73 endOffset 74 width 10.00: "o"
            chunk 1 text run 75 at (255.00,330.00) startOffset 74 endOffset 75 width 14.00: "w"
            chunk 1 text run 76 at (267.00,330.00) startOffset 75 endOffset 76 width 10.00: "n"
            chunk 1 text run 77 at (274.50,330.00) startOffset 76 endOffset 77 width 5.00: " "
            chunk 1 text run 78 at (281.50,330.00) startOffset 77 endOffset 78 width 9.00: "a"
            chunk 1 text run 79 at (289.00,330.00) startOffset 78 endOffset 79 width 6.00: "t"
            chunk 1 text run 80 at (294.50,330.00) startOffset 79 endOffset 80 width 5.00: " "
            chunk 1 text run 81 at (301.50,330.00) startOffset 80 endOffset 81 width 9.00: "a"
            chunk 1 text run 82 at (309.00,330.00) startOffset 81 endOffset 82 width 6.00: "l"
            chunk 1 text run 83 at (315.00,330.00) startOffset 82 endOffset 83 width 6.00: "l"
            chunk 1 text run 84 at (320.50,330.00) startOffset 83 endOffset 84 width 5.00: "."
            chunk 1 text run 85 at (325.50,330.00) startOffset 84 endOffset 85 width 5.00: " "
            chunk 1 text run 1 at (334.50,330.00) startOffset 0 endOffset 1 width 13.00: "B"
            chunk 1 text run 2 at (346.00,330.00) startOffset 1 endOffset 2 width 10.00: "u"
            chunk 1 text run 3 at (354.00,330.00) startOffset 2 endOffset 3 width 6.00: "t"
            chunk 1 text run 4 at (359.50,330.00) startOffset 3 endOffset 4 width 5.00: " "
            chunk 1 text run 5 at (367.00,330.00) startOffset 4 endOffset 5 width 10.00: "y"
            chunk 1 text run 6 at (377.00,330.00) startOffset 5 endOffset 6 width 10.00: "o"
            chunk 1 text run 7 at (387.00,330.00) startOffset 6 endOffset 7 width 10.00: "u"
            chunk 1 text run 8 at (394.50,330.00) startOffset 7 endOffset 8 width 5.00: " "
            chunk 1 text run 9 at (402.00,330.00) startOffset 8 endOffset 9 width 10.00: "n"
            chunk 1 text run 10 at (411.50,330.00) startOffset 9 endOffset 10 width 9.00: "e"
            chunk 1 text run 11 at (421.00,330.00) startOffset 10 endOffset 11 width 10.00: "v"
            chunk 1 text run 12 at (30.50,350.00) startOffset 11 endOffset 12 width 9.00: "e"
            chunk 1 text run 13 at (38.50,350.00) startOffset 12 endOffset 13 width 7.00: "r"
            chunk 1 text run 14 at (44.50,350.00) startOffset 13 endOffset 14 width 5.00: " "
            chunk 1 text run 15 at (52.00,350.00) startOffset 14 endOffset 15 width 10.00: "k"
            chunk 1 text run 16 at (62.00,350.00) startOffset 15 endOffset 16 width 10.00: "n"
            chunk 1 text run 17 at (72.00,350.00) startOffset 16 endOffset 17 width 10.00: "o"
            chunk 1 text run 18 at (84.00,350.00) startOffset 17 endOffset 18 width 14.00: "w"
            chunk 1 text run 19 at (93.50,350.00) startOffset 18 endOffset 19 width 5.00: " "
            chunk 1 text run 20 at (99.50,350.00) startOffset 19 endOffset 20 width 7.00: "f"
            chunk 1 text run 21 at (108.00,350.00) startOffset 20 endOffset 21 width 10.00: "o"
            chunk 1 text run 22 at (116.50,350.00) startOffset 21 endOffset 22 width 7.00: "r"
            chunk 1 text run 23 at (122.50,350.00) startOffset 22 endOffset 23 width 5.00: " "
            chunk 1 text run 24 at (129.00,350.00) startOffset 23 endOffset 24 width 8.00: "s"
            chunk 1 text run 25 at (138.00,350.00) startOffset 24 endOffset 25 width 10.00: "u"
            chunk 1 text run 26 at (146.50,350.00) startOffset 25 endOffset 26 width 7.00: "r"
            chunk 1 text run 27 at (154.50,350.00) startOffset 26 endOffset 27 width 9.00: "e"
            chunk 1 text run 28 at (161.50,350.00) startOffset 27 endOffset 28 width 5.00: " "
            chunk 1 text run 29 at (169.00,350.00) startOffset 28 endOffset 29 width 10.00: "u"
            chunk 1 text run 30 at (179.00,350.00) startOffset 29 endOffset 30 width 10.00: "n"
            chunk 1 text run 31 at (187.00,350.00) startOffset 30 endOffset 31 width 6.00: "t"
            chunk 1 text run 32 at (193.00,350.00) startOffset 31 endOffset 32 width 6.00: "i"
            chunk 1 text run 33 at (199.00,350.00) startOffset 32 endOffset 33 width 6.00: "l"
            chunk 1 text run 34 at (204.50,350.00) startOffset 33 endOffset 34 width 5.00: " "
            chunk 1 text run 35 at (212.00,350.00) startOffset 34 endOffset 35 width 10.00: "y"
            chunk 1 text run 36 at (222.00,350.00) startOffset 35 endOffset 36 width 10.00: "o"
            chunk 1 text run 37 at (232.00,350.00) startOffset 36 endOffset 37 width 10.00: "u"
            chunk 1 text run 38 at (239.50,350.00) startOffset 37 endOffset 38 width 5.00: " "
            chunk 1 text run 39 at (245.00,350.00) startOffset 38 endOffset 39 width 6.00: "t"
            chunk 1 text run 40 at (251.50,350.00) startOffset 39 endOffset 40 width 7.00: "r"
            chunk 1 text run 41 at (260.00,350.00) startOffset 40 endOffset 41 width 10.00: "y"
            chunk 1 text run 42 at (267.50,350.00) startOffset 41 endOffset 42 width 5.00: " "
            chunk 1 text run 43 at (273.00,350.00) startOffset 42 endOffset 43 width 6.00: "i"
            chunk 1 text run 44 at (279.00,350.00) startOffset 43 endOffset 44 width 6.00: "t"
            chunk 1 text run 45 at (284.50,350.00) startOffset 44 endOffset 45 width 5.00: ","
            chunk 1 text run 46 at (289.50,350.00) startOffset 45 endOffset 46 width 5.00: " "
            chunk 1 text run 47 at (296.00,350.00) startOffset 46 endOffset 47 width 8.00: "s"
            chunk 1 text run 48 at (305.00,350.00) startOffset 47 endOffset 48 width 10.00: "o"
            chunk 1 text run 49 at (312.50,350.00) startOffset 48 endOffset 49 width 5.00: " "
            chunk 1 text run 50 at (318.50,350.00) startOffset 49 endOffset 50 width 7.00: "I"
            chunk 1 text run 51 at (324.50,350.00) startOffset 50 endOffset 51 width 5.00: " "
            chunk 1 text run 52 at (331.50,350.00) startOffset 51 endOffset 52 width 9.00: "a"
            chunk 1 text run 53 at (344.00,350.00) startOffset 52 endOffset 53 width 16.00: "m"
            chunk 1 text run 54 at (354.50,350.00) startOffset 53 endOffset 54 width 5.00: ","
            chunk 1 text run 55 at (359.50,350.00) startOffset 54 endOffset 55 width 5.00: " "
            chunk 1 text run 56 at (366.50,350.00) startOffset 55 endOffset 56 width 9.00: "a"
            chunk 1 text run 57 at (376.00,350.00) startOffset 56 endOffset 57 width 10.00: "n"
            chunk 1 text run 58 at (386.00,350.00) startOffset 57 endOffset 58 width 10.00: "d"
            chunk 1 text run 59 at (393.50,350.00) startOffset 58 endOffset 59 width 5.00: " "
            chunk 1 text run 60 at (401.00,350.00) startOffset 59 endOffset 60 width 10.00: "h"
            chunk 1 text run 61 at (410.50,350.00) startOffset 60 endOffset 61 width 9.00: "e"
            chunk 1 text run 62 at (418.50,350.00) startOffset 61 endOffset 62 width 7.00: "r"
            chunk 1 text run 63 at (26.50,370.00) startOffset 62 endOffset 63 width 9.00: "e"
            chunk 1 text run 64 at (33.50,370.00) startOffset 63 endOffset 64 width 5.00: " "
            chunk 1 text run 65 at (39.00,370.00) startOffset 64 endOffset 65 width 6.00: "i"
            chunk 1 text run 66 at (46.00,370.00) startOffset 65 endOffset 66 width 8.00: "s"
            chunk 1 text run 67 at (52.50,370.00) startOffset 66 endOffset 67 width 5.00: " "
            chunk 1 text run 68 at (58.00,370.00) startOffset 67 endOffset 68 width 6.00: "t"
            chunk 1 text run 69 at (66.00,370.00) startOffset 68 endOffset 69 width 10.00: "h"
            chunk 1 text run 70 at (75.50,370.00) startOffset 69 endOffset 70 width 9.00: "e"
            chunk 1 text run 71 at (82.50,370.00) startOffset 70 endOffset 71 width 5.00: " "
            chunk 1 text run 72 at (88.50,370.00) startOffset 71 endOffset 72 width 7.00: "r"
            chunk 1 text run 73 at (96.50,370.00) startOffset 72 endOffset 73 width 9.00: "e"
            chunk 1 text run 74 at (105.00,370.00) startOffset 73 endOffset 74 width 8.00: "s"
            chunk 1 text run 75 at (114.00,370.00) startOffset 74 endOffset 75 width 10.00: "u"
            chunk 1 text run 76 at (122.00,370.00) startOffset 75 endOffset 76 width 6.00: "l"
            chunk 1 text run 77 at (128.00,370.00) startOffset 76 endOffset 77 width 6.00: "t"
            chunk 1 text run 78 at (133.50,370.00) startOffset 77 endOffset 78 width 5.00: "."
            chunk 1 text run 79 at (138.50,370.00) startOffset 78 endOffset 79 width 5.00: " "
            chunk 1 text run 1 at (146.50,370.00) startOffset 0 endOffset 1 width 11.00: "S"
            chunk 1 text run 2 at (156.50,370.00) startOffset 1 endOffset 2 width 9.00: "e"
            chunk 1 text run 3 at (164.00,370.00) startOffset 2 endOffset 3 width 6.00: "l"
            chunk 1 text run 4 at (171.50,370.00) startOffset 3 endOffset 4 width 9.00: "e"
            chunk 1 text run 5 at (180.50,370.00) startOffset 4 endOffset 5 width 9.00: "c"
            chunk 1 text run 6 at (188.00,370.00) startOffset 5 endOffset 6 width 6.00: "t"
            chunk 1 text run 7 at (194.00,370.00) startOffset 6 endOffset 7 width 6.00: "i"
            chunk 1 text run 8 at (202.00,370.00) startOffset 7 endOffset 8 width 10.00: "o"
            chunk 1 text run 9 at (212.00,370.00) startOffset 8 endOffset 9 width 10.00: "n"
            chunk 1 text run 10 at (219.50,370.00) startOffset 9 endOffset 10 width 5.00: " "
            chunk 1 text run 11 at (227.00,370.00) startOffset 10 endOffset 11 width 10.00: "d"
            chunk 1 text run 12 at (237.00,370.00) startOffset 11 endOffset 12 width 10.00: "o"
            chunk 1 text run 13 at (246.50,370.00) startOffset 12 endOffset 13 width 9.00: "e"
            chunk 1 text run 14 at (255.00,370.00) startOffset 13 endOffset 14 width 8.00: "s"
            chunk 1 text run 15 at (261.50,370.00) startOffset 14 endOffset 15 width 5.00: " "
            chunk 1 text run 16 at (269.00,370.00) startOffset 15 endOffset 16 width 10.00: "b"
            chunk 1 text run 17 at (279.00,370.00) startOffset 16 endOffset 17 width 10.00: "o"
            chunk 1 text run 18 at (289.00,370.00) startOffset 17 endOffset 18 width 10.00: "g"
            chunk 1 text run 19 at (296.50,370.00) startOffset 18 endOffset 19 width 5.00: " "
            chunk 1 text run 20 at (304.00,370.00) startOffset 19 endOffset 20 width 10.00: "d"
            chunk 1 text run 21 at (314.00,370.00) startOffset 20 endOffset 21 width 10.00: "o"
            chunk 1 text run 22 at (326.00,370.00) startOffset 21 endOffset 22 width 14.00: "w"
            chunk 1 text run 23 at (338.00,370.00) startOffset 22 endOffset 23 width 10.00: "n"
            chunk 1 text run 24 at (345.50,370.00) startOffset 23 endOffset 24 width 5.00: " "
            chunk 1 text run 25 at (352.50,370.00) startOffset 24 endOffset 25 width 9.00: "a"
            chunk 1 text run 26 at (359.50,370.00) startOffset 25 endOffset 26 width 5.00: " "
            chunk 1 text run 27 at (365.00,370.00) startOffset 26 endOffset 27 width 6.00: "l"
            chunk 1 text run 28 at (371.00,370.00) startOffset 27 endOffset 28 width 6.00: "i"
            chunk 1 text run 29 at (377.00,370.00) startOffset 28 endOffset 29 width 6.00: "t"
            chunk 1 text run 30 at (383.00,370.00) startOffset 29 endOffset 30 width 6.00: "t"
            chunk 1 text run 31 at (389.00,370.00) startOffset 30 endOffset 31 width 6.00: "l"
            chunk 1 text run 32 at (396.50,370.00) startOffset 31 endOffset 32 width 9.00: "e"
            chunk 1 text run 33 at (403.50,370.00) startOffset 32 endOffset 33 width 5.00: " "
            chunk 1 text run 34 at (411.00,370.00) startOffset 33 endOffset 34 width 10.00: "n"
            chunk 1 text run 35 at (420.50,370.00) startOffset 34 endOffset 35 width 9.00: "e"
            chunk 1 text run 36 at (29.50,390.00) startOffset 35 endOffset 36 width 9.00: "a"
            chunk 1 text run 37 at (37.50,390.00) startOffset 36 endOffset 37 width 7.00: "r"
            chunk 1 text run 38 at (43.50,390.00) startOffset 37 endOffset 38 width 5.00: " "
            chunk 1 text run 39 at (49.00,390.00) startOffset 38 endOffset 39 width 6.00: "t"
            chunk 1 text run 40 at (57.00,390.00) startOffset 39 endOffset 40 width 10.00: "h"
            chunk 1 text run 41 at (66.50,390.00) startOffset 40 endOffset 41 width 9.00: "e"
            chunk 1 text run 42 at (73.50,390.00) startOffset 41 endOffset 42 width 5.00: " "
            chunk 1 text run 43 at (80.50,390.00) startOffset 42 endOffset 43 width 9.00: "e"
            chunk 1 text run 44 at (90.00,390.00) startOffset 43 endOffset 44 width 10.00: "n"
            chunk 1 text run 45 at (100.00,390.00) startOffset 44 endOffset 45 width 10.00: "d"
            chunk 1 text run 46 at (107.50,390.00) startOffset 45 endOffset 46 width 5.00: " "
            chunk 1 text run 47 at (115.00,390.00) startOffset 46 endOffset 47 width 10.00: "b"
            chunk 1 text run 48 at (125.00,390.00) startOffset 47 endOffset 48 width 10.00: "u"
            chunk 1 text run 49 at (133.00,390.00) startOffset 48 endOffset 49 width 6.00: "t"
            chunk 1 text run 50 at (138.50,390.00) startOffset 49 endOffset 50 width 5.00: " "
            chunk 1 text run 51 at (144.00,390.00) startOffset 50 endOffset 51 width 6.00: "i"
            chunk 1 text run 52 at (150.00,390.00) startOffset 51 endOffset 52 width 6.00: "t"
            chunk 1 text run 53 at (155.00,390.00) startOffset 52 endOffset 53 width 4.00: "'"
            chunk 1 text run 54 at (161.00,390.00) startOffset 53 endOffset 54 width 8.00: "s"
            chunk 1 text run 55 at (167.50,390.00) startOffset 54 endOffset 55 width 5.00: " "
            chunk 1 text run 56 at (173.50,390.00) startOffset 55 endOffset 56 width 7.00: "r"
            chunk 1 text run 57 at (181.50,390.00) startOffset 56 endOffset 57 width 9.00: "e"
            chunk 1 text run 58 at (191.00,390.00) startOffset 57 endOffset 58 width 10.00: "d"
            chunk 1 text run 59 at (199.50,390.00) startOffset 58 endOffset 59 width 7.00: "r"
            chunk 1 text run 60 at (207.50,390.00) startOffset 59 endOffset 60 width 9.00: "a"
            chunk 1 text run 61 at (219.00,390.00) startOffset 60 endOffset 61 width 14.00: "w"
            chunk 1 text run 62 at (228.50,390.00) startOffset 61 endOffset 62 width 5.00: " "
            chunk 1 text run 63 at (234.50,390.00) startOffset 62 endOffset 63 width 7.00: "r"
            chunk 1 text run 64 at (242.50,390.00) startOffset 63 endOffset 64 width 9.00: "e"
            chunk 1 text run 65 at (250.00,390.00) startOffset 64 endOffset 65 width 6.00: "l"
            chunk 1 text run 66 at (257.50,390.00) startOffset 65 endOffset 66 width 9.00: "a"
            chunk 1 text run 67 at (265.00,390.00) startOffset 66 endOffset 67 width 6.00: "t"
            chunk 1 text run 68 at (272.50,390.00) startOffset 67 endOffset 68 width 9.00: "e"
            chunk 1 text run 69 at (282.00,390.00) startOffset 68 endOffset 69 width 10.00: "d"
            chunk 1 text run 70 at (289.50,390.00) startOffset 69 endOffset 70 width 5.00: "."
        RenderSVGInlineText {#text} at (0,0) size 0x0
    RenderSVGContainer {use} at (0,0) size 0x0
      RenderSVGContainer {g} at (0,0) size 0x0
