layer at (0,0) size 800x600
  RenderView at (0,0) size 800x600
layer at (0,0) size 800x26
  RenderBlock {html} at (0,0) size 800x26
    RenderBody {body} at (5,5) size 790x16
      RenderEmbeddedObject {object} at (0,0) size 59x13
        layer at (0,0) size 59x13
          RenderView at (0,0) size 44x0
        layer at (0,0) size 59x13
          RenderSVGRoot {svg} at (0,0) size 59x13
            RenderSVGPath {rect} at (0,0) size 59x13 [fill={[type=SOLID] [color=#008000]}] [x=0.00] [y=0.00] [width=59.00] [height=13.00]
            RenderSVGPath {circle} at (29,2) size 12x11 [fill={[type=SOLID] [color=#0000FF]}] [cx=29.50] [cy=6.50] [r=4.27]
            RenderSVGText {text} at (5,2) size 29x18 contains 1 chunk(s)
              RenderSVGInlineText {#text} at (0,0) size 29x18
                chunk 1 text run 1 at (5.00,16.00) startOffset 0 endOffset 4 width 29.00: "Text"
      RenderText {#text} at (0,0) size 0x0
      RenderText {#text} at (0,0) size 0x0
      RenderText {#text} at (0,0) size 0x0
