layer at (0,0) size 480x360
  RenderView at (0,0) size 480x360
layer at (0,0) size 480x360
  RenderSVGRoot {svg} at (0,0) size 480x360
    RenderSVGContainer {g} at (7,1) size 435x244
      RenderSVGHiddenContainer {defs} at (0,0) size 0x0
      RenderSVGText {text} at (28,1) size 414x46 contains 1 chunk(s)
        RenderSVGInlineText {#text} at (0,0) size 414x46
          chunk 1 text run 1 at (28.00,35.00) startOffset 0 endOffset 25 width 414.00: "SVG font element accuracy"
      RenderSVGPath {rect} at (165,80) size 220x165 [fill={[type=SOLID] [color=#000000]}] [x=165.00] [y=80.00] [width=220.00] [height=165.00]
      RenderSVGText {text} at (7,112) size 136x25 contains 1 chunk(s)
        RenderSVGInlineText {#text} at (0,0) size 136x25
          chunk 1 text run 1 at (7.00,130.00) startOffset 0 endOffset 15 width 136.00: "SVG over Glyphs"
      RenderSVGContainer {g} at (168,85) size 205x72 [transform={m=((1.00,0.00)(-0.00,-1.00)) t=(165.00,140.00)}]
        RenderSVGContainer {g} at (168,85) size 205x72 [transform={m=((0.03,0.00)(0.00,0.03)) t=(0.00,0.00)}]
          RenderSVGPath {path} at (168,96) size 37x45 [fill={[type=SOLID] [color=#FFFFFF]}] [data="M 1250 -30 C 1188.67 -30 1135.33 48.6667 1090 206 C 1072.67 266 1051 371 1025 521 C 957 511.667 868 495 758 471 L 492 416 C 458.667 328.667 401.667 201 321 33 C 299.667 -4.33333 270.667 -23 234 -23 C 207.333 -23 183.667 -13.3333 163 6 C 142.333 25.3333 131.667 49.3333 131 78 C 131 110 181.333 231.667 282 443 C 270.667 460.333 265 480.333 265 503 C 265 557 297.667 591.667 363 607 C 439 749.667 535 913.667 651 1099 C 809 1351.67 907.333 1478 946 1478 C 998.667 1478 1034.67 1441.33 1054 1368 L 1117 1032 L 1266 337 L 1323 179 C 1342.33 125 1352 89 1352 71 C 1352 42.3333 1341.67 18.3333 1321 -1 C 1300.33 -20.3333 1276.67 -30 1250 -30 Z M 897 1113 L 611 652 C 691.667 672.667 814 697.667 978 727 L 897 1113 Z"]
          RenderSVGPath {path} at (208,109) size 31x48 [transform={m=((1.00,0.00)(0.00,1.00)) t=(1498.00,0.00)}] [fill={[type=SOLID] [color=#FFFFFF]}] [data="M 1011 892 L 665 144 C 579.667 -38 514.333 -190.333 469 -313 L 403 -507 C 385.667 -555 355.667 -579 313 -579 C 285 -579 261 -570 241 -552 C 221 -534 210.667 -511 210 -483 C 210 -416.333 282 -223.333 426 96 L 68 785 L 23 858 C 5 888.667 -4 914.333 -4 935 C -4 962.333 6.33333 986.333 27 1007 C 47.6667 1027.67 71.3333 1038 98 1038 C 128.667 1038 152.333 1026.33 169 1003 C 282.333 845.667 404 621.667 534 331 L 682 676 C 735.333 795.333 786.667 898 836 984 C 857.333 1021.33 885.333 1040 920 1040 C 947.333 1040 971.333 1030.33 992 1011 C 1012.67 991.667 1023.33 968.667 1024 942 C 1024 927.333 1019.67 910.667 1011 892 Z"]
          RenderSVGPath {path} at (243,85) size 43x57 [transform={m=((1.00,0.00)(0.00,1.00)) t=(2564.00,0.00)}] [fill={[type=SOLID] [color=#FFFFFF]}] [data="M 802 -61 C 614 -61 454.667 -4.66667 324 108 C 185.333 228 116 382.667 116 572 C 116 802.667 184.333 1012.33 321 1201 C 473.667 1410.33 664 1515 892 1515 C 1111.33 1515 1274.33 1465.67 1381 1367 C 1492.33 1264.33 1548 1102.33 1548 881 C 1548 650.333 1485.33 442.333 1360 257 C 1216 45 1030 -61 802 -61 Z M 892 1310 C 728.667 1310 590.333 1228.67 477 1066 C 372.333 916.667 320 752 320 572 C 320 443.333 367.667 338.667 463 258 C 554.333 182 667.333 144 802 144 C 964 144 1097.67 225.667 1203 389 C 1297 535 1344 699 1344 881 C 1344 1040.33 1308.33 1152.33 1237 1217 C 1169 1279 1054 1310 892 1310 Z M 682 1848 C 769.333 1848 813 1813 813 1743 C 813 1723 798.333 1703.67 769 1685 C 742.333 1668.33 717.333 1660 694 1660 C 612 1660 571 1694.33 571 1763 C 571 1782.33 583.333 1801.33 608 1820 C 632.667 1838.67 657.333 1848 682 1848 Z M 1221 1856 C 1243.67 1856 1266.67 1845.67 1290 1825 C 1313.33 1804.33 1325 1783.67 1325 1763 C 1325 1701.67 1277.33 1671 1182 1671 C 1154.67 1671 1130.33 1678 1109 1692 C 1085 1708 1073 1729 1073 1755 C 1073 1801 1088 1830.67 1118 1844 C 1134.67 1852 1169 1856 1221 1856 Z"]
          RenderSVGPath {path} at (291,92) size 49x53 [transform={m=((1.00,0.00)(0.00,1.00)) t=(4199.00,0.00)}] [fill={[type=SOLID] [color=#FFFFFF]}] [data="M 1306 412 C 1235.33 412 1174.33 422.333 1123 443 C 1071.67 463.667 1030.33 494.333 999 535 C 963 499.667 928 473 894 455 C 860 437 826.333 428 793 428 C 719 428 649.333 458 584 518 C 518.667 578 485.667 644.333 485 717 C 485 840.333 533.333 953 630 1055 C 726.667 1157 837 1208 961 1208 C 989 1208 1012.33 1197.67 1031 1177 C 1049.67 1156.33 1059 1131.33 1059 1102 C 1059 1062 1025.67 1032.33 959 1013 C 870.333 987.667 807.667 958.667 771 926 C 717 878.667 690 809 690 717 C 690 697.667 699 679 717 661 C 737.667 641 763.333 631.667 794 633 C 852 635.667 905.667 689.667 955 795 C 999.667 887 1039.33 933 1074 933 C 1102 933 1124.67 922.667 1142 902 C 1159.33 881.333 1168 856 1168 826 C 1168 812.667 1166 792.667 1162 766 C 1158 739.333 1155.67 719.333 1155 706 C 1155 662.667 1173.67 635.333 1211 624 C 1225.67 619.333 1257.33 617 1306 617 C 1397.33 617 1461.33 639.333 1498 684 C 1531.33 724 1548 790.333 1548 883 C 1548 1046.33 1482.33 1179.67 1351 1283 C 1231 1377.67 1087.67 1425 921 1425 C 727 1425 575 1351.67 465 1205 C 365.667 1074.33 316 910 316 712 C 316 529.333 374.333 375.333 491 250 C 612.333 119.333 768.333 54 959 54 C 1013 54 1074 64.3333 1142 85 L 1317 150 C 1346.33 160.667 1365.33 166 1374 166 C 1401.33 166 1425 155.333 1445 134 C 1465 112.667 1475 87.3333 1475 58 C 1475 -5.33333 1404 -56.6667 1262 -96 C 1154.67 -125.333 1054.33 -140 961 -140 C 867 -140 771 -122 673 -86 C 575 -50 490.667 -1.33333 420 60 C 213.333 238.667 110 456 110 712 C 110 968 180.667 1182 322 1354 C 472 1538 671.667 1630 921 1630 C 1146.33 1630 1339.33 1562.33 1500 1427 C 1668.67 1283.67 1753 1102.33 1753 883 C 1753 733 1716.33 617.667 1643 537 C 1566.33 453.667 1454 412 1306 412 Z"]
          RenderSVGPath {path} at (346,108) size 27x46 [transform={m=((1.00,0.00)(0.00,1.00)) t=(6106.00,0.00)}] [fill={[type=SOLID] [color=#FFFFFF]}] [data="M 770 -196 C 770 -278.667 750 -340.667 710 -382 C 670 -423.333 609.333 -444.333 528 -445 C 471.333 -445 417.667 -434.333 367 -413 C 303 -385 271 -346.667 271 -298 C 271 -262 293.667 -244 339 -244 C 363 -244 390 -252 420 -268 C 450 -284 482.333 -292.333 517 -293 C 549.667 -292.333 574 -284.333 590 -269 C 606 -253.667 614 -231 614 -201 C 614 -169 601.667 -140.333 577 -115 C 552.333 -89.6667 514.333 -67.3333 463 -48 C 357 -24 272 26.6667 208 104 C 139.333 186 105 286 105 404 C 105 539.333 150 679 240 823 C 340 983 452.667 1063 578 1063 C 643.333 1063 716.333 1047.67 797 1017 C 899 977.667 950 929.667 950 873 C 950 847.667 941.667 825.333 925 806 C 908.333 786.667 887.667 776.667 863 776 C 843.667 776 827 781.667 813 793 C 799 804.333 785 816 771 828 C 731.667 859.333 667.333 875 578 875 C 510 875 442.667 814.333 376 693 C 315.333 581.667 285 485.333 285 404 C 285 316 315 246.667 375 196 C 431 148.667 503 125 591 125 C 631 125 673.667 135.667 719 157 L 835 219 C 855 229.667 869.333 235 878 235 C 902.667 235 924 225.333 942 206 C 960 186.667 969 164 969 138 C 969 69.3333 883.667 10 713 -40 C 732.333 -65.3333 746.667 -91 756 -117 C 765.333 -143 770 -169.333 770 -196 Z"]
      RenderSVGContainer {g} at (165,73) size 210x85 [transform={m=((1.00,0.00)(0.00,1.00)) t=(165.00,140.00)}]
        RenderSVGText {text} at (0,-67) size 210x85 contains 1 chunk(s)
          RenderSVGInlineText {#text} at (0,0) size 210x85
            chunk 1 text run 1 at (0.00,0.00) startOffset 0 endOffset 5 width 209.71: "Ay\x{D6}@\x{E7}"
      RenderSVGText {text} at (7,192) size 136x25 contains 1 chunk(s)
        RenderSVGInlineText {#text} at (0,0) size 136x25
          chunk 1 text run 1 at (7.00,210.00) startOffset 0 endOffset 15 width 136.00: "Glyphs over SVG"
      RenderSVGContainer {g} at (165,143) size 210x85 [transform={m=((1.00,0.00)(0.00,1.00)) t=(165.00,210.00)}]
        RenderSVGText {text} at (0,-67) size 210x85 contains 1 chunk(s)
          RenderSVGInlineText {#text} at (0,0) size 210x85
            chunk 1 text run 1 at (0.00,0.00) startOffset 0 endOffset 5 width 209.71: "Ay\x{D6}@\x{E7}"
      RenderSVGContainer {g} at (168,155) size 205x72 [transform={m=((1.00,0.00)(-0.00,-1.00)) t=(165.00,210.00)}]
        RenderSVGContainer {g} at (168,155) size 205x72 [transform={m=((0.03,0.00)(0.00,0.03)) t=(0.00,0.00)}]
          RenderSVGPath {path} at (168,166) size 37x45 [fill={[type=SOLID] [color=#000000]}] [data="M 1250 -30 C 1188.67 -30 1135.33 48.6667 1090 206 C 1072.67 266 1051 371 1025 521 C 957 511.667 868 495 758 471 L 492 416 C 458.667 328.667 401.667 201 321 33 C 299.667 -4.33333 270.667 -23 234 -23 C 207.333 -23 183.667 -13.3333 163 6 C 142.333 25.3333 131.667 49.3333 131 78 C 131 110 181.333 231.667 282 443 C 270.667 460.333 265 480.333 265 503 C 265 557 297.667 591.667 363 607 C 439 749.667 535 913.667 651 1099 C 809 1351.67 907.333 1478 946 1478 C 998.667 1478 1034.67 1441.33 1054 1368 L 1117 1032 L 1266 337 L 1323 179 C 1342.33 125 1352 89 1352 71 C 1352 42.3333 1341.67 18.3333 1321 -1 C 1300.33 -20.3333 1276.67 -30 1250 -30 Z M 897 1113 L 611 652 C 691.667 672.667 814 697.667 978 727 L 897 1113 Z"]
          RenderSVGPath {path} at (208,179) size 31x48 [transform={m=((1.00,0.00)(0.00,1.00)) t=(1498.00,0.00)}] [fill={[type=SOLID] [color=#000000]}] [data="M 1011 892 L 665 144 C 579.667 -38 514.333 -190.333 469 -313 L 403 -507 C 385.667 -555 355.667 -579 313 -579 C 285 -579 261 -570 241 -552 C 221 -534 210.667 -511 210 -483 C 210 -416.333 282 -223.333 426 96 L 68 785 L 23 858 C 5 888.667 -4 914.333 -4 935 C -4 962.333 6.33333 986.333 27 1007 C 47.6667 1027.67 71.3333 1038 98 1038 C 128.667 1038 152.333 1026.33 169 1003 C 282.333 845.667 404 621.667 534 331 L 682 676 C 735.333 795.333 786.667 898 836 984 C 857.333 1021.33 885.333 1040 920 1040 C 947.333 1040 971.333 1030.33 992 1011 C 1012.67 991.667 1023.33 968.667 1024 942 C 1024 927.333 1019.67 910.667 1011 892 Z"]
          RenderSVGPath {path} at (243,155) size 43x57 [transform={m=((1.00,0.00)(0.00,1.00)) t=(2564.00,0.00)}] [fill={[type=SOLID] [color=#000000]}] [data="M 802 -61 C 614 -61 454.667 -4.66667 324 108 C 185.333 228 116 382.667 116 572 C 116 802.667 184.333 1012.33 321 1201 C 473.667 1410.33 664 1515 892 1515 C 1111.33 1515 1274.33 1465.67 1381 1367 C 1492.33 1264.33 1548 1102.33 1548 881 C 1548 650.333 1485.33 442.333 1360 257 C 1216 45 1030 -61 802 -61 Z M 892 1310 C 728.667 1310 590.333 1228.67 477 1066 C 372.333 916.667 320 752 320 572 C 320 443.333 367.667 338.667 463 258 C 554.333 182 667.333 144 802 144 C 964 144 1097.67 225.667 1203 389 C 1297 535 1344 699 1344 881 C 1344 1040.33 1308.33 1152.33 1237 1217 C 1169 1279 1054 1310 892 1310 Z M 682 1848 C 769.333 1848 813 1813 813 1743 C 813 1723 798.333 1703.67 769 1685 C 742.333 1668.33 717.333 1660 694 1660 C 612 1660 571 1694.33 571 1763 C 571 1782.33 583.333 1801.33 608 1820 C 632.667 1838.67 657.333 1848 682 1848 Z M 1221 1856 C 1243.67 1856 1266.67 1845.67 1290 1825 C 1313.33 1804.33 1325 1783.67 1325 1763 C 1325 1701.67 1277.33 1671 1182 1671 C 1154.67 1671 1130.33 1678 1109 1692 C 1085 1708 1073 1729 1073 1755 C 1073 1801 1088 1830.67 1118 1844 C 1134.67 1852 1169 1856 1221 1856 Z"]
          RenderSVGPath {path} at (291,162) size 49x53 [transform={m=((1.00,0.00)(0.00,1.00)) t=(4199.00,0.00)}] [fill={[type=SOLID] [color=#000000]}] [data="M 1306 412 C 1235.33 412 1174.33 422.333 1123 443 C 1071.67 463.667 1030.33 494.333 999 535 C 963 499.667 928 473 894 455 C 860 437 826.333 428 793 428 C 719 428 649.333 458 584 518 C 518.667 578 485.667 644.333 485 717 C 485 840.333 533.333 953 630 1055 C 726.667 1157 837 1208 961 1208 C 989 1208 1012.33 1197.67 1031 1177 C 1049.67 1156.33 1059 1131.33 1059 1102 C 1059 1062 1025.67 1032.33 959 1013 C 870.333 987.667 807.667 958.667 771 926 C 717 878.667 690 809 690 717 C 690 697.667 699 679 717 661 C 737.667 641 763.333 631.667 794 633 C 852 635.667 905.667 689.667 955 795 C 999.667 887 1039.33 933 1074 933 C 1102 933 1124.67 922.667 1142 902 C 1159.33 881.333 1168 856 1168 826 C 1168 812.667 1166 792.667 1162 766 C 1158 739.333 1155.67 719.333 1155 706 C 1155 662.667 1173.67 635.333 1211 624 C 1225.67 619.333 1257.33 617 1306 617 C 1397.33 617 1461.33 639.333 1498 684 C 1531.33 724 1548 790.333 1548 883 C 1548 1046.33 1482.33 1179.67 1351 1283 C 1231 1377.67 1087.67 1425 921 1425 C 727 1425 575 1351.67 465 1205 C 365.667 1074.33 316 910 316 712 C 316 529.333 374.333 375.333 491 250 C 612.333 119.333 768.333 54 959 54 C 1013 54 1074 64.3333 1142 85 L 1317 150 C 1346.33 160.667 1365.33 166 1374 166 C 1401.33 166 1425 155.333 1445 134 C 1465 112.667 1475 87.3333 1475 58 C 1475 -5.33333 1404 -56.6667 1262 -96 C 1154.67 -125.333 1054.33 -140 961 -140 C 867 -140 771 -122 673 -86 C 575 -50 490.667 -1.33333 420 60 C 213.333 238.667 110 456 110 712 C 110 968 180.667 1182 322 1354 C 472 1538 671.667 1630 921 1630 C 1146.33 1630 1339.33 1562.33 1500 1427 C 1668.67 1283.67 1753 1102.33 1753 883 C 1753 733 1716.33 617.667 1643 537 C 1566.33 453.667 1454 412 1306 412 Z"]
          RenderSVGPath {path} at (346,178) size 27x46 [transform={m=((1.00,0.00)(0.00,1.00)) t=(6106.00,0.00)}] [fill={[type=SOLID] [color=#000000]}] [data="M 770 -196 C 770 -278.667 750 -340.667 710 -382 C 670 -423.333 609.333 -444.333 528 -445 C 471.333 -445 417.667 -434.333 367 -413 C 303 -385 271 -346.667 271 -298 C 271 -262 293.667 -244 339 -244 C 363 -244 390 -252 420 -268 C 450 -284 482.333 -292.333 517 -293 C 549.667 -292.333 574 -284.333 590 -269 C 606 -253.667 614 -231 614 -201 C 614 -169 601.667 -140.333 577 -115 C 552.333 -89.6667 514.333 -67.3333 463 -48 C 357 -24 272 26.6667 208 104 C 139.333 186 105 286 105 404 C 105 539.333 150 679 240 823 C 340 983 452.667 1063 578 1063 C 643.333 1063 716.333 1047.67 797 1017 C 899 977.667 950 929.667 950 873 C 950 847.667 941.667 825.333 925 806 C 908.333 786.667 887.667 776.667 863 776 C 843.667 776 827 781.667 813 793 C 799 804.333 785 816 771 828 C 731.667 859.333 667.333 875 578 875 C 510 875 442.667 814.333 376 693 C 315.333 581.667 285 485.333 285 404 C 285 316 315 246.667 375 196 C 431 148.667 503 125 591 125 C 631 125 673.667 135.667 719 157 L 835 219 C 855 229.667 869.333 235 878 235 C 902.667 235 924 225.333 942 206 C 960 186.667 969 164 969 138 C 969 69.3333 883.667 10 713 -40 C 732.333 -65.3333 746.667 -91 756 -117 C 765.333 -143 770 -169.333 770 -196 Z"]
    RenderSVGText {text} at (10,301) size 270x53 contains 1 chunk(s)
      RenderSVGInlineText {#text} at (0,0) size 270x53
        chunk 1 text run 1 at (10.00,340.00) startOffset 0 endOffset 16 width 270.00: "$Revision: 1.4 $"
    RenderSVGPath {rect} at (0,0) size 480x360 [stroke={[type=SOLID] [color=#000000]}] [x=1.00] [y=1.00] [width=478.00] [height=358.00]
