layer at (0,0) size 480x360
  RenderView at (0,0) size 480x360
layer at (0,0) size 480x360
  RenderSVGRoot {svg} at (0,0) size 480x360
    RenderSVGHiddenContainer {defs} at (0,0) size 0x0
    RenderSVGContainer {g} at (0,0) size 480x360
      RenderSVGText {text} at (120,11) size 245x40 contains 1 chunk(s)
        RenderSVGInlineText {#text} at (0,0) size 245x40
          chunk 1 text run 1 at (120.00,40.00) startOffset 0 endOffset 20 width 245.00: "Text fill and stroke"
      RenderSVGContainer {g} at (48,0) size 424x360
        RenderSVGText {text} at (60,-6) size 200x372 contains 1 chunk(s)
          RenderSVGInlineText {#text} at (0,0) size 200x372
            chunk 1 text run 1 at (60.00,280.00) startOffset 0 endOffset 1 width 200.00: "A"
        RenderSVGText {text} at (260,-6) size 200x372 contains 1 chunk(s)
          RenderSVGInlineText {#text} at (0,0) size 200x372
            chunk 1 text run 1 at (260.00,280.00) startOffset 0 endOffset 1 width 200.00: "B"
      RenderSVGText {text} at (10,301) size 270x53 contains 1 chunk(s)
        RenderSVGInlineText {#text} at (0,0) size 270x53
          chunk 1 text run 1 at (10.00,340.00) startOffset 0 endOffset 16 width 270.00: "$Revision: 1.4 $"
      RenderSVGPath {rect} at (0,0) size 480x360 [stroke={[type=SOLID] [color=#000000]}] [x=1.00] [y=1.00] [width=478.00] [height=358.00]
