layer at (0,0) size 480x360
  RenderView at (0,0) size 480x360
layer at (0,0) size 480x360
  RenderSVGRoot {svg} at (0,0) size 480x360
    RenderSVGContainer {g} at (30,14) size 261x258
      RenderSVGText {text} at (30,14) size 261x22 contains 1 chunk(s)
        RenderSVGInlineText {#text} at (0,0) size 261x22
          chunk 1 text run 1 at (30.00,30.00) startOffset 0 endOffset 42 width 261.00: "Default entities: amp, lt, gt, apos, quot:"
      RenderSVGText {text} at (90,44) size 76x22 contains 1 chunk(s)
        RenderSVGInlineText {#text} at (0,0) size 76x22
          chunk 1 text run 1 at (90.00,60.00) startOffset 0 endOffset 13 width 76.00: "&, <, >, ', \""
      RenderSVGText {text} at (30,84) size 148x22 contains 1 chunk(s)
        RenderSVGInlineText {#text} at (0,0) size 148x22
          chunk 1 text run 1 at (30.00,100.00) startOffset 0 endOffset 21 width 148.00: "Character references:"
      RenderSVGText {text} at (90,114) size 184x22 contains 1 chunk(s)
        RenderSVGInlineText {#text} at (0,0) size 184x22
          chunk 1 text run 1 at (90.00,130.00) startOffset 0 endOffset 24 width 184.00: "A hexadecimal (&#x41)= A"
      RenderSVGText {text} at (90,144) size 144x22 contains 1 chunk(s)
        RenderSVGInlineText {#text} at (0,0) size 144x22
          chunk 1 text run 1 at (90.00,160.00) startOffset 0 endOffset 10 width 72.00: "A decimal "
          chunk 1 text run 1 at (162.00,160.00) startOffset 0 endOffset 9 width 72.00: "(&#65)= A"
      RenderSVGText {text} at (30,184) size 120x22 contains 1 chunk(s)
        RenderSVGInlineText {#text} at (0,0) size 120x22
          chunk 1 text run 1 at (30.00,200.00) startOffset 0 endOffset 18 width 120.00: "Entity references:"
      RenderSVGText {text} at (89,212) size 32x22 contains 1 chunk(s)
        RenderSVGInlineText {#text} at (0,0) size 32x22
          chunk 1 (middle anchor) text run 1 at (89.50,228.00) startOffset 0 endOffset 4 width 31.00: "gray"
      RenderSVGContainer {g} at (90,235) size 36x36 [transform={m=((0.20,0.00)(0.00,0.20)) t=(90.00,235.00)}]
        RenderSVGPath {path} at (90,235) size 36x36 [fill={[type=SOLID] [color=#808080]}] [data="M 60 0 L 120 0 L 180 60 L 180 120 L 120 180 L 60 180 L 0 120 L 0 60 Z"]
      RenderSVGText {text} at (177,212) size 56x22 contains 1 chunk(s)
        RenderSVGInlineText {#text} at (0,0) size 56x22
          chunk 1 (middle anchor) text run 1 at (177.50,228.00) startOffset 0 endOffset 8 width 55.00: "outlined"
      RenderSVGContainer {g} at (189,234) size 38x38 [transform={m=((0.20,0.00)(0.00,0.20)) t=(190.00,235.00)}]
        RenderSVGPath {path} at (189,234) size 38x38 [stroke={[type=SOLID] [color=#808080] [stroke width=5.00]}] [data="M 60 0 L 120 0 L 180 60 L 180 120 L 120 180 L 60 180 L 0 120 L 0 60 Z"]
    RenderSVGText {text} at (10,301) size 270x53 contains 1 chunk(s)
      RenderSVGInlineText {#text} at (0,0) size 270x53
        chunk 1 text run 1 at (10.00,340.00) startOffset 0 endOffset 16 width 270.00: "$Revision: 1.9 $"
    RenderSVGPath {rect} at (0,0) size 480x360 [stroke={[type=SOLID] [color=#000000]}] [x=1.00] [y=1.00] [width=478.00] [height=358.00]
