layer at (0,0) size 480x360
  RenderView at (0,0) size 480x360
layer at (0,0) size 480x360
  RenderSVGRoot {svg} at (0,0) size 480x360
    RenderSVGContainer {g} at (140,70) size 200x160
      RenderSVGPath {circle} at (160,70) size 160x160 [fill={[type=SOLID] [color=#0000FF]}] [cx=240.00] [cy=150.00] [r=80.00]
      RenderSVGPath {rect} at (140,70) size 200x160 [fill={[type=SOLID] [color=#000000]}] [x=140.00] [y=70.00] [width=200.00] [height=160.00]
    RenderSVGText {text} at (10,301) size 270x53 contains 1 chunk(s)
      RenderSVGInlineText {#text} at (0,0) size 270x53
        chunk 1 text run 1 at (10.00,340.00) startOffset 0 endOffset 16 width 270.00: "$Revision: 1.3 $"
    RenderSVGPath {rect} at (0,0) size 480x360 [stroke={[type=SOLID] [color=#000000]}] [x=1.00] [y=1.00] [width=478.00] [height=358.00]
