layer at (0,0) size 800x600
  RenderView at (0,0) size 800x600
layer at (0,0) size 800x600
  RenderSVGRoot {svg} at (0,0) size 800x600
    RenderSVGContainer {g} at (33,221) size 651x144
      RenderSVGText {text} at (92,133) size 276x22 contains 1 chunk(s)
        RenderSVGInlineText {#text} at (192,0) size 84x22
          chunk 1 (middle anchor) text run 1 at (284.90,150.00) startOffset 0 endOffset 14 width 82.80 RTL: "\x{646}\x{634}\x{627}\x{637} \x{627}\x{644}\x{62A}\x{62F}\x{648}\x{64A}\x{644} \""
        RenderSVGTSpan {tspan} at (0,0) size 181x22
          RenderSVGInlineText {#text} at (12,0) size 181x22
            chunk 1 (middle anchor) text run 1 at (104.30,150.00) startOffset 0 endOffset 16 width 147.00: "dirLTR ubEmbed, "
            chunk 1 (middle anchor) text run 1 at (251.30,150.00) startOffset 0 endOffset 6 width 33.60 RTL: "\x{627}\x{62E}\x{62A}\x{628}\x{627}\x{631}"
        RenderSVGInlineText {#text} at (0,0) size 13x22
          chunk 1 (middle anchor) text run 1 at (92.30,150.00) startOffset 0 endOffset 2 width 12.00 RTL: "\"!"
      RenderSVGText {text} at (20,171) size 85x12 contains 1 chunk(s)
        RenderSVGInlineText {#text} at (0,0) size 85x12
          chunk 1 text run 1 at (20.00,180.00) startOffset 0 endOffset 18 width 84.60: "Reference graphic:"
      RenderSVGImage {image} at (100,300) size 584x65
    RenderSVGContainer {g} at (16,556) size 78x14
      RenderSVGText {text} at (10,334) size 46x8 contains 1 chunk(s)
        RenderSVGInlineText {#text} at (0,0) size 46x8
          chunk 1 text run 1 at (10.00,340.00) startOffset 0 endOffset 16 width 45.60: "$Revision: 1.7 $"
    RenderSVGPath {rect} at (0,0) size 800x600 [stroke={[type=SOLID] [color=#000000]}] [x=1.00] [y=1.00] [width=478.00] [height=358.00]
    RenderSVGContainer {g} at (0,0) size 800x40
      RenderSVGPath {rect} at (0,0) size 800x37 [stroke={[type=SOLID] [color=#000000]}] [fill={[type=SOLID] [color=#FF0000]}] [x=1.00] [y=1.00] [width=478.00] [height=20.00]
      RenderSVGText {text} at (206,-1) size 68x24 contains 1 chunk(s)
        RenderSVGInlineText {#text} at (0,0) size 68x24
          chunk 1 (middle anchor) text run 1 at (206.70,18.00) startOffset 0 endOffset 5 width 66.60: "DRAFT"
