layer at (0,0) size 480x360
  RenderView at (0,0) size 480x360
layer at (0,0) size 480x360
  RenderSVGRoot {svg} at (0,0) size 480x360
    RenderSVGContainer {g} at (20,3) size 447x329
      RenderSVGText {text} at (120,3) size 233x14 contains 1 chunk(s)
        RenderSVGInlineText {#text} at (0,0) size 233x14
          chunk 1 text run 1 at (120.00,14.00) startOffset 0 endOffset 42 width 233.00: "Elliptical arc curves drawn with commands:"
      RenderSVGPath {path} at (20,24) size 90x91 [stroke={[type=SOLID] [color=#FF0000] [stroke width=10.00]}] [data="M 25 70 C 25.2749 91.9921 43.2535 109.637 65.2469 109.499 C 87.2403 109.362 104.997 91.4938 104.997 69.5 C 104.997 47.5062 87.2403 29.6382 65.2469 29.5008 C 43.2535 29.3633 25.2749 47.0079 25 69 Z"]
      RenderSVGText {text} at (48,59) size 37x14 contains 1 chunk(s)
        RenderSVGInlineText {#text} at (0,0) size 37x14
          chunk 1 text run 1 at (48.00,70.00) startOffset 0 endOffset 7 width 37.00: "M, A, Z"
      RenderSVGPath {rect} at (23,68) size 4x4 [fill={[type=SOLID] [color=#00C000]}] [x=23.00] [y=68.00] [width=4.00] [height=4.00]
      RenderSVGPath {rect} at (23,67) size 4x4 [fill={[type=SOLID] [color=#00C000]}] [x=23.00] [y=67.00] [width=4.00] [height=4.00]
      RenderSVGPath {path} at (149,27) size 89x86 [stroke={[type=SOLID] [color=#0000FF]}] [fill={[type=SOLID] [color=#00FF00]}] [data="M 150 100 C 167.553 111.967 193.06 112.777 211.743 101.961 C 230.427 91.1455 237.439 71.5096 228.719 54.4299 C 219.998 37.3502 197.806 27.2579 175 30 Z"]
      RenderSVGText {text} at (124,34) size 35x14 contains 1 chunk(s)
        RenderSVGInlineText {#text} at (0,0) size 35x14
          chunk 1 text run 1 at (124.00,45.00) startOffset 0 endOffset 7 width 35.00: "m, a, z"
      RenderSVGPath {rect} at (148,98) size 4x4 [fill={[type=SOLID] [color=#CF0000]}] [x=148.00] [y=98.00] [width=4.00] [height=4.00]
      RenderSVGPath {rect} at (173,28) size 4x4 [fill={[type=SOLID] [color=#CF0000]}] [x=173.00] [y=28.00] [width=4.00] [height=4.00]
      RenderSVGPath {path} at (333,244) size 98x88 [stroke={[type=SOLID] [color=#000000]}] [data="M 350 245 C 333.405 267.091 337.873 298.453 359.977 315.031 C 382.08 331.608 413.439 327.116 430 305"]
      RenderSVGText {text} at (390,289) size 23x14 contains 1 chunk(s)
        RenderSVGInlineText {#text} at (0,0) size 23x14
          chunk 1 text run 1 at (390.00,300.00) startOffset 0 endOffset 4 width 23.00: "M, a"
      RenderSVGPath {rect} at (348,243) size 4x4 [fill={[type=SOLID] [color=#0000FF]}] [x=348.00] [y=243.00] [width=4.00] [height=4.00]
      RenderSVGPath {rect} at (428,303) size 4x4 [fill={[type=SOLID] [color=#0000FF]}] [x=428.00] [y=303.00] [width=4.00] [height=4.00]
      RenderSVGPath {path} at (252,29) size 209x100 [fill={[type=SOLID] [color=#C0C000] [fill rule=EVEN-ODD]}] [data="M 270 30 C 252.272 50.1015 253.547 80.6061 272.891 99.158 C 292.234 117.71 322.766 117.71 342.109 99.158 C 361.453 80.6061 362.728 50.1015 345 30 C 325.402 41.3151 315.847 64.383 321.704 86.2422 C 327.561 108.101 347.37 123.301 370 123.301 C 392.63 123.301 412.439 108.101 418.296 86.2422 C 424.153 64.383 414.598 41.3151 395 30 C 370.621 36.2946 354.726 59.7348 357.898 84.7125 C 361.071 109.69 382.322 128.412 407.5 128.412 C 432.678 128.412 453.929 109.69 457.102 84.7125 C 460.274 59.7348 444.379 36.2946 420 30 Z"]
      RenderSVGText {text} at (280,124) size 62x14 contains 1 chunk(s)
        RenderSVGInlineText {#text} at (0,0) size 62x14
          chunk 1 text run 1 at (280.00,135.00) startOffset 0 endOffset 13 width 62.00: "M, A, a, a, z"
      RenderSVGPath {rect} at (268,28) size 4x4 [fill={[type=SOLID] [color=#0000FF]}] [x=268.00] [y=28.00] [width=4.00] [height=4.00]
      RenderSVGPath {rect} at (343,28) size 4x4 [fill={[type=SOLID] [color=#0000FF]}] [x=343.00] [y=28.00] [width=4.00] [height=4.00]
      RenderSVGPath {rect} at (393,28) size 4x4 [fill={[type=SOLID] [color=#0000FF]}] [x=393.00] [y=28.00] [width=4.00] [height=4.00]
      RenderSVGPath {rect} at (418,28) size 4x4 [fill={[type=SOLID] [color=#0000FF]}] [x=418.00] [y=28.00] [width=4.00] [height=4.00]
      RenderSVGPath {path} at (27,128) size 152x129 [stroke={[type=SOLID] [color=#000000] [stroke width=3.00]}] [fill={[type=SOLID] [color=#CF0000]}] [data="M 30 150 C 43.812 132.067 69.5434 128.718 87.485 142.519 C 105.427 156.321 108.791 182.05 95 200 Z M 60 180 C 46.2024 197.95 49.5638 223.685 67.5086 237.489 C 85.4535 251.293 111.19 247.94 125 230 Z M 100 204 C 113.807 186.051 139.551 182.693 157.5 196.5 C 175.449 210.307 178.807 236.051 165 254 Z"]
      RenderSVGText {text} at (25,259) size 120x14 contains 1 chunk(s)
        RenderSVGInlineText {#text} at (0,0) size 120x14
          chunk 1 text run 1 at (25.00,270.00) startOffset 0 endOffset 25 width 120.00: "M, a, Z, m, A, Z, m, a, z"
      RenderSVGPath {rect} at (28,148) size 4x4 [fill={[type=SOLID] [color=#0000FF]}] [x=28.00] [y=148.00] [width=4.00] [height=4.00]
      RenderSVGPath {rect} at (93,198) size 4x4 [fill={[type=SOLID] [color=#0000FF]}] [x=93.00] [y=198.00] [width=4.00] [height=4.00]
      RenderSVGPath {rect} at (58,178) size 4x4 [fill={[type=SOLID] [color=#0000FF]}] [x=58.00] [y=178.00] [width=4.00] [height=4.00]
      RenderSVGPath {rect} at (123,228) size 4x4 [fill={[type=SOLID] [color=#0000FF]}] [x=123.00] [y=228.00] [width=4.00] [height=4.00]
      RenderSVGPath {rect} at (98,202) size 4x4 [fill={[type=SOLID] [color=#0000FF]}] [x=98.00] [y=202.00] [width=4.00] [height=4.00]
      RenderSVGPath {rect} at (163,252) size 4x4 [fill={[type=SOLID] [color=#0000FF]}] [x=163.00] [y=252.00] [width=4.00] [height=4.00]
      RenderSVGPath {path} at (214,141) size 252x105 [stroke={[type=SOLID] [color=#FF0000]}] [data="M 215 190 C 220.263 245.753 240.885 245.753 265 190 C 296.645 141.819 316.847 141.819 315 190 C 309.671 227.539 329.265 227.539 365 190 C 400.955 163.953 419.859 163.953 415 190 C 413.859 205.73 432.083 205.73 465 190"]
      RenderSVGText {text} at (215,235) size 66x14 contains 1 chunk(s)
        RenderSVGInlineText {#text} at (0,0) size 66x14
          chunk 1 text run 1 at (215.00,246.00) startOffset 0 endOffset 13 width 66.00: "M, A, A, A, A"
      RenderSVGPath {rect} at (213,188) size 4x4 [fill={[type=SOLID] [color=#0000FF]}] [x=213.00] [y=188.00] [width=4.00] [height=4.00]
      RenderSVGPath {rect} at (263,188) size 4x4 [fill={[type=SOLID] [color=#0000FF]}] [x=263.00] [y=188.00] [width=4.00] [height=4.00]
      RenderSVGPath {rect} at (313,188) size 4x4 [fill={[type=SOLID] [color=#0000FF]}] [x=313.00] [y=188.00] [width=4.00] [height=4.00]
      RenderSVGPath {rect} at (363,188) size 4x4 [fill={[type=SOLID] [color=#0000FF]}] [x=363.00] [y=188.00] [width=4.00] [height=4.00]
      RenderSVGPath {rect} at (413,188) size 4x4 [fill={[type=SOLID] [color=#0000FF]}] [x=413.00] [y=188.00] [width=4.00] [height=4.00]
      RenderSVGPath {rect} at (463,188) size 4x4 [fill={[type=SOLID] [color=#0000FF]}] [x=463.00] [y=188.00] [width=4.00] [height=4.00]
    RenderSVGText {text} at (10,304) size 264x46 contains 1 chunk(s)
      RenderSVGInlineText {#text} at (0,0) size 264x46
        chunk 1 text run 1 at (10.00,340.00) startOffset 0 endOffset 16 width 264.00: "$Revision: 1.7 $"
    RenderSVGPath {rect} at (0,0) size 480x360 [stroke={[type=SOLID] [color=#000000]}] [x=1.00] [y=1.00] [width=478.00] [height=358.00]
