layer at (0,0) size 480x360
  RenderView at (0,0) size 480x360
layer at (0,0) size 480x360
  RenderSVGRoot {svg} at (0,0) size 480x360
    RenderSVGHiddenContainer {defs} at (0,0) size 0x0
    RenderSVGContainer {g} at (10,16) size 416x204
      RenderSVGText {text} at (10,16) size 416x18 contains 1 chunk(s)
        RenderSVGInlineText {#text} at (0,0) size 416x18
          chunk 1 text run 1 at (10.00,30.00) startOffset 0 endOffset 60 width 416.00: "Test that some methods taking an SVGMatrix take a copy of it"
      RenderSVGPath {rect} at (10,50) size 50x50 [fill={[type=SOLID] [color=#00FF00]}] [x=10.00] [y=50.00] [width=50.00] [height=50.00]
      RenderSVGPath {rect} at (10,110) size 50x50 [fill={[type=SOLID] [color=#00FF00]}] [x=10.00] [y=110.00] [width=50.00] [height=50.00]
      RenderSVGPath {rect} at (10,170) size 50x50 [fill={[type=SOLID] [color=#00FF00]}] [x=10.00] [y=170.00] [width=50.00] [height=50.00]
      RenderSVGContainer {g} at (70,70) size 257x133
        RenderSVGText {text} at (70,70) size 257x13 contains 1 chunk(s)
          RenderSVGInlineText {#text} at (0,0) size 257x13
            chunk 1 text run 1 at (70.00,80.00) startOffset 0 endOffset 47 width 257.00: "SVGTransformList.createSVGTransformFromMatrix()"
        RenderSVGText {text} at (70,130) size 251x13 contains 1 chunk(s)
          RenderSVGInlineText {#text} at (0,0) size 251x13
            chunk 1 text run 1 at (70.00,140.00) startOffset 0 endOffset 44 width 251.00: "SVGSVGElement.createSVGTransformFromMatrix()"
        RenderSVGText {text} at (70,190) size 127x13 contains 1 chunk(s)
          RenderSVGInlineText {#text} at (0,0) size 127x13
            chunk 1 text run 1 at (70.00,200.00) startOffset 0 endOffset 24 width 127.00: "SVGTransform.setMatrix()"
      RenderSVGContainer {g} at (0,0) size 0x0 [transform={m=((3.00,0.00)(0.00,1.00)) t=(0.00,0.00)}]
    RenderSVGContainer {g} at (10,309) size 253x40
      RenderSVGText {text} at (10,309) size 253x40 contains 1 chunk(s)
        RenderSVGInlineText {#text} at (0,0) size 253x40
          chunk 1 text run 1 at (10.00,340.00) startOffset 0 endOffset 16 width 253.00: "$Revision: 1.7 $"
    RenderSVGPath {rect} at (0,0) size 480x360 [stroke={[type=SOLID] [color=#000000]}] [x=1.00] [y=1.00] [width=478.00] [height=358.00]
