layer at (0,0) size 480x360
  RenderView at (0,0) size 480x360
layer at (0,0) size 480x360
  RenderSVGRoot {svg} at (0,0) size 480x360
    RenderSVGHiddenContainer {defs} at (0,0) size 0x0
    RenderSVGContainer {g} at (0,0) size 325x225
      RenderSVGHiddenContainer {defs} at (0,0) size 0x0
        RenderSVGResourceMarker {marker} [id="testMarker"] [markerUnits=strokeWidth] [ref at (0,0)] [angle=0.00]
          RenderSVGPath {path} at (0,0) size 200x200 [fill={[type=SOLID] [color=#008000]}] [data="M 0 0 L 200 200 L 0 150 Z"]
        RenderSVGHiddenContainer {g} at (0,0) size 0x0
          RenderSVGResourceMarker {marker} [id="testMarker2"] [markerUnits=strokeWidth] [ref at (0,0)] [angle=0.00]
            RenderSVGPath {path} at (0,0) size 200x200 [fill={[type=SOLID] [color=#008000]}] [data="M 0 0 L 200 200 L 0 150 Z"]
      RenderSVGPath {path} at (0,0) size 225x225 [fill={[type=SOLID] [color=#000000]}] [end marker=testMarker] [data="M 0 0 L 25 25"]
      RenderSVGPath {path} at (100,0) size 225x225 [fill={[type=SOLID] [color=#000000]}] [end marker=testMarker2] [data="M 100 0 L 125 25"]
    RenderSVGContainer {g} at (10,309) size 253x40
      RenderSVGText {text} at (10,309) size 253x40 contains 1 chunk(s)
        RenderSVGInlineText {#text} at (0,0) size 253x40
          chunk 1 text run 1 at (10.00,340.00) startOffset 0 endOffset 16 width 253.00: "$Revision: 1.3 $"
    RenderSVGPath {rect} at (0,0) size 480x360 [stroke={[type=SOLID] [color=#000000]}] [x=1.00] [y=1.00] [width=478.00] [height=358.00]
