layer at (0,0) size 800x600
  RenderView at (0,0) size 800x600
layer at (0,0) size 800x600
  RenderSVGRoot {svg} at (0,0) size 800x600
    RenderSVGContainer {g} at (25,5) size 775x502
      RenderSVGText {text} at (15,3) size 425x39 contains 1 chunk(s)
        RenderSVGInlineText {#text} at (0,0) size 425x39
          chunk 1 text run 1 at (15.00,35.00) startOffset 0 endOffset 26 width 424.80: "Basic: xml:space attribute"
      RenderSVGText {text} at (35,28) size 375x39 contains 1 chunk(s)
        RenderSVGInlineText {#text} at (0,0) size 375x39
          chunk 1 text run 1 at (35.00,60.00) startOffset 0 endOffset 22 width 374.40: "& whitespace handling."
      RenderSVGText {text} at (15,68) size 521x46 contains 1 chunk(s)
        RenderSVGInlineText {#text} at (0,0) size 521x46
          chunk 1 text run 1 at (15.00,105.00) startOffset 0 endOffset 32 width 520.80: " WS   with  indented lines.     "
      RenderSVGText {text} at (15,103) size 464x46 contains 1 chunk(s)
        RenderSVGInlineText {#text} at (0,0) size 464x46
          chunk 1 text run 1 at (15.00,140.00) startOffset 0 endOffset 27 width 463.80: " WS   with  indented lines."
      RenderSVGPath {rect} at (40,240) size 637x64 [stroke={[type=SOLID] [color=#000000]}] [x=25.00] [y=145.00] [width=380.00] [height=36.00]
      RenderSVGText {text} at (28,138) size 377x46 contains 1 chunk(s)
        RenderSVGInlineText {#text} at (0,0) size 377x46
          chunk 1 text run 1 at (28.00,175.00) startOffset 0 endOffset 20 width 376.80: "xml:space='preserve'"
      RenderSVGText {text} at (15,188) size 495x46 contains 1 chunk(s)
        RenderSVGInlineText {#text} at (0,0) size 495x46
          chunk 1 text run 1 at (15.00,225.00) startOffset 0 endOffset 29 width 495.00: "WS non-indented lines.       "
      RenderSVGText {text} at (15,223) size 416x46 contains 1 chunk(s)
        RenderSVGInlineText {#text} at (0,0) size 416x46
          chunk 1 text run 1 at (15.00,260.00) startOffset 0 endOffset 22 width 415.20: "WS non-indented lines."
      RenderSVGPath {rect} at (40,440) size 637x64 [stroke={[type=SOLID] [color=#000000]}] [x=25.00] [y=265.00] [width=380.00] [height=36.00]
      RenderSVGText {text} at (28,258) size 377x46 contains 1 chunk(s)
        RenderSVGInlineText {#text} at (0,0) size 377x46
          chunk 1 text run 1 at (28.00,295.00) startOffset 0 endOffset 20 width 376.80: "xml:space='preserve'"
    RenderSVGText {text} at (10,303) size 269x48 contains 1 chunk(s)
      RenderSVGInlineText {#text} at (0,0) size 269x48
        chunk 1 text run 1 at (10.00,340.00) startOffset 0 endOffset 16 width 268.20: "$Revision: 1.8 $"
    RenderSVGPath {rect} at (0,0) size 800x600 [stroke={[type=SOLID] [color=#000000]}] [x=1.00] [y=1.00] [width=478.00] [height=358.00]
selection start: position 0 of child 0 {#text} of child 1 {text} of child 13 {g} of child 29 {svg} of document
selection end:   position 16 of child 0 {#text} of child 15 {text} of child 29 {svg} of document
