layer at (0,0) size 784x1659
  RenderView at (0,0) size 784x600
layer at (0,0) size 784x1659
  RenderBlock {HTML} at (0,0) size 784x1659
    RenderBody {BODY} at (8,16) size 768x1627
layer at (8,16) size 760x523
  RenderBlock {DIV} at (0,0) size 760x523 [border: (5px solid #800000)]
    RenderBlock (anonymous multi-column span) at (5,13) size 750x71 [color=#FFFFFF]
      RenderBlock {H2} at (0,19) size 750x33 [color=#000000] [bgcolor=#EEEEEE]
        RenderText {#text} at (0,0) size 276x33
          text run at (0,0) width 276: "This is a spanning element."
layer at (13,21) size 750x8
  RenderBlock (anonymous multi-column) at (5,5) size 750x8
    RenderBlock {SPAN} at (0,8) size 367x0 [color=#FFFFFF] [bgcolor=#000000]
layer at (13,100) size 750x434
  RenderBlock (anonymous multi-column) at (5,84) size 750x434
    RenderBlock {SPAN} at (0,16) size 367x264 [color=#FFFFFF] [bgcolor=#000000]
      RenderText {#text} at (0,0) size 367x264
        text run at (0,0) width 351: "Lorem ipsum dolor sit amet, consectetuer adipiscing"
        text run at (0,22) width 343: "elit. Nulla varius enim ac mi. Curabitur sollicitudin"
        text run at (0,44) width 329: "felis quis lectus. Quisque adipiscing rhoncus sem."
        text run at (0,66) width 367: "Proin nulla purus, vulputate vel, varius ut, euismod et,"
        text run at (0,88) width 325: "nisi. Sed vitae felis vel orci sagittis aliquam. Cras"
        text run at (0,110) width 315: "convallis adipiscing sem. Nam nonummy enim."
        text run at (0,132) width 341: "Nullam bibendum lobortis neque. Vestibulum velit"
        text run at (0,154) width 348: "orci, tempus euismod, pretium quis, interdum vitae,"
        text run at (0,176) width 326: "nulla. Phasellus eget ante et tortor condimentum"
        text run at (0,198) width 364: "vestibulum. Suspendisse hendrerit quam nec felis. Sed"
        text run at (0,220) width 357: "varius turpis vitae pede. Lorem ipsum dolor sit amet,"
        text run at (0,242) width 184: "consectetuer adipiscing elit."
    RenderBlock (anonymous) at (0,296) size 367x556
      RenderText {#text} at (0,0) size 367x270
        text run at (0,0) width 351: "Lorem ipsum dolor sit amet, consectetuer adipiscing"
        text run at (0,22) width 343: "elit. Nulla varius enim ac mi. Curabitur sollicitudin"
        text run at (0,44) width 329: "felis quis lectus. Quisque adipiscing rhoncus sem."
        text run at (0,66) width 367: "Proin nulla purus, vulputate vel, varius ut, euismod et,"
        text run at (0,88) width 325: "nisi. Sed vitae felis vel orci sagittis aliquam. Cras"
        text run at (0,110) width 315: "convallis adipiscing sem. Nam nonummy enim."
        text run at (0,138) width 341: "Nullam bibendum lobortis neque. Vestibulum velit"
        text run at (0,160) width 348: "orci, tempus euismod, pretium quis, interdum vitae,"
        text run at (0,182) width 326: "nulla. Phasellus eget ante et tortor condimentum"
        text run at (0,204) width 364: "vestibulum. Suspendisse hendrerit quam nec felis. Sed"
        text run at (0,226) width 357: "varius turpis vitae pede. Lorem ipsum dolor sit amet,"
        text run at (0,248) width 188: "consectetuer adipiscing elit. "
      RenderInline {SPAN} at (0,0) size 46x22
        RenderText {#text} at (188,248) size 46x22
          text run at (188,248) width 46: "Lorem"
      RenderText {#text} at (234,248) size 359x308
        text run at (234,248) width 104: " ipsum dolor sit"
        text run at (0,270) width 349: "amet, consectetuer adipiscing elit. Nulla varius enim"
        text run at (0,292) width 359: "ac mi. Curabitur sollicitudin felis quis lectus. Quisque"
        text run at (0,314) width 357: "adipiscing rhoncus sem. Proin nulla purus, vulputate"
        text run at (0,336) width 350: "vel, varius ut, euismod et, nisi. Sed vitae felis vel orci"
        text run at (0,358) width 351: "sagittis aliquam. Cras convallis adipiscing sem. Nam"
        text run at (0,380) width 341: "nonummy enim. Nullam bibendum lobortis neque."
        text run at (0,402) width 355: "Vestibulum velit orci, tempus euismod, pretium quis,"
        text run at (0,424) width 336: "interdum vitae, nulla. Phasellus eget ante et tortor"
        text run at (0,446) width 328: "condimentum vestibulum. Suspendisse hendrerit"
        text run at (0,468) width 345: "quam nec felis. Sed varius turpis vitae pede. Lorem"
        text run at (0,490) width 329: "ipsum dolor sit amet, consectetuer adipiscing elit."
        text run at (0,512) width 351: "Lorem ipsum dolor sit amet, consectetuer adipiscing"
        text run at (0,534) width 192: "elit. Nulla varius enim ac mi."
layer at (8,555) size 760x517
  RenderBlock {DIV} at (0,539) size 760x517 [border: (5px solid #800000)]
    RenderBlock (anonymous multi-column span) at (5,433) size 750x71 [color=#FFFFFF]
      RenderBlock {H2} at (0,19) size 750x33 [color=#000000] [bgcolor=#EEEEEE]
        RenderText {#text} at (0,0) size 276x33
          text run at (0,0) width 276: "This is a spanning element."
layer at (13,560) size 750x428
  RenderBlock (anonymous multi-column) at (5,5) size 750x428
    RenderBlock (anonymous) at (0,0) size 367x780
      RenderText {#text} at (0,0) size 367x780
        text run at (0,0) width 351: "Lorem ipsum dolor sit amet, consectetuer adipiscing"
        text run at (0,22) width 343: "elit. Nulla varius enim ac mi. Curabitur sollicitudin"
        text run at (0,44) width 329: "felis quis lectus. Quisque adipiscing rhoncus sem."
        text run at (0,66) width 367: "Proin nulla purus, vulputate vel, varius ut, euismod et,"
        text run at (0,88) width 325: "nisi. Sed vitae felis vel orci sagittis aliquam. Cras"
        text run at (0,110) width 315: "convallis adipiscing sem. Nam nonummy enim."
        text run at (0,132) width 341: "Nullam bibendum lobortis neque. Vestibulum velit"
        text run at (0,154) width 348: "orci, tempus euismod, pretium quis, interdum vitae,"
        text run at (0,176) width 326: "nulla. Phasellus eget ante et tortor condimentum"
        text run at (0,198) width 364: "vestibulum. Suspendisse hendrerit quam nec felis. Sed"
        text run at (0,220) width 357: "varius turpis vitae pede. Lorem ipsum dolor sit amet,"
        text run at (0,242) width 188: "consectetuer adipiscing elit. "
        text run at (188,242) width 150: "Lorem ipsum dolor sit"
        text run at (0,264) width 349: "amet, consectetuer adipiscing elit. Nulla varius enim"
        text run at (0,286) width 359: "ac mi. Curabitur sollicitudin felis quis lectus. Quisque"
        text run at (0,308) width 357: "adipiscing rhoncus sem. Proin nulla purus, vulputate"
        text run at (0,330) width 350: "vel, varius ut, euismod et, nisi. Sed vitae felis vel orci"
        text run at (0,352) width 351: "sagittis aliquam. Cras convallis adipiscing sem. Nam"
        text run at (0,374) width 341: "nonummy enim. Nullam bibendum lobortis neque."
        text run at (0,396) width 355: "Vestibulum velit orci, tempus euismod, pretium quis,"
        text run at (0,428) width 336: "interdum vitae, nulla. Phasellus eget ante et tortor"
        text run at (0,450) width 328: "condimentum vestibulum. Suspendisse hendrerit"
        text run at (0,472) width 345: "quam nec felis. Sed varius turpis vitae pede. Lorem"
        text run at (0,494) width 329: "ipsum dolor sit amet, consectetuer adipiscing elit."
        text run at (0,516) width 351: "Lorem ipsum dolor sit amet, consectetuer adipiscing"
        text run at (0,538) width 343: "elit. Nulla varius enim ac mi. Curabitur sollicitudin"
        text run at (0,560) width 329: "felis quis lectus. Quisque adipiscing rhoncus sem."
        text run at (0,582) width 367: "Proin nulla purus, vulputate vel, varius ut, euismod et,"
        text run at (0,604) width 325: "nisi. Sed vitae felis vel orci sagittis aliquam. Cras"
        text run at (0,626) width 315: "convallis adipiscing sem. Nam nonummy enim."
        text run at (0,648) width 341: "Nullam bibendum lobortis neque. Vestibulum velit"
        text run at (0,670) width 348: "orci, tempus euismod, pretium quis, interdum vitae,"
        text run at (0,692) width 326: "nulla. Phasellus eget ante et tortor condimentum"
        text run at (0,714) width 364: "vestibulum. Suspendisse hendrerit quam nec felis. Sed"
        text run at (0,736) width 357: "varius turpis vitae pede. Lorem ipsum dolor sit amet,"
        text run at (0,758) width 184: "consectetuer adipiscing elit."
    RenderBlock {SPAN} at (0,796) size 367x44 [color=#FFFFFF] [bgcolor=#000000]
      RenderText {#text} at (0,0) size 351x44
        text run at (0,0) width 351: "Lorem ipsum dolor sit amet, consectetuer adipiscing"
        text run at (0,22) width 192: "elit. Nulla varius enim ac mi."
layer at (13,1059) size 750x8
  RenderBlock (anonymous multi-column) at (5,504) size 750x8
    RenderBlock {SPAN} at (0,8) size 367x0 [color=#FFFFFF] [bgcolor=#000000]
layer at (8,1088) size 760x555
  RenderBlock {DIV} at (0,1072) size 760x555 [border: (5px solid #800000)]
    RenderBlock (anonymous multi-column span) at (5,191) size 750x71 [color=#FFFFFF]
      RenderBlock {H2} at (0,19) size 750x33 [color=#000000] [bgcolor=#EEEEEE]
        RenderText {#text} at (0,0) size 276x33
          text run at (0,0) width 276: "This is a spanning element."
layer at (13,1093) size 750x186
  RenderBlock (anonymous multi-column) at (5,5) size 750x186
    RenderBlock {P} at (0,16) size 367x280
      RenderText {#text} at (0,0) size 367x280
        text run at (0,0) width 351: "Lorem ipsum dolor sit amet, consectetuer adipiscing"
        text run at (0,22) width 343: "elit. Nulla varius enim ac mi. Curabitur sollicitudin"
        text run at (0,44) width 329: "felis quis lectus. Quisque adipiscing rhoncus sem."
        text run at (0,66) width 367: "Proin nulla purus, vulputate vel, varius ut, euismod et,"
        text run at (0,88) width 325: "nisi. Sed vitae felis vel orci sagittis aliquam. Cras"
        text run at (0,110) width 315: "convallis adipiscing sem. Nam nonummy enim."
        text run at (0,132) width 341: "Nullam bibendum lobortis neque. Vestibulum velit"
        text run at (0,170) width 348: "orci, tempus euismod, pretium quis, interdum vitae,"
        text run at (0,192) width 326: "nulla. Phasellus eget ante et tortor condimentum"
        text run at (0,214) width 364: "vestibulum. Suspendisse hendrerit quam nec felis. Sed"
        text run at (0,236) width 357: "varius turpis vitae pede. Lorem ipsum dolor sit amet,"
        text run at (0,258) width 184: "consectetuer adipiscing elit."
    RenderBlock {SPAN} at (0,312) size 367x44 [color=#FFFFFF] [bgcolor=#000000]
      RenderBlock (anonymous) at (0,0) size 367x44
        RenderText {#text} at (0,0) size 351x44
          text run at (0,0) width 351: "Lorem ipsum dolor sit amet, consectetuer adipiscing"
          text run at (0,22) width 192: "elit. Nulla varius enim ac mi."
layer at (13,1350) size 750x288
  RenderBlock (anonymous multi-column) at (5,262) size 750x288
    RenderBlock {SPAN} at (0,16) size 367x264 [color=#FFFFFF] [bgcolor=#000000]
      RenderBlock {P} at (0,0) size 367x264
        RenderText {#text} at (0,0) size 367x264
          text run at (0,0) width 351: "Lorem ipsum dolor sit amet, consectetuer adipiscing"
          text run at (0,22) width 343: "elit. Nulla varius enim ac mi. Curabitur sollicitudin"
          text run at (0,44) width 329: "felis quis lectus. Quisque adipiscing rhoncus sem."
          text run at (0,66) width 367: "Proin nulla purus, vulputate vel, varius ut, euismod et,"
          text run at (0,88) width 325: "nisi. Sed vitae felis vel orci sagittis aliquam. Cras"
          text run at (0,110) width 315: "convallis adipiscing sem. Nam nonummy enim."
          text run at (0,132) width 341: "Nullam bibendum lobortis neque. Vestibulum velit"
          text run at (0,154) width 348: "orci, tempus euismod, pretium quis, interdum vitae,"
          text run at (0,176) width 326: "nulla. Phasellus eget ante et tortor condimentum"
          text run at (0,198) width 364: "vestibulum. Suspendisse hendrerit quam nec felis. Sed"
          text run at (0,220) width 357: "varius turpis vitae pede. Lorem ipsum dolor sit amet,"
          text run at (0,242) width 184: "consectetuer adipiscing elit."
    RenderBlock (anonymous) at (0,288) size 367x264
      RenderText {#text} at (0,0) size 367x264
        text run at (0,0) width 351: "Lorem ipsum dolor sit amet, consectetuer adipiscing"
        text run at (0,22) width 343: "elit. Nulla varius enim ac mi. Curabitur sollicitudin"
        text run at (0,44) width 329: "felis quis lectus. Quisque adipiscing rhoncus sem."
        text run at (0,66) width 367: "Proin nulla purus, vulputate vel, varius ut, euismod et,"
        text run at (0,88) width 325: "nisi. Sed vitae felis vel orci sagittis aliquam. Cras"
        text run at (0,110) width 315: "convallis adipiscing sem. Nam nonummy enim."
        text run at (0,132) width 341: "Nullam bibendum lobortis neque. Vestibulum velit"
        text run at (0,154) width 348: "orci, tempus euismod, pretium quis, interdum vitae,"
        text run at (0,176) width 326: "nulla. Phasellus eget ante et tortor condimentum"
        text run at (0,198) width 364: "vestibulum. Suspendisse hendrerit quam nec felis. Sed"
        text run at (0,220) width 357: "varius turpis vitae pede. Lorem ipsum dolor sit amet,"
        text run at (0,242) width 184: "consectetuer adipiscing elit."
    RenderBlock {P} at (0,568) size 367x0
