layer at (0,0) size 800x600
  RenderView at (0,0) size 800x600
layer at (0,0) size 800x600
  RenderBlock {HTML} at (0,0) size 800x600
    RenderBody {BODY} at (8,8) size 784x584
      RenderBlock {DIV} at (0,0) size 784x104
        RenderBlock {P} at (0,0) size 784x22
          RenderText {#text} at (0,0) size 29x22
            text run at (0,0) width 29: "For "
          RenderInline {A} at (0,0) size 72x22 [color=#0000EE]
            RenderText {#text} at (29,0) size 72x22
              text run at (29,0) width 72: "Bug 32123"
          RenderText {#text} at (101,0) size 332x22
            text run at (101,0) width 8: ". "
            text run at (109,0) width 324: "Hightlight for Selection should fit the target line."
        RenderBlock (anonymous) at (0,38) size 784x22
          RenderInline {SPAN} at (0,0) size 8x22
            RenderText {#text} at (0,0) size 8x22
              text run at (0,0) width 8: "a"
        RenderBlock {DIV} at (0,60) size 784x22
          RenderText {#text} at (0,0) size 138x22
            text run at (0,0) width 138: "should just select me"
        RenderBlock (anonymous) at (0,82) size 784x22
          RenderInline {SPAN} at (0,0) size 7x22
            RenderText {#text} at (0,0) size 7x22
              text run at (0,0) width 7: "c"
          RenderText {#text} at (0,0) size 0x0
selection start: position 1 of child 0 {#text} of child 3 {SPAN} of child 1 {DIV} of body
selection end:   position 0 of child 5 {SPAN} of child 1 {DIV} of body
