layer at (0,0) size 480x360
  RenderView at (0,0) size 480x360
layer at (0,0) size 480x360
  RenderSVGRoot {svg} at (0,0) size 480x360
    RenderSVGContainer {g} at (140,80) size 200x200
      RenderSVGHiddenContainer {defs} at (0,0) size 0x0
        RenderSVGPath {rect} at (0,0) size 480x360 [fill={[type=SOLID] [color=#000000]}] [x=0.00] [y=0.00] [width=480.00] [height=360.00]
      RenderSVGPath {rect} at (140,80) size 200x200 [fill={[type=SOLID] [color=#FF0000]}] [x=140.00] [y=80.00] [width=200.00] [height=200.00]
      RenderSVGHiddenContainer {defs} at (0,0) size 0x0
        RenderSVGPath {rect} at (160,100) size 160x160 [fill={[type=SOLID] [color=#008000]}] [x=160.00] [y=100.00] [width=160.00] [height=160.00]
    RenderSVGText {text} at (10,304) size 261x46 contains 1 chunk(s)
      RenderSVGInlineText {#text} at (0,0) size 261x46
        chunk 1 text run 1 at (10.00,340.00) startOffset 0 endOffset 16 width 261.00: "$Revision: 1.7 $"
    RenderSVGPath {rect} at (0,0) size 480x360 [stroke={[type=SOLID] [color=#000000]}] [x=1.00] [y=1.00] [width=478.00] [height=358.00]
