layer at (0,0) size 800x600
  RenderView at (0,0) size 800x600
layer at (0,0) size 800x600
  RenderBlock {HTML} at (0,0) size 800x600
    RenderBody {BODY} at (8,8) size 784x584
      RenderTable {TABLE} at (0,0) size 784x418 [border: none]
        RenderTableSection {TBODY} at (0,0) size 783x417
          RenderTableRow {TR} at (0,0) size 783x25
            RenderTableCell {TH} at (0,0) size 111x25 [border: (1px solid #005A8C)] [r=0 c=0 rs=1 cs=1]
              RenderText {#text} at (42,2) size 28x22
                text run at (42,2) width 28: "Sun"
            RenderTableCell {TH} at (111,0) size 112x25 [border: (1px solid #005A8C)] [r=0 c=1 rs=1 cs=1]
              RenderText {#text} at (40,2) size 33x22
                text run at (40,2) width 33: "Mon"
            RenderTableCell {TH} at (223,0) size 112x25 [border: (1px solid #005A8C)] [r=0 c=2 rs=1 cs=1]
              RenderText {#text} at (43,2) size 27x22
                text run at (43,2) width 27: "Tue"
            RenderTableCell {TH} at (335,0) size 112x25 [border: (1px solid #005A8C)] [r=0 c=3 rs=1 cs=1]
              RenderText {#text} at (40,2) size 33x22
                text run at (40,2) width 33: "Wed"
            RenderTableCell {TH} at (447,0) size 112x25 [border: (1px solid #005A8C)] [r=0 c=4 rs=1 cs=1]
              RenderText {#text} at (42,2) size 29x22
                text run at (42,2) width 29: "Thu"
            RenderTableCell {TH} at (559,0) size 112x25 [border: (1px solid #005A8C)] [r=0 c=5 rs=1 cs=1]
              RenderText {#text} at (46,2) size 21x22
                text run at (46,2) width 21: "Fri"
            RenderTableCell {TH} at (671,0) size 112x25 [border: (1px solid #005A8C)] [r=0 c=6 rs=1 cs=1]
              RenderText {#text} at (45,2) size 23x22
                text run at (45,2) width 23: "Sat"
          RenderTableRow {TR} at (0,25) size 783x47
            RenderTableCell {TD} at (0,25) size 559x3 [border: (1px solid #005A8C)] [r=1 c=0 rs=1 cs=5]
            RenderTableCell {TD} at (559,25) size 112x47 [border: (1px solid #005A8C)] [r=1 c=5 rs=1 cs=1]
              RenderBlock {DIV} at (2,2) size 109x22
                RenderText {#text} at (0,0) size 8x22
                  text run at (0,0) width 8: "1"
              RenderBlock {DIV} at (2,24) size 109x22
                RenderText {#text} at (0,0) size 29x22
                  text run at (0,0) width 29: "7:50"
            RenderTableCell {TD} at (671,25) size 112x47 [border: (1px solid #005A8C)] [r=1 c=6 rs=1 cs=1]
              RenderBlock {DIV} at (2,2) size 109x22
                RenderText {#text} at (0,0) size 8x22
                  text run at (0,0) width 8: "2"
              RenderBlock (anonymous) at (2,24) size 109x22
                RenderText {#text} at (0,0) size 106x22
                  text run at (0,0) width 106: "Althea Halliday"
                RenderBR {BR} at (106,16) size 0x0
          RenderTableRow {TR} at (0,72) size 783x91
            RenderTableCell {TD} at (0,72) size 111x91 [border: (1px solid #005A8C)] [r=2 c=0 rs=1 cs=1]
              RenderBlock {DIV} at (2,2) size 108x22
                RenderText {#text} at (0,0) size 8x22
                  text run at (0,0) width 8: "3"
              RenderBlock (anonymous) at (2,24) size 108x66
                RenderText {#text} at (0,0) size 70x22
                  text run at (0,0) width 70: "CHORTle"
                RenderBR {BR} at (70,16) size 0x0
                RenderText {#text} at (0,22) size 75x44
                  text run at (0,22) width 65: "Avondale"
                  text run at (0,44) width 75: "graduation"
            RenderTableCell {TD} at (111,72) size 112x47 [border: (1px solid #005A8C)] [r=2 c=1 rs=1 cs=1]
              RenderBlock {DIV} at (2,2) size 109x22
                RenderText {#text} at (0,0) size 8x22
                  text run at (0,0) width 8: "4"
              RenderBlock (anonymous) at (2,24) size 109x22
                RenderBR {BR} at (0,0) size 0x22
            RenderTableCell {TD} at (223,72) size 112x69 [border: (1px solid #005A8C)] [r=2 c=2 rs=1 cs=1]
              RenderBlock {DIV} at (2,2) size 109x22
                RenderText {#text} at (0,0) size 8x22
                  text run at (0,0) width 8: "5"
              RenderBlock (anonymous) at (2,24) size 109x44
                RenderText {#text} at (0,0) size 85x44
                  text run at (0,0) width 85: "SAC Speech"
                  text run at (0,22) width 35: "night"
            RenderTableCell {TD} at (335,72) size 112x69 [border: (1px solid #005A8C)] [r=2 c=3 rs=1 cs=1]
              RenderBlock {DIV} at (2,2) size 109x22
                RenderText {#text} at (0,0) size 8x22
                  text run at (0,0) width 8: "6"
              RenderBlock (anonymous) at (2,24) size 109x44
                RenderText {#text} at (0,0) size 89x44
                  text run at (0,0) width 89: "Management"
                  text run at (0,22) width 69: "committee"
            RenderTableCell {TD} at (447,72) size 112x91 [border: (1px solid #005A8C)] [r=2 c=4 rs=1 cs=1]
              RenderBlock {DIV} at (2,2) size 109x22
                RenderText {#text} at (0,0) size 8x22
                  text run at (0,0) width 8: "7"
              RenderBlock (anonymous) at (2,24) size 109x66
                RenderText {#text} at (0,0) size 106x66
                  text run at (0,0) width 100: "Castle Hill and"
                  text run at (0,22) width 106: "Mountain View"
                  text run at (0,44) width 93: "Speech nights"
            RenderTableCell {TD} at (559,72) size 112x47 [border: (1px solid #005A8C)] [r=2 c=5 rs=1 cs=1]
              RenderBlock {DIV} at (2,2) size 109x22
                RenderText {#text} at (0,0) size 8x22
                  text run at (0,0) width 8: "8"
              RenderBlock {DIV} at (2,24) size 109x22
                RenderText {#text} at (0,0) size 29x22
                  text run at (0,0) width 29: "7:56"
            RenderTableCell {TD} at (671,72) size 112x47 [border: (1px solid #005A8C)] [r=2 c=6 rs=1 cs=1]
              RenderBlock {DIV} at (2,2) size 109x22
                RenderText {#text} at (0,0) size 8x22
                  text run at (0,0) width 8: "9"
              RenderBlock (anonymous) at (2,24) size 109x22
                RenderText {#text} at (0,0) size 96x22
                  text run at (0,0) width 96: "Reconciliation"
          RenderTableRow {TR} at (0,163) size 783x91
            RenderTableCell {TD} at (0,163) size 111x69 [border: (1px solid #005A8C)] [r=3 c=0 rs=1 cs=1]
              RenderBlock {DIV} at (2,2) size 108x22
                RenderText {#text} at (0,0) size 16x22
                  text run at (0,0) width 16: "10"
              RenderBlock (anonymous) at (2,24) size 108x44
                RenderText {#text} at (0,0) size 70x44
                  text run at (0,0) width 70: "Christmas"
                  text run at (0,22) width 37: "party"
                RenderBR {BR} at (37,38) size 0x0
            RenderTableCell {TD} at (111,163) size 112x47 [border: (1px solid #005A8C)] [r=3 c=1 rs=1 cs=1]
              RenderBlock {DIV} at (2,2) size 109x22
                RenderText {#text} at (0,0) size 16x22
                  text run at (0,0) width 16: "11"
              RenderBlock (anonymous) at (2,24) size 109x22
                RenderBR {BR} at (0,0) size 0x22
            RenderTableCell {TD} at (223,163) size 112x47 [border: (1px solid #005A8C)] [r=3 c=2 rs=1 cs=1]
              RenderBlock {DIV} at (2,2) size 109x22
                RenderText {#text} at (0,0) size 16x22
                  text run at (0,0) width 16: "12"
              RenderBlock (anonymous) at (2,24) size 109x22
                RenderBR {BR} at (0,0) size 0x22
            RenderTableCell {TD} at (335,163) size 112x91 [border: (1px solid #005A8C)] [r=3 c=3 rs=1 cs=1]
              RenderBlock {DIV} at (2,2) size 109x22
                RenderText {#text} at (0,0) size 16x22
                  text run at (0,0) width 16: "13"
              RenderBlock (anonymous) at (2,24) size 109x66
                RenderText {#text} at (0,0) size 81x66
                  text run at (0,0) width 81: "Community"
                  text run at (0,22) width 67: "Ministries"
                  text run at (0,44) width 69: "committee"
            RenderTableCell {TD} at (447,163) size 112x47 [border: (1px solid #005A8C)] [r=3 c=4 rs=1 cs=1]
              RenderBlock {DIV} at (2,2) size 109x22
                RenderText {#text} at (0,0) size 16x22
                  text run at (0,0) width 16: "14"
              RenderBlock (anonymous) at (2,24) size 109x22
                RenderBR {BR} at (0,0) size 0x22
            RenderTableCell {TD} at (559,163) size 112x47 [border: (1px solid #005A8C)] [r=3 c=5 rs=1 cs=1]
              RenderBlock {DIV} at (2,2) size 109x22
                RenderText {#text} at (0,0) size 16x22
                  text run at (0,0) width 16: "15"
              RenderBlock {DIV} at (2,24) size 109x22
                RenderText {#text} at (0,0) size 29x22
                  text run at (0,0) width 29: "8:02"
            RenderTableCell {TD} at (671,163) size 112x47 [border: (1px solid #005A8C)] [r=3 c=6 rs=1 cs=1]
              RenderBlock {DIV} at (2,2) size 109x22
                RenderText {#text} at (0,0) size 16x22
                  text run at (0,0) width 16: "16"
              RenderBlock (anonymous) at (2,24) size 109x22
                RenderText {#text} at (0,0) size 71x22
                  text run at (0,0) width 71: "Paul Goltz"
                RenderBR {BR} at (71,16) size 0x0
          RenderTableRow {TR} at (0,254) size 783x69
            RenderTableCell {TD} at (0,254) size 111x47 [border: (1px solid #005A8C)] [r=4 c=0 rs=1 cs=1]
              RenderBlock {DIV} at (2,2) size 108x22
                RenderText {#text} at (0,0) size 16x22
                  text run at (0,0) width 16: "17"
              RenderBlock (anonymous) at (2,24) size 108x22
                RenderBR {BR} at (0,0) size 0x22
            RenderTableCell {TD} at (111,254) size 112x47 [border: (1px solid #005A8C)] [r=4 c=1 rs=1 cs=1]
              RenderBlock {DIV} at (2,2) size 109x22
                RenderText {#text} at (0,0) size 16x22
                  text run at (0,0) width 16: "18"
              RenderBlock (anonymous) at (2,24) size 109x22
                RenderBR {BR} at (0,0) size 0x22
            RenderTableCell {TD} at (223,254) size 112x69 [border: (1px solid #005A8C)] [r=4 c=2 rs=1 cs=1]
              RenderBlock {DIV} at (2,2) size 109x22
                RenderText {#text} at (0,0) size 16x22
                  text run at (0,0) width 16: "19"
              RenderBlock (anonymous) at (2,24) size 109x44
                RenderText {#text} at (0,0) size 75x44
                  text run at (0,0) width 75: "End school"
                  text run at (0,22) width 44: "term 4"
            RenderTableCell {TD} at (335,254) size 112x47 [border: (1px solid #005A8C)] [r=4 c=3 rs=1 cs=1]
              RenderBlock {DIV} at (2,2) size 109x22
                RenderText {#text} at (0,0) size 16x22
                  text run at (0,0) width 16: "20"
              RenderBlock (anonymous) at (2,24) size 109x22
                RenderBR {BR} at (0,0) size 0x22
            RenderTableCell {TD} at (447,254) size 112x47 [border: (1px solid #005A8C)] [r=4 c=4 rs=1 cs=1]
              RenderBlock {DIV} at (2,2) size 109x22
                RenderText {#text} at (0,0) size 16x22
                  text run at (0,0) width 16: "21"
              RenderBlock (anonymous) at (2,24) size 109x22
                RenderBR {BR} at (0,0) size 0x22
            RenderTableCell {TD} at (559,254) size 112x47 [border: (1px solid #005A8C)] [r=4 c=5 rs=1 cs=1]
              RenderBlock {DIV} at (2,2) size 109x22
                RenderText {#text} at (0,0) size 16x22
                  text run at (0,0) width 16: "22"
              RenderBlock {DIV} at (2,24) size 109x22
                RenderText {#text} at (0,0) size 29x22
                  text run at (0,0) width 29: "8:06"
            RenderTableCell {TD} at (671,254) size 112x69 [border: (1px solid #005A8C)] [r=4 c=6 rs=1 cs=1]
              RenderBlock {DIV} at (2,2) size 109x22
                RenderText {#text} at (0,0) size 16x22
                  text run at (0,0) width 16: "23"
              RenderBlock (anonymous) at (2,24) size 109x44
                RenderText {#text} at (0,0) size 80x44
                  text run at (0,0) width 70: "Christmas"
                  text run at (0,22) width 80: "programme"
                RenderBR {BR} at (80,38) size 0x0
          RenderTableRow {TR} at (0,323) size 783x47
            RenderTableCell {TD} at (0,323) size 111x47 [border: (1px solid #005A8C)] [r=5 c=0 rs=1 cs=1]
              RenderBlock {DIV} at (2,2) size 108x22
                RenderText {#text} at (0,0) size 16x22
                  text run at (0,0) width 16: "24"
              RenderBlock (anonymous) at (2,24) size 108x22
                RenderBR {BR} at (0,0) size 0x22
            RenderTableCell {TD} at (111,323) size 112x47 [border: (1px solid #005A8C)] [r=5 c=1 rs=1 cs=1]
              RenderBlock {DIV} at (2,2) size 109x22
                RenderText {#text} at (0,0) size 16x22
                  text run at (0,0) width 16: "25"
              RenderBlock (anonymous) at (2,24) size 109x22
                RenderText {#text} at (0,0) size 99x22
                  text run at (0,0) width 99: "Christmas day"
                RenderBR {BR} at (99,16) size 0x0
            RenderTableCell {TD} at (223,323) size 112x47 [border: (1px solid #005A8C)] [r=5 c=2 rs=1 cs=1]
              RenderBlock {DIV} at (2,2) size 109x22
                RenderText {#text} at (0,0) size 16x22
                  text run at (0,0) width 16: "26"
              RenderBlock (anonymous) at (2,24) size 109x22
                RenderText {#text} at (0,0) size 77x22
                  text run at (0,0) width 77: "Boxing day"
                RenderBR {BR} at (77,16) size 0x0
            RenderTableCell {TD} at (335,323) size 112x47 [border: (1px solid #005A8C)] [r=5 c=3 rs=1 cs=1]
              RenderBlock {DIV} at (2,2) size 109x22
                RenderText {#text} at (0,0) size 16x22
                  text run at (0,0) width 16: "27"
              RenderBlock (anonymous) at (2,24) size 109x22
                RenderBR {BR} at (0,0) size 0x22
            RenderTableCell {TD} at (447,323) size 112x47 [border: (1px solid #005A8C)] [r=5 c=4 rs=1 cs=1]
              RenderBlock {DIV} at (2,2) size 109x22
                RenderText {#text} at (0,0) size 16x22
                  text run at (0,0) width 16: "28"
              RenderBlock (anonymous) at (2,24) size 109x22
                RenderBR {BR} at (0,0) size 0x22
            RenderTableCell {TD} at (559,323) size 112x47 [border: (1px solid #005A8C)] [r=5 c=5 rs=1 cs=1]
              RenderBlock {DIV} at (2,2) size 109x22
                RenderText {#text} at (0,0) size 16x22
                  text run at (0,0) width 16: "29"
              RenderBlock {DIV} at (2,24) size 109x22
                RenderText {#text} at (0,0) size 29x22
                  text run at (0,0) width 29: "8:09"
            RenderTableCell {TD} at (671,323) size 112x47 [border: (1px solid #005A8C)] [r=5 c=6 rs=1 cs=1]
              RenderBlock {DIV} at (2,2) size 109x22
                RenderText {#text} at (0,0) size 16x22
                  text run at (0,0) width 16: "30"
              RenderBlock (anonymous) at (2,24) size 109x22
                RenderText {#text} at (0,0) size 99x22
                  text run at (0,0) width 99: "David Holman"
                RenderBR {BR} at (99,16) size 0x0
          RenderTableRow {TR} at (0,370) size 783x47
            RenderTableCell {TD} at (0,370) size 111x47 [border: (1px solid #005A8C)] [r=6 c=0 rs=1 cs=1]
              RenderBlock {DIV} at (2,2) size 108x22
                RenderText {#text} at (0,0) size 16x22
                  text run at (0,0) width 16: "31"
              RenderBlock (anonymous) at (2,24) size 108x22
                RenderBR {BR} at (0,0) size 0x22
            RenderTableCell {TD} at (111,370) size 672x3 [border: (1px solid #005A8C)] [r=6 c=1 rs=1 cs=6]
